{"movies":[{"id":"1007","name":"Mai Asahina in thong licks hard phallus","image":"http:\/\/statics.javhihi.com\/images\/movies\/javhihi.com-mai-asahina-in-thong-licks-hard-phallus.jpg","image_small":"http:\/\/statics.javhihi.com\/images\/movies\/javhihi.com-mai-asahina-in-thong-licks-hard-phallus.small.jpg","categories":["amateur","blowjob","cumshot","handjob"],"tags":["nice-teen","pov","cock-sucking","hand-work","ball-licking","cum-in-mouth"],"pornstars":["mai-asahina"],"duration":"10:10","quality":"3","year":"0","view":"21,579","viewday":"0","viewweek":"1361","viewmonth":"1360","like":"29","likeday":"0","likeweek":"1","likemonth":"1","published":"2016-04-10","dmca":"0","url":"movie\/mai-asahina-in-thong-licks-hard-phallus.1007.html"},{"id":"1004","name":"Asian hottie Yurika Gotou pleasuring herself with vibrators","image":"http:\/\/statics.javhihi.com\/images\/movies\/javhihi.com-asian-hottie-yurika-gotou-pleasuring-herself-with-vibrators.jpg","image_small":"http:\/\/statics.javhihi.com\/images\/movies\/javhihi.com-asian-hottie-yurika-gotou-pleasuring-herself-with-vibrators.small.jpg","categories":["amateur","masturbation","shaved-pussy","toys"],"tags":["busty","sex-toys","nice-teen","toy-insertion","pink-pussy","amateur","pussy-stimulation","masturbation","solo-girl","pussy"],"pornstars":["yurika-gotou"],"duration":"7:05","quality":"3","year":"0","view":"11,843","viewday":"0","viewweek":"707","viewmonth":"707","like":"7","likeday":"0","likeweek":"1","likemonth":"1","published":"2016-04-09","dmca":"0","url":"movie\/asian-hottie-yurika-gotou-pleasuring-herself-with-vibrators.1004.html"},{"id":"1001","name":"Ichika Asagiri  plow her pussy with a toy dick","image":"http:\/\/statics.javhihi.com\/images\/movies\/javhihi.com-ichika-asagiri-plow-her-pussy-with-a-toy-dick.jpg","image_small":"http:\/\/statics.javhihi.com\/images\/movies\/javhihi.com-ichika-asagiri-plow-her-pussy-with-a-toy-dick.small.jpg","categories":["amateur","hardcore","masturbation","mature","toys"],"tags":["mom","hot-mature","busty","masturbation","amateur","solo-girl","sex-toys","dildo","toy-insertion"],"pornstars":["ichika-asagiri"],"duration":"9:17","quality":"3","year":"0","view":"17,005","viewday":"290","viewweek":"1632","viewmonth":"1631","like":"25","likeday":"0","likeweek":"2","likemonth":"2","published":"2016-04-09","dmca":"0","url":"movie\/ichika-asagiri-plow-her-pussy-with-a-toy-dick.1001.html"},{"id":"998","name":"Azusa Miyakawa loves vibrator on pussy","image":"http:\/\/statics.javhihi.com\/images\/movies\/javhihi.com-azusa-miyakawa-loves-vibrator-on-pussy.jpg","image_small":"http:\/\/statics.javhihi.com\/images\/movies\/javhihi.com-azusa-miyakawa-loves-vibrator-on-pussy.small.jpg","categories":["amateur","blowjob","cumshot","toys"],"tags":["cock-sucking","hot-milf","sex-toys","toy-insertion","vibrator","amateur","cum-in-mouth","pov"],"pornstars":["azusa-miyakawa"],"duration":"25:07","quality":"1","year":"0","view":"11,148","viewday":"69","viewweek":"415","viewmonth":"415","like":"13","likeday":"0","likeweek":"0","likemonth":"0","published":"2016-04-08","dmca":"0","url":"movie\/azusa-miyakawa-loves-vibrator-on-pussy.998.html"},{"id":"993","name":"Sana Anzyu finger bang her hairy and moist kitty","image":"http:\/\/statics.javhihi.com\/images\/movies\/javhihi.com-sana-anzyu-finger-bang-her-hairy-and-moist-kitty.jpg","image_small":"http:\/\/statics.javhihi.com\/images\/movies\/javhihi.com-sana-anzyu-finger-bang-her-hairy-and-moist-kitty.small.jpg","categories":["amateur","big-tits","bikini","schoolgirl"],"tags":["amateur","nice-teen","school-uniform","mini-bikini","busty","solo-girl","tits","uniform"],"pornstars":["sana-anzyu"],"duration":"6:52","quality":"3","year":"0","view":"22,300","viewday":"404","viewweek":"2316","viewmonth":"2312","like":"22","likeday":"1","likeweek":"6","likemonth":"6","published":"2016-04-08","dmca":"0","url":"movie\/sana-anzyu-finger-bang-her-hairy-and-moist-kitty.993.html"},{"id":"987","name":"Asian teen babe Koyuki Ono solo masturbation","image":"http:\/\/statics.javhihi.com\/images\/movies\/javhihi.com-asian-teen-babe-koyuki-ono-solo-masturbation.jpg","image_small":"http:\/\/statics.javhihi.com\/images\/movies\/javhihi.com-asian-teen-babe-koyuki-ono-solo-masturbation.small.jpg","categories":["amateur","hairy-pussy","lingerie","masturbation"],"tags":["nice-teen","wet-clothes","shower","sexy-lingerie","masturbation","solo-girl","amateur","pissing","wet-clothing","pussy","uniform"],"pornstars":["koyuki-ono"],"duration":"12:53","quality":"3","year":"0","view":"19,581","viewday":"313","viewweek":"1681","viewmonth":"1680","like":"14","likeday":"0","likeweek":"6","likemonth":"6","published":"2016-04-07","dmca":"0","url":"movie\/asian-teen-babe-koyuki-ono-solo-masturbation.987.html"},{"id":"988","name":"Yukari hottest hard fucked and covered with cum shot.","image":"http:\/\/statics.javhihi.com\/images\/movies\/javhihi.com-yukari-hottest-hard-fucked-and-covered-with-cum-shot..jpg","image_small":"http:\/\/statics.javhihi.com\/images\/movies\/javhihi.com-yukari-hottest-hard-fucked-and-covered-with-cum-shot..small.jpg","categories":["amateur","blowjob","cumshot","facial","hairy-pussy"],"tags":["cock-sucking","hot-milf","hairy-pussy","amateur","pink-pussy","cum-on-face","cumshot","pussy"],"pornstars":["yukari"],"duration":"29:37","quality":"3","year":"0","view":"27,352","viewday":"181","viewweek":"1262","viewmonth":"1262","like":"23","likeday":"0","likeweek":"2","likemonth":"2","published":"2016-04-07","dmca":"0","url":"movie\/yukari-hottest-hard-fucked-and-covered-with-cum-shot..988.html"},{"id":"983","name":"Airi is naughty and licks dick so fine","image":"http:\/\/statics.javhihi.com\/images\/movies\/javhihi.com-airi-is-naughty-and-licks-dick-so-fine.jpg","image_small":"http:\/\/statics.javhihi.com\/images\/movies\/javhihi.com-airi-is-naughty-and-licks-dick-so-fine.small.jpg","categories":["amateur","blowjob","cumshot","handjob","pov"],"tags":["cock-sucking","hot-milf","amateur","cum-in-mouth","pov","cumshot","hand-work"],"pornstars":["airi"],"duration":"12:40","quality":"1","year":"0","view":"19,663","viewday":"465","viewweek":"1771","viewmonth":"1771","like":"31","likeday":"1","likeweek":"2","likemonth":"2","published":"2016-04-06","dmca":"0","url":"movie\/airi-is-naughty-and-licks-dick-so-fine.983.html"},{"id":"976","name":"Asian babe Yurina humping her guy's stiff boner","image":"http:\/\/statics.javhihi.com\/images\/movies\/javhihi.com-asian-babe-yurina-humping-her-guy-s-stiff-boner.jpg","image_small":"http:\/\/statics.javhihi.com\/images\/movies\/javhihi.com-asian-babe-yurina-humping-her-guy-s-stiff-boner.small.jpg","categories":["amateur","blowjob","cumshot","hairy-pussy"],"tags":["cock-sucking","hot-milf","hairy-pussy","busty","amateur","cum-in-mouth","ball-licking","pussy"],"pornstars":["yurina"],"duration":"9:33","quality":"3","year":"0","view":"6,432","viewday":"29","viewweek":"229","viewmonth":"229","like":"12","likeday":"0","likeweek":"0","likemonth":"0","published":"2016-04-05","dmca":"0","url":"movie\/asian-babe-yurina-humping-her-guy-s-stiff-boner.976.html"},{"id":"973","name":"Petite beauty Hitomi Kanou sexy masturbation","image":"http:\/\/statics.javhihi.com\/images\/movies\/javhihi.com-petite-beauty-hitomi-kanou-sexy-masturbation.jpg","image_small":"http:\/\/statics.javhihi.com\/images\/movies\/javhihi.com-petite-beauty-hitomi-kanou-sexy-masturbation.small.jpg","categories":["amateur","hardcore","milf","toys"],"tags":["mom","hot-milf","solo-girl","amateur","sex-toys","dildo","toy-insertion","high-heels"],"pornstars":["hitomi-kanou"],"duration":"9:48","quality":"3","year":"0","view":"45,152","viewday":"0","viewweek":"3370","viewmonth":"3368","like":"73","likeday":"0","likeweek":"9","likemonth":"9","published":"2016-04-04","dmca":"0","url":"movie\/petite-beauty-hitomi-kanou-sexy-masturbation.973.html"},{"id":"970","name":"Rina Yuuki is an Asian chick that craves for man-meat","image":"http:\/\/statics.javhihi.com\/images\/movies\/javhihi.com-rina-yuuki-is-an-asian-chick-that-craves-for-man-meat.jpg","image_small":"http:\/\/statics.javhihi.com\/images\/movies\/javhihi.com-rina-yuuki-is-an-asian-chick-that-craves-for-man-meat.small.jpg","categories":["amateur","blowjob","cumshot","facial","handjob"],"tags":["cock-sucking","busty","nice-teen","hand-work","cum-on-face","cumshot","ball-licking","amateur","cum-in-mouth"],"pornstars":["rina-yuuki"],"duration":"11:24","quality":"3","year":"0","view":"17,178","viewday":"154","viewweek":"937","viewmonth":"936","like":"15","likeday":"1","likeweek":"2","likemonth":"2","published":"2016-04-04","dmca":"0","url":"movie\/rina-yuuki-is-an-asian-chick-that-craves-for-man-meat.970.html"},{"id":"955","name":"Japanese Pornstar Akari Asagiri Squirts From Finger Fucking","image":"http:\/\/statics.javhihi.com\/images\/movies\/javhihi.com-japanese-pornstar-akari-asagiri-squirts-from-finger-fucking.jpg","image_small":"http:\/\/statics.javhihi.com\/images\/movies\/javhihi.com-japanese-pornstar-akari-asagiri-squirts-from-finger-fucking.small.jpg","categories":["amateur","big-tits","blowjob","hardcore"],"tags":["hot-milf","housewife","pov","amateur","busty","cock-sucking","pussy-licking","hardcore-action","dick-riding","doggy-style","nice-ass","creamed-pussy","tits"],"pornstars":["akari-asagiri"],"duration":"26:19","quality":"3","year":"0","view":"269,041","viewday":"1193","viewweek":"5118","viewmonth":"5115","like":"247","likeday":"2","likeweek":"4","likemonth":"4","published":"2016-04-01","dmca":"0","url":"movie\/japanese-pornstar-akari-asagiri-squirts-from-finger-fucking.955.html"},{"id":"946","name":"Hot Aika Hoshino gets vibrator on her clit","image":"http:\/\/statics.javhihi.com\/images\/movies\/javhihi.com-hot-aika-hoshino-gets-vibrator-on-her-clit.jpg","image_small":"http:\/\/statics.javhihi.com\/images\/movies\/javhihi.com-hot-aika-hoshino-gets-vibrator-on-her-clit.small.jpg","categories":["amateur","schoolgirl","shaved-pussy","toys"],"tags":["nice-teen","school-uniform","shaving","shaved-pussy","sex-toys","vibrator","pov","amateur","wet-pussy","pussy","uniform"],"pornstars":["aika-hoshino"],"duration":"11:19","quality":"3","year":"0","view":"27,734","viewday":"577","viewweek":"2195","viewmonth":"2195","like":"46","likeday":"0","likeweek":"2","likemonth":"2","published":"2016-03-31","dmca":"0","url":"movie\/hot-aika-hoshino-gets-vibrator-on-her-clit.946.html"},{"id":"949","name":"Rika Shibuki rubs cock while is licked","image":"http:\/\/statics.javhihi.com\/images\/movies\/javhihi.com-rika-shibuki-rubs-cock-while-is-licked.jpg","image_small":"http:\/\/statics.javhihi.com\/images\/movies\/javhihi.com-rika-shibuki-rubs-cock-while-is-licked.small.jpg","categories":["amateur","blowjob","bondage","handjob"],"tags":["female-domination","amateur","hand-work","cock-sucking","hot-milf"],"pornstars":["rika-shibuki"],"duration":"29:20","quality":"3","year":"0","view":"23,868","viewday":"207","viewweek":"1383","viewmonth":"1383","like":"26","likeday":"0","likeweek":"2","likemonth":"2","published":"2016-03-31","dmca":"0","url":"movie\/rika-shibuki-rubs-cock-while-is-licked.949.html"},{"id":"942","name":"Yuki Aida pleasing her shave clam with a vibrating rod","image":"http:\/\/statics.javhihi.com\/images\/movies\/javhihi.com-yuki-aida-pleasing-her-shave-clam-with-a-vibrating-rod.jpg","image_small":"http:\/\/statics.javhihi.com\/images\/movies\/javhihi.com-yuki-aida-pleasing-her-shave-clam-with-a-vibrating-rod.small.jpg","categories":["amateur","hairy-pussy","masturbation","toys"],"tags":["hairy-pussy","busty","nice-teen","pink-pussy","amateur","pussy-stimulation","masturbation","solo-girl","sex-toys","toy-insertion","pussy"],"pornstars":["yuki-aida"],"duration":"16:24","quality":"3","year":"0","view":"23,953","viewday":"186","viewweek":"1334","viewmonth":"1334","like":"30","likeday":"0","likeweek":"2","likemonth":"2","published":"2016-03-30","dmca":"0","url":"movie\/yuki-aida-pleasing-her-shave-clam-with-a-vibrating-rod.942.html"},{"id":"936","name":"Playful Asian Rei Serizawa tickled in her clit and finger-drilled","image":"http:\/\/statics.javhihi.com\/images\/movies\/javhihi.com-playful-asian-rei-serizawa-tickled-in-her-clit-and-finger-drilled.jpg","image_small":"http:\/\/statics.javhihi.com\/images\/movies\/javhihi.com-playful-asian-rei-serizawa-tickled-in-her-clit-and-finger-drilled.small.jpg","categories":["amateur","fingering","teen","toys"],"tags":["hairy-pussy","fingering","busty","sex-toys","nice-teen","toy-insertion","amateur","pussy-stimulation","misc","teen-pussy","pussy"],"pornstars":["rei-serizawa"],"duration":"11:49","quality":"3","year":"0","view":"10,403","viewday":"70","viewweek":"343","viewmonth":"343","like":"23","likeday":"0","likeweek":"0","likemonth":"0","published":"2016-03-29","dmca":"0","url":"movie\/playful-asian-rei-serizawa-tickled-in-her-clit-and-finger-drilled.936.html"},{"id":"933","name":"Asian schoolgirl Shizuku pleasure her twat with a toy rod","image":"http:\/\/statics.javhihi.com\/images\/movies\/javhihi.com-asian-schoolgirl-shizuku-pleasure-her-twat-with-a-toy-rod.jpg","image_small":"http:\/\/statics.javhihi.com\/images\/movies\/javhihi.com-asian-schoolgirl-shizuku-pleasure-her-twat-with-a-toy-rod.small.jpg","categories":["amateur","schoolgirl","shaved-pussy","teen","toys"],"tags":["nice-teen","school-uniform","amateur","sex-toys","toy-insertion","shaved-pussy","wet-pussy","oiled-body","masturbation","teen-pussy","pussy","uniform"],"pornstars":["shizuku"],"duration":"17:40","quality":"3","year":"0","view":"18,347","viewday":"180","viewweek":"1248","viewmonth":"1248","like":"22","likeday":"0","likeweek":"0","likemonth":"0","published":"2016-03-29","dmca":"0","url":"movie\/asian-schoolgirl-shizuku-pleasure-her-twat-with-a-toy-rod.933.html"},{"id":"931","name":"Hot Nobu Kashima holds big cans in bonking","image":"http:\/\/statics.javhihi.com\/images\/movies\/javhihi.com-hot-nobu-kashima-holds-big-cans-in-bonking.jpg","image_small":"http:\/\/statics.javhihi.com\/images\/movies\/javhihi.com-hot-nobu-kashima-holds-big-cans-in-bonking.small.jpg","categories":["amateur","cumshot","group-sex","hardcore","threesome"],"tags":["hot-milf","amateur","huge-boobs","vibrator","cock-sucking","fingering","group-action","mmf","hardcore-action","deep-penetration","cum-on-body"],"pornstars":["nobu-kashima"],"duration":"20:06","quality":"3","year":"0","view":"46,261","viewday":"0","viewweek":"2938","viewmonth":"2938","like":"52","likeday":"0","likeweek":"0","likemonth":"0","published":"2016-03-28","dmca":"0","url":"movie\/hot-nobu-kashima-holds-big-cans-in-bonking.931.html"},{"id":"922","name":"Shiho Kanou gets vibrator in fingering","image":"http:\/\/statics.javhihi.com\/images\/movies\/javhihi.com-shiho-kanou-gets-vibrator-in-fingering.jpg","image_small":"http:\/\/statics.javhihi.com\/images\/movies\/javhihi.com-shiho-kanou-gets-vibrator-in-fingering.small.jpg","categories":["amateur","fingering","hairy-pussy","toys"],"tags":["hairy-pussy","fingering","busty","sex-toys","toy-insertion","amateur","pussy-stimulation","pussy"],"pornstars":["shiho-kanou"],"duration":"13:54","quality":"3","year":"0","view":"25,117","viewday":"110","viewweek":"565","viewmonth":"561","like":"42","likeday":"0","likeweek":"0","likemonth":"0","published":"2016-03-27","dmca":"0","url":"movie\/shiho-kanou-gets-vibrator-in-fingering.922.html"},{"id":"908","name":"Yuri Hirayama pleasures pussy on and on","image":"http:\/\/statics.javhihi.com\/images\/movies\/javhihi.com-yuri-hirayama-pleasures-pussy-on-and-on.jpg","image_small":"http:\/\/statics.javhihi.com\/images\/movies\/javhihi.com-yuri-hirayama-pleasures-pussy-on-and-on.small.jpg","categories":["amateur","hairy-pussy","masturbation","toys"],"tags":["hairy-pussy","busty","sex-toys","toy-insertion","vibrator","amateur","pussy-stimulation","masturbation","solo-girl","pussy"],"pornstars":["yuri-hirayama"],"duration":"11:04","quality":"3","year":"0","view":"9,337","viewday":"3","viewweek":"581","viewmonth":"581","like":"8","likeday":"0","likeweek":"0","likemonth":"0","published":"2016-03-25","dmca":"0","url":"movie\/yuri-hirayama-pleasures-pussy-on-and-on.908.html"},{"id":"911","name":"Shizuku pleases her cooter with vibrator","image":"http:\/\/statics.javhihi.com\/images\/movies\/javhihi.com-shizuku-pleases-her-cooter-with-vibrator.jpg","image_small":"http:\/\/statics.javhihi.com\/images\/movies\/javhihi.com-shizuku-pleases-her-cooter-with-vibrator.small.jpg","categories":["amateur","masturbation","shaved-pussy"],"tags":["nice-teen","amateur","shaving","shaved-pussy","busty","sex-toys","masturbation","vibrator","pussy"],"pornstars":["shizuku"],"duration":"10:00","quality":"3","year":"0","view":"10,926","viewday":"70","viewweek":"480","viewmonth":"480","like":"18","likeday":"0","likeweek":"0","likemonth":"0","published":"2016-03-25","dmca":"0","url":"movie\/shizuku-pleases-her-cooter-with-vibrator.911.html"},{"id":"907","name":"Akane Ozora fondles big cans and love box","image":"http:\/\/statics.javhihi.com\/images\/movies\/javhihi.com-akane-ozora-fondles-big-cans-and-love-box.jpg","image_small":"http:\/\/statics.javhihi.com\/images\/movies\/javhihi.com-akane-ozora-fondles-big-cans-and-love-box.small.jpg","categories":["amateur","hairy-pussy","masturbation","stockings"],"tags":["hairy-pussy","sex-toys","toy-insertion","pink-pussy","amateur","pussy-stimulation","masturbation","solo-girl","pussy","uniform"],"pornstars":["akane-ozora"],"duration":"10:50","quality":"3","year":"0","view":"14,393","viewday":"3","viewweek":"795","viewmonth":"795","like":"13","likeday":"0","likeweek":"1","likemonth":"1","published":"2016-03-25","dmca":"0","url":"movie\/akane-ozora-fondles-big-cans-and-love-box.907.html"},{"id":"905","name":"Asian babe Rin Yuzuki finger play with her pinkish clam","image":"http:\/\/statics.javhihi.com\/images\/movies\/javhihi.com-asian-babe-rin-yuzuki-finger-play-with-her-pinkish-clam.jpg","image_small":"http:\/\/statics.javhihi.com\/images\/movies\/javhihi.com-asian-babe-rin-yuzuki-finger-play-with-her-pinkish-clam.small.jpg","categories":["amateur","schoolgirl","shaved-pussy","teen"],"tags":["nice-teen","close-up","school-uniform","shaved-pussy","pink-pussy","amateur","teen-pussy","pussy","uniform"],"pornstars":["rin-yuzuki"],"duration":"9:46","quality":"3","year":"0","view":"39,322","viewday":"375","viewweek":"2002","viewmonth":"2002","like":"71","likeday":"1","likeweek":"4","likemonth":"4","published":"2016-03-24","dmca":"0","url":"movie\/asian-babe-rin-yuzuki-finger-play-with-her-pinkish-clam.905.html"},{"id":"895","name":"Shiho Kanou is turned on with vibrator","image":"http:\/\/statics.javhihi.com\/images\/movies\/javhihi.com-shiho-kanou-is-turned-on-with-vibrator.jpg","image_small":"http:\/\/statics.javhihi.com\/images\/movies\/javhihi.com-shiho-kanou-is-turned-on-with-vibrator.small.jpg","categories":["amateur","creampie","hairy-pussy","toys"],"tags":["hairy-pussy","sex-toys","toy-insertion","vibrator","creamed-pussy","amateur","pussy-stimulation","solo-girl","pussy-creampies","pussy"],"pornstars":["shiho-kanou"],"duration":"11:54","quality":"3","year":"0","view":"5,564","viewday":"25","viewweek":"172","viewmonth":"172","like":"5","likeday":"0","likeweek":"0","likemonth":"0","published":"2016-03-23","dmca":"0","url":"movie\/shiho-kanou-is-turned-on-with-vibrator.895.html"}],"total":232,"next_page_url":"movie\/amateur.html?sort=published&page=3","page":2,"total_page":10}