{"movies":[{"id":"1053","name":"Sakura Anna hottest hardcore dick riding action","image":"http:\/\/statics.javhihi.com\/images\/movies\/javhihi.com-sakura-anna-hottest-hardcore-dick-riding-action.jpg","image_small":"http:\/\/statics.javhihi.com\/images\/movies\/javhihi.com-sakura-anna-hottest-hardcore-dick-riding-action.small.jpg","categories":["big-tits","blowjob","creampie","hardcore","tit-fuck"],"tags":["hot-milf","busty","fingering","cock-sucking","shower","soaping","masturbation","tit-fuck","hardcore-action","dick-riding","creamed-pussy","pussy-creampies","tits"],"pornstars":["sakura-anna"],"duration":"29:29","quality":"3","year":"0","view":"28,973","viewday":"491","viewweek":"2879","viewmonth":"2879","like":"38","likeday":"0","likeweek":"6","likemonth":"6","published":"2016-04-17","dmca":"0","url":"movie\/sakura-anna-hottest-hardcore-dick-riding-action.1053.html"},{"id":"1046","name":"Satomi Suzuki busty is fucked like crazy","image":"http:\/\/statics.javhihi.com\/images\/movies\/javhihi.com-satomi-suzuki-busty-is-fucked-like-crazy.jpg","image_small":"http:\/\/statics.javhihi.com\/images\/movies\/javhihi.com-satomi-suzuki-busty-is-fucked-like-crazy.small.jpg","categories":["big-tits","blowjob","hairy-pussy","hardcore","teen"],"tags":["nice-teen","busty","hairy-pussy","pussy-stimulation","fingering","cock-sucking","nice-ass","dick-riding","hardcore-action","doggy-style","teen-pussy","pussy","tits"],"pornstars":["satomi-suzuki"],"duration":"23:43","quality":"3","year":"0","view":"121,263","viewday":"3161","viewweek":"14959","viewmonth":"14948","like":"209","likeday":"3","likeweek":"24","likemonth":"24","published":"2016-04-16","dmca":"0","url":"movie\/satomi-suzuki-busty-is-fucked-like-crazy.1046.html"},{"id":"1043","name":"Sexy MILF Ai Sakura riding a thick dildo","image":"http:\/\/statics.javhihi.com\/images\/movies\/javhihi.com-sexy-milf-ai-sakura-riding-a-thick-dildo.jpg","image_small":"http:\/\/statics.javhihi.com\/images\/movies\/javhihi.com-sexy-milf-ai-sakura-riding-a-thick-dildo.small.jpg","categories":["big-tits","fingering","hardcore","milf","toys"],"tags":["hot-milf","busty","oiled-body","pink-pussy","close-up","fingering","masturbation","sex-toys","dildo-sucking","dildo-riding","solo-girl","nice-ass","shaved-pussy","tits"],"pornstars":["ai-sakura"],"duration":"13:58","quality":"3","year":"0","view":"12,301","viewday":"200","viewweek":"1366","viewmonth":"1365","like":"12","likeday":"0","likeweek":"2","likemonth":"2","published":"2016-04-16","dmca":"0","url":"movie\/sexy-milf-ai-sakura-riding-a-thick-dildo.1043.html"},{"id":"1038","name":"Pretty JAV Star Nana Oshikiri Fucked Doggy Style and Creamed","image":"http:\/\/statics.javhihi.com\/images\/movies\/javhihi.com-pretty-jav-star-nana-oshikiri-fucked-doggy-style-and-creamed.jpg","image_small":"http:\/\/statics.javhihi.com\/images\/movies\/javhihi.com-pretty-jav-star-nana-oshikiri-fucked-doggy-style-and-creamed.small.jpg","categories":["big-tits","hairy-pussy","hardcore"],"tags":["busty","sexy-lingerie","pink-pussy","hairy-pussy","tit-licking","pussy-licking","fingering","cock-sucking","69","dick-riding","hardcore-action","doggy-style","creamed-pussy","pussy","tits","lick","pussy-lick"],"pornstars":["nana-oshikiri"],"duration":"30:04","quality":"3","year":"0","view":"61,989","viewday":"1277","viewweek":"7758","viewmonth":"7753","like":"127","likeday":"1","likeweek":"20","likemonth":"19","published":"2016-04-15","dmca":"0","url":"movie\/pretty-jav-star-nana-oshikiri-fucked-doggy-style-and-creamed.1038.html"},{"id":"1035","name":"Stunning blond Asian porn star flaunting her goodies and rubbing her wet snatch","image":"http:\/\/statics.javhihi.com\/images\/movies\/javhihi.com-stunning-blond-asian-porn-star-flaunting-her-goodies-and-rubbing-her-wet-snatch.jpg","image_small":"http:\/\/statics.javhihi.com\/images\/movies\/javhihi.com-stunning-blond-asian-porn-star-flaunting-her-goodies-and-rubbing-her-wet-snatch.small.jpg","categories":["amateur","big-tits","hardcore","masturbation","milf"],"tags":["mom","hot-milf","amateur","busty","long-nails","masturbation","solo-girl","sex-toys","vibrator","tits"],"pornstars":["rina-aina"],"duration":"14:48","quality":"3","year":"0","view":"13,794","viewday":"146","viewweek":"1089","viewmonth":"1088","like":"22","likeday":"0","likeweek":"0","likemonth":"0","published":"2016-04-14","dmca":"0","url":"movie\/stunning-blond-asian-porn-star-flaunting-her-goodies-and-rubbing-her-wet-snatch.1035.html"},{"id":"1030","name":"Ai Sakura licks woody while is screwed","image":"http:\/\/statics.javhihi.com\/images\/movies\/javhihi.com-ai-sakura-licks-woody-while-is-screwed.jpg","image_small":"http:\/\/statics.javhihi.com\/images\/movies\/javhihi.com-ai-sakura-licks-woody-while-is-screwed.small.jpg","categories":["big-tits","creampie","hardcore","shaved-pussy","tit-fuck"],"tags":["hot-milf","busty","mini-bikini","pink-pussy","close-up","fingering","group-action","mmf","nice-ass","shaved-pussy","tit-fuck","cock-sucking","double-blowjob","doggy-style","hardcore-action","dick-riding","stand-fucking","creamed-pussy","pussy-creampies","pussy","tits"],"pornstars":["ai-sakura"],"duration":"33:41","quality":"3","year":"0","view":"23,628","viewday":"0","viewweek":"2644","viewmonth":"2642","like":"26","likeday":"0","likeweek":"1","likemonth":"1","published":"2016-04-14","dmca":"0","url":"movie\/ai-sakura-licks-woody-while-is-screwed.1030.html"},{"id":"1027","name":"Miyama Ranko enjoys big vibrator in pussy","image":"http:\/\/statics.javhihi.com\/images\/movies\/javhihi.com-miyama-ranko-enjoys-big-vibrator-in-pussy.jpg","image_small":"http:\/\/statics.javhihi.com\/images\/movies\/javhihi.com-miyama-ranko-enjoys-big-vibrator-in-pussy.small.jpg","categories":["big-tits","bikini","hardcore","milf","stockings","toys"],"tags":["mom","hot-milf","solo-girl","sexy-stockings","mini-bikini","busty","dildo","sex-toys","toy-insertion","tits","uniform"],"pornstars":["miyama-ranko"],"duration":"9:55","quality":"3","year":"0","view":"14,356","viewday":"150","viewweek":"1154","viewmonth":"1154","like":"15","likeday":"0","likeweek":"1","likemonth":"1","published":"2016-04-13","dmca":"0","url":"movie\/miyama-ranko-enjoys-big-vibrator-in-pussy.1027.html"},{"id":"1029","name":"Sexy Satomi Suzuki is fucked hard by a big dick","image":"http:\/\/statics.javhihi.com\/images\/movies\/javhihi.com-sexy-satomi-suzuki-is-fucked-hard-by-a-big-dick.jpg","image_small":"http:\/\/statics.javhihi.com\/images\/movies\/javhihi.com-sexy-satomi-suzuki-is-fucked-hard-by-a-big-dick.small.jpg","categories":["big-tits","blowjob","cumshot","hardcore","milf","tit-fuck"],"tags":["mom","hot-milf","mini-bikini","busty","cock-sucking","tit-fuck","cum-on-tits","tits"],"pornstars":["satomi-suzuki"],"duration":"10:30","quality":"3","year":"0","view":"26,716","viewday":"336","viewweek":"2222","viewmonth":"2220","like":"46","likeday":"0","likeweek":"3","likemonth":"3","published":"2016-04-13","dmca":"0","url":"movie\/sexy-satomi-suzuki-is-fucked-hard-by-a-big-dick.1029.html"},{"id":"1026","name":"Rina Aina with huge nails licks shlong","image":"http:\/\/statics.javhihi.com\/images\/movies\/javhihi.com-rina-aina-with-huge-nails-licks-shlong.jpg","image_small":"http:\/\/statics.javhihi.com\/images\/movies\/javhihi.com-rina-aina-with-huge-nails-licks-shlong.small.jpg","categories":["big-tits","cumshot","fingering","hardcore"],"tags":["hot-milf","busty","sexy-dress","short-skirt","nipple-pinching","tit-licking","pussy-licking","nice-ass","fingering","cock-sucking","tattoo","rear-fuck","hardcore-action","doggy-style","long-nails","cum-on-tits","tits"],"pornstars":["rina-aina"],"duration":"41:33","quality":"3","year":"0","view":"12,979","viewday":"204","viewweek":"1122","viewmonth":"1121","like":"10","likeday":"0","likeweek":"1","likemonth":"1","published":"2016-04-13","dmca":"0","url":"movie\/rina-aina-with-huge-nails-licks-shlong.1026.html"},{"id":"1022","name":"Miyama Ranko's MILF Pussy Fucked In A Threesome","image":"http:\/\/statics.javhihi.com\/images\/movies\/javhihi.com-miyama-ranko-s-milf-pussy-fucked-in-a-threesome.jpg","image_small":"http:\/\/statics.javhihi.com\/images\/movies\/javhihi.com-miyama-ranko-s-milf-pussy-fucked-in-a-threesome.small.jpg","categories":["big-tits","blowjob","creampie","hardcore"],"tags":["hot-milf","group-action","gag","sex-toys","vibrator","busty","dildo","toy-insertion","cock-sucking","headfuck","rear-fuck","hardcore-action","doggy-style","creamed-pussy","pussy-creampies","tits"],"pornstars":["miyama-ranko"],"duration":"33:25","quality":"3","year":"0","view":"22,986","viewday":"207","viewweek":"1228","viewmonth":"1227","like":"37","likeday":"1","likeweek":"2","likemonth":"2","published":"2016-04-12","dmca":"0","url":"movie\/miyama-ranko-s-milf-pussy-fucked-in-a-threesome.1022.html"},{"id":"1021","name":"Ryuu Narushima with big butt rides dong","image":"http:\/\/statics.javhihi.com\/images\/movies\/javhihi.com-ryuu-narushima-with-big-butt-rides-dong.jpg","image_small":"http:\/\/statics.javhihi.com\/images\/movies\/javhihi.com-ryuu-narushima-with-big-butt-rides-dong.small.jpg","categories":["big-tits","blowjob","hardcore","teen"],"tags":["nice-teen","nice-ass","sexy-dress","busty","fingering","close-up","pink-pussy","pussy-licking","kissing","body-licking","cock-sucking","dick-riding","hardcore-action","doggy-style","tits","lick","pussy-lick"],"pornstars":["ryuu-narushima"],"duration":"38:38","quality":"3","year":"0","view":"41,287","viewday":"552","viewweek":"3293","viewmonth":"3289","like":"51","likeday":"4","likeweek":"5","likemonth":"5","published":"2016-04-12","dmca":"0","url":"movie\/ryuu-narushima-with-big-butt-rides-dong.1021.html"},{"id":"1019","name":"Ryuu Narushima goes solo girl with dildo riding","image":"http:\/\/statics.javhihi.com\/images\/movies\/javhihi.com-ryuu-narushima-goes-solo-girl-with-dildo-riding.jpg","image_small":"http:\/\/statics.javhihi.com\/images\/movies\/javhihi.com-ryuu-narushima-goes-solo-girl-with-dildo-riding.small.jpg","categories":["big-tits","hairy-pussy","hardcore","milf","toys"],"tags":["mom","hot-milf","busty","oiled-body","solo-girl","nice-ass","sex-toys","dildo","toy-insertion","dildo-riding","pussy","tits"],"pornstars":["ryuu-narushima"],"duration":"12:39","quality":"3","year":"0","view":"17,085","viewday":"238","viewweek":"1697","viewmonth":"1694","like":"15","likeday":"0","likeweek":"1","likemonth":"1","published":"2016-04-12","dmca":"0","url":"movie\/ryuu-narushima-goes-solo-girl-with-dildo-riding.1019.html"},{"id":"1015","name":"Hot Ryuu Narushima gets the wanted drilling","image":"http:\/\/statics.javhihi.com\/images\/movies\/javhihi.com-hot-ryuu-narushima-gets-the-wanted-drilling.jpg","image_small":"http:\/\/statics.javhihi.com\/images\/movies\/javhihi.com-hot-ryuu-narushima-gets-the-wanted-drilling.small.jpg","categories":["big-tits","group-sex","hardcore","threesome","toys"],"tags":["hot-milf","busty","sex-toys","vibrator","group-action","mmf","dildo","toy-insertion","doggy-style","hardcore-action","dick-riding","creamed-pussy","tits"],"pornstars":["ryuu-narushima"],"duration":"27:21","quality":"3","year":"0","view":"17,002","viewday":"141","viewweek":"1027","viewmonth":"1026","like":"15","likeday":"0","likeweek":"0","likemonth":"0","published":"2016-04-11","dmca":"0","url":"movie\/hot-ryuu-narushima-gets-the-wanted-drilling.1015.html"},{"id":"1016","name":"Kinky girl Ryuu Narushima gets a tit fuck","image":"http:\/\/statics.javhihi.com\/images\/movies\/javhihi.com-kinky-girl-ryuu-narushima-gets-a-tit-fuck.jpg","image_small":"http:\/\/statics.javhihi.com\/images\/movies\/javhihi.com-kinky-girl-ryuu-narushima-gets-a-tit-fuck.small.jpg","categories":["big-tits","blowjob","cumshot","handjob","tit-fuck"],"tags":["hot-milf","busty","sex-toys","vibrator","group-action","mmmf","cock-sucking","cum-on-tits","multiple-cumshots","hand-work","cumshot","tit-fuck","tits"],"pornstars":["ryuu-narushima"],"duration":"25:33","quality":"3","year":"0","view":"12,652","viewday":"159","viewweek":"945","viewmonth":"944","like":"10","likeday":"0","likeweek":"1","likemonth":"1","published":"2016-04-11","dmca":"0","url":"movie\/kinky-girl-ryuu-narushima-gets-a-tit-fuck.1016.html"},{"id":"1010","name":"Innocent Yuki Minami Gets her Hairy Snatch Pounded by a Big Cock","image":"http:\/\/statics.javhihi.com\/images\/movies\/javhihi.com-innocent-yuki-minami-gets-her-hairy-snatch-pounded-by-a-big-cock.jpg","image_small":"http:\/\/statics.javhihi.com\/images\/movies\/javhihi.com-innocent-yuki-minami-gets-her-hairy-snatch-pounded-by-a-big-cock.small.jpg","categories":["big-tits","blowjob","hardcore","maid","teen","tit-fuck"],"tags":["nice-teen","sexy-maid","hand-work","pov","body-licking","cock-sucking","tit-fuck","pink-pussy","fingering","vibrator","busty","hardcore-action","doggy-style","masturbation","tits","uniform"],"pornstars":["yuki-minami"],"duration":"34:08","quality":"3","year":"0","view":"207,179","viewday":"2304","viewweek":"16879","viewmonth":"16851","like":"224","likeday":"4","likeweek":"15","likemonth":"15","published":"2016-04-10","dmca":"0","url":"movie\/innocent-yuki-minami-gets-her-hairy-snatch-pounded-by-a-big-cock.1010.html"},{"id":"993","name":"Sana Anzyu finger bang her hairy and moist kitty","image":"http:\/\/statics.javhihi.com\/images\/movies\/javhihi.com-sana-anzyu-finger-bang-her-hairy-and-moist-kitty.jpg","image_small":"http:\/\/statics.javhihi.com\/images\/movies\/javhihi.com-sana-anzyu-finger-bang-her-hairy-and-moist-kitty.small.jpg","categories":["amateur","big-tits","bikini","schoolgirl"],"tags":["amateur","nice-teen","school-uniform","mini-bikini","busty","solo-girl","tits","uniform"],"pornstars":["sana-anzyu"],"duration":"6:52","quality":"3","year":"0","view":"22,300","viewday":"404","viewweek":"2316","viewmonth":"2312","like":"22","likeday":"1","likeweek":"6","likemonth":"6","published":"2016-04-08","dmca":"0","url":"movie\/sana-anzyu-finger-bang-her-hairy-and-moist-kitty.993.html"},{"id":"967","name":"A Messy Creampie Is Sayaka Fukuyama's Reward","image":"http:\/\/statics.javhihi.com\/images\/movies\/javhihi.com-a-messy-creampie-is-sayaka-fukuyama-s-reward.jpg","image_small":"http:\/\/statics.javhihi.com\/images\/movies\/javhihi.com-a-messy-creampie-is-sayaka-fukuyama-s-reward.small.jpg","categories":["big-tits","blowjob","group-sex","hardcore","teen","threesome"],"tags":["nice-teen","nice-ass","wet-body","pov","busty","tit-licking","pussy-licking","fingering","gaping-hole","cock-sucking","double-blowjob","doggy-style","rear-fuck","hardcore-action","creamed-pussy","tits"],"pornstars":["sayaka-fukuyama"],"duration":"39:09","quality":"3","year":"0","view":"74,768","viewday":"283","viewweek":"2404","viewmonth":"2402","like":"156","likeday":"0","likeweek":"2","likemonth":"2","published":"2016-04-03","dmca":"0","url":"movie\/a-messy-creampie-is-sayaka-fukuyama-s-reward.967.html"},{"id":"968","name":"MILF Huuka Takanashi hot big tit fucking","image":"http:\/\/statics.javhihi.com\/images\/movies\/javhihi.com-milf-huuka-takanashi-hot-big-tit-fucking.jpg","image_small":"http:\/\/statics.javhihi.com\/images\/movies\/javhihi.com-milf-huuka-takanashi-hot-big-tit-fucking.small.jpg","categories":["big-tits","bikini","cumshot","hardcore","milf","tit-fuck"],"tags":["mom","hot-milf","mini-bikini","busty","hairy-pussy","masturbation","tit-fuck","cum-on-body","cum-on-tits","tits","uniform"],"pornstars":["fuuka-takanashi"],"duration":"14:40","quality":"3","year":"0","view":"32,658","viewday":"355","viewweek":"1966","viewmonth":"1964","like":"35","likeday":"0","likeweek":"1","likemonth":"1","published":"2016-04-03","dmca":"0","url":"movie\/milf-huuka-takanashi-hot-big-tit-fucking.968.html"},{"id":"953","name":"Akari Asagiri fucks with large vibrator a lot","image":"http:\/\/statics.javhihi.com\/images\/movies\/javhihi.com-akari-asagiri-fucks-with-large-vibrator-a-lot.jpg","image_small":"http:\/\/statics.javhihi.com\/images\/movies\/javhihi.com-akari-asagiri-fucks-with-large-vibrator-a-lot.small.jpg","categories":["big-tits","hardcore","masturbation","milf","toys"],"tags":["mom","busty","hot-milf","sex-toys","dildo","toy-insertion","solo-girl","vibrator","tits"],"pornstars":["akari-asagiri"],"duration":"9:29","quality":"3","year":"0","view":"25,949","viewday":"330","viewweek":"2099","viewmonth":"2098","like":"38","likeday":"0","likeweek":"3","likemonth":"3","published":"2016-04-01","dmca":"0","url":"movie\/akari-asagiri-fucks-with-large-vibrator-a-lot.953.html"},{"id":"955","name":"Japanese Pornstar Akari Asagiri Squirts From Finger Fucking","image":"http:\/\/statics.javhihi.com\/images\/movies\/javhihi.com-japanese-pornstar-akari-asagiri-squirts-from-finger-fucking.jpg","image_small":"http:\/\/statics.javhihi.com\/images\/movies\/javhihi.com-japanese-pornstar-akari-asagiri-squirts-from-finger-fucking.small.jpg","categories":["amateur","big-tits","blowjob","hardcore"],"tags":["hot-milf","housewife","pov","amateur","busty","cock-sucking","pussy-licking","hardcore-action","dick-riding","doggy-style","nice-ass","creamed-pussy","tits"],"pornstars":["akari-asagiri"],"duration":"26:19","quality":"3","year":"0","view":"269,041","viewday":"1193","viewweek":"5118","viewmonth":"5115","like":"247","likeday":"2","likeweek":"4","likemonth":"4","published":"2016-04-01","dmca":"0","url":"movie\/japanese-pornstar-akari-asagiri-squirts-from-finger-fucking.955.html"},{"id":"956","name":"Huuka Takanashi is fucked during blowjob","image":"http:\/\/statics.javhihi.com\/images\/movies\/javhihi.com-huuka-takanashi-is-fucked-during-blowjob.jpg","image_small":"http:\/\/statics.javhihi.com\/images\/movies\/javhihi.com-huuka-takanashi-is-fucked-during-blowjob.small.jpg","categories":["big-tits","group-sex","hardcore","lingerie","stockings","threesome"],"tags":["group-action","mmf","hot-mature","sexy-stockings","sexy-lingerie","hairy-pussy","body-licking","busty","cock-sucking","hardcore-action","dick-riding","doggy-style","cum-on-face","creamed-pussy","tits","uniform"],"pornstars":["fuuka-takanashi"],"duration":"30:38","quality":"3","year":"0","view":"38,791","viewday":"237","viewweek":"1323","viewmonth":"1323","like":"44","likeday":"0","likeweek":"5","likemonth":"5","published":"2016-04-01","dmca":"0","url":"movie\/huuka-takanashi-is-fucked-during-blowjob.956.html"},{"id":"951","name":"Huuka Takanashi big boobs bounce while fucking!","image":"http:\/\/statics.javhihi.com\/images\/movies\/javhihi.com-huuka-takanashi-big-boobs-bounce-while-fucking.jpg","image_small":"http:\/\/statics.javhihi.com\/images\/movies\/javhihi.com-huuka-takanashi-big-boobs-bounce-while-fucking.small.jpg","categories":["big-tits","blowjob","cumshot","facial","group-sex","threesome"],"tags":["hot-milf","cock-sucking","busty","sexy-lingerie","group-action","mmf","tit-squeezing","cum-on-face","tits"],"pornstars":["fuuka-takanashi"],"duration":"9:32","quality":"3","year":"0","view":"12,023","viewday":"98","viewweek":"672","viewmonth":"672","like":"9","likeday":"0","likeweek":"0","likemonth":"0","published":"2016-04-01","dmca":"0","url":"movie\/huuka-takanashi-big-boobs-bounce-while-fucking.951.html"},{"id":"948","name":"Cute and pretty Asian babe Bali gagging and cum swallowing","image":"http:\/\/statics.javhihi.com\/images\/movies\/javhihi.com-cute-and-pretty-asian-babe-bali-gagging-and-cum-swallowing.jpg","image_small":"http:\/\/statics.javhihi.com\/images\/movies\/javhihi.com-cute-and-pretty-asian-babe-bali-gagging-and-cum-swallowing.small.jpg","categories":["big-tits","blowjob","cumshot","shaved-pussy","teen","tit-fuck"],"tags":["nice-teen","busty","pink-pussy","shaved-pussy","posing","nice-ass","cock-sucking","tit-fuck","cum-on-tits","teen-pussy","pussy","tits"],"pornstars":["bali"],"duration":"20:09","quality":"3","year":"0","view":"44,784","viewday":"350","viewweek":"1948","viewmonth":"1948","like":"58","likeday":"1","likeweek":"2","likemonth":"2","published":"2016-03-31","dmca":"0","url":"movie\/cute-and-pretty-asian-babe-bali-gagging-and-cum-swallowing.948.html"},{"id":"940","name":"Chihiro Kitagawa gets vibrator over panty","image":"http:\/\/statics.javhihi.com\/images\/movies\/javhihi.com-chihiro-kitagawa-gets-vibrator-over-panty.jpg","image_small":"http:\/\/statics.javhihi.com\/images\/movies\/javhihi.com-chihiro-kitagawa-gets-vibrator-over-panty.small.jpg","categories":["big-tits","lingerie","toys"],"tags":["nice-teen","busty","sexy-lingerie","sex-toys","vibrator","dildo","toy-insertion","tits","uniform"],"pornstars":["chihiro-kitagawa"],"duration":"18:34","quality":"3","year":"0","view":"6,414","viewday":"0","viewweek":"288","viewmonth":"288","like":"5","likeday":"0","likeweek":"0","likemonth":"0","published":"2016-03-30","dmca":"0","url":"movie\/chihiro-kitagawa-gets-vibrator-over-panty.940.html"}],"total":273,"next_page_url":"movie\/big-tits.html?sort=published&page=3","page":2,"total_page":12}