{"movies":[{"id":"1116","name":"Office MILF Hitomi Araki Creampied In Her Stockings","image":"http:\/\/statics.javhihi.com\/images\/movies\/javhihi.com-office-milf-hitomi-araki-creampied-in-her-stockings.jpg","image_small":"http:\/\/statics.javhihi.com\/images\/movies\/javhihi.com-office-milf-hitomi-araki-creampied-in-her-stockings.small.jpg","categories":["blowjob","creampie","hardcore","lingerie","office-lady"],"tags":["hot-milf","office-suit","busty","fingering","vibrator","cock-sucking","hardcore-action","dick-riding","deep-penetration","creamed-pussy","pussy-creampies","uniform"],"pornstars":["araki-hitomi"],"duration":"37:42","quality":"3","year":"0","view":"13,809","viewday":"2","viewweek":"2729","viewmonth":"2727","like":"23","likeday":"0","likeweek":"4","likemonth":"4","published":"2016-04-27","dmca":"0","url":"movie\/office-milf-hitomi-araki-creampied-in-her-stockings.1116.html"},{"id":"1117","name":"Dirty and horny blond baba giving a nice blow job","image":"http:\/\/statics.javhihi.com\/images\/movies\/javhihi.com-dirty-and-horny-blond-baba-giving-a-nice-blow-job.jpg","image_small":"http:\/\/statics.javhihi.com\/images\/movies\/javhihi.com-dirty-and-horny-blond-baba-giving-a-nice-blow-job.small.jpg","categories":["amateur","big-tits","blowjob","tit-fuck"],"tags":["nice-teen","pov","busty","tit-fuck","cock-sucking","amateur","cumshot","tits"],"pornstars":["kurea-mutou"],"duration":"14:41","quality":"3","year":"0","view":"8,327","viewday":"3","viewweek":"1463","viewmonth":"1462","like":"9","likeday":"0","likeweek":"0","likemonth":"0","published":"2016-04-27","dmca":"0","url":"movie\/dirty-and-horny-blond-baba-giving-a-nice-blow-job.1117.html"},{"id":"1120","name":"Oiled up busty babe cock sucking and hardcore fucked","image":"http:\/\/statics.javhihi.com\/images\/movies\/javhihi.com-oiled-up-busty-babe-cock-sucking-and-hardcore-fucked.jpg","image_small":"http:\/\/statics.javhihi.com\/images\/movies\/javhihi.com-oiled-up-busty-babe-cock-sucking-and-hardcore-fucked.small.jpg","categories":["big-tits","blowjob","creampie","hardcore","tit-fuck"],"tags":["oiled-body","busty","tit-squeezing","cock-sucking","tit-fuck","hardcore-action","hairy-pussy","dick-riding","creamed-pussy","pussy-creampies","tits"],"pornstars":["yuu-haruka"],"duration":"27:15","quality":"3","year":"0","view":"27,200","viewday":"620","viewweek":"4855","viewmonth":"4846","like":"45","likeday":"3","likeweek":"12","likemonth":"12","published":"2016-04-27","dmca":"0","url":"movie\/oiled-up-busty-babe-cock-sucking-and-hardcore-fucked.1120.html"},{"id":"1119","name":"Nasty brunette babe gagging cock and swallowing cum","image":"http:\/\/statics.javhihi.com\/images\/movies\/javhihi.com-nasty-brunette-babe-gagging-cock-and-swallowing-cum.jpg","image_small":"http:\/\/statics.javhihi.com\/images\/movies\/javhihi.com-nasty-brunette-babe-gagging-cock-and-swallowing-cum.small.jpg","categories":["big-tits","blowjob","cumshot","facial","tit-fuck"],"tags":["nice-teen","cock-sucking","busty","tit-fuck","ball-licking","cum-on-face","tits"],"pornstars":["maki-sakashita"],"duration":"14:30","quality":"3","year":"0","view":"19,158","viewday":"334","viewweek":"2682","viewmonth":"2679","like":"11","likeday":"1","likeweek":"1","likemonth":"1","published":"2016-04-27","dmca":"0","url":"movie\/nasty-brunette-babe-gagging-cock-and-swallowing-cum.1119.html"},{"id":"1112","name":"Handjob And Blowjob From Mai Haruna In Lingerie","image":"http:\/\/statics.javhihi.com\/images\/movies\/javhihi.com-handjob-and-blowjob-from-mai-haruna-in-lingerie.jpg","image_small":"http:\/\/statics.javhihi.com\/images\/movies\/javhihi.com-handjob-and-blowjob-from-mai-haruna-in-lingerie.small.jpg","categories":["blowjob","cumshot","handjob","lingerie"],"tags":["nice-teen","sexy-lingerie","hand-work","cock-sucking","busty","tit-fuck","toy-insertion","cum-on-tits","uniform"],"pornstars":["mai-haruna"],"duration":"24:25","quality":"3","year":"0","view":"11,252","viewday":"162","viewweek":"1135","viewmonth":"1132","like":"5","likeday":"0","likeweek":"0","likemonth":"0","published":"2016-04-26","dmca":"0","url":"movie\/handjob-and-blowjob-from-mai-haruna-in-lingerie.1112.html"},{"id":"1113","name":"Bathing Ichigo Gets To Suck Dick In A POV Video","image":"http:\/\/statics.javhihi.com\/images\/movies\/javhihi.com-bathing-ichigo-gets-to-suck-dick-in-a-pov-video.jpg","image_small":"http:\/\/statics.javhihi.com\/images\/movies\/javhihi.com-bathing-ichigo-gets-to-suck-dick-in-a-pov-video.small.jpg","categories":["amateur","blowjob","cumshot","pov","teen"],"tags":["bathroom","nice-teen","pov","cock-sucking","amateur","cum-in-mouth","teen-pussy","pussy"],"pornstars":["ichigo"],"duration":"8:07","quality":"3","year":"0","view":"16,658","viewday":"434","viewweek":"2767","viewmonth":"2766","like":"14","likeday":"0","likeweek":"0","likemonth":"0","published":"2016-04-26","dmca":"0","url":"movie\/bathing-ichigo-gets-to-suck-dick-in-a-pov-video.1113.html"},{"id":"1110","name":"MILF Kaoru Natsuki's Hairy Pussy Fucked By Two","image":"http:\/\/statics.javhihi.com\/images\/movies\/javhihi.com-milf-kaoru-natsuki-s-hairy-pussy-fucked-by-two.jpg","image_small":"http:\/\/statics.javhihi.com\/images\/movies\/javhihi.com-milf-kaoru-natsuki-s-hairy-pussy-fucked-by-two.small.jpg","categories":["blowjob","creampie","group-sex","hardcore","threesome"],"tags":["hot-milf","sexy-lingerie","group-action","vibrator","hairy-pussy","fingering","pussy-licking","cock-sucking","double-blowjob","hardcore-action","dick-riding","creamed-pussy","pussy-creampies"],"pornstars":["kaoru-natsuki"],"duration":"36:15","quality":"3","year":"0","view":"23,301","viewday":"925","viewweek":"5924","viewmonth":"5919","like":"37","likeday":"0","likeweek":"12","likemonth":"12","published":"2016-04-26","dmca":"0","url":"movie\/milf-kaoru-natsuki-s-hairy-pussy-fucked-by-two.1110.html"},{"id":"1105","name":"Ruri Hayami's MILF Pussy Gets Creampied In A Threesome","image":"http:\/\/statics.javhihi.com\/images\/movies\/javhihi.com-ruri-hayami-s-milf-pussy-gets-creampied-in-a-threesome.jpg","image_small":"http:\/\/statics.javhihi.com\/images\/movies\/javhihi.com-ruri-hayami-s-milf-pussy-gets-creampied-in-a-threesome.small.jpg","categories":["blowjob","creampie","group-sex","hardcore","threesome"],"tags":["hot-milf","group-action","mmf","double-blowjob","sexy-lingerie","ass-licking","busty","tit-licking","fishnet-stockings","fingering","hardcore-action","doggy-style","deep-penetration","creamed-pussy","pussy-creampies"],"pornstars":["ruri-hayami"],"duration":"34:03","quality":"3","year":"0","view":"46,485","viewday":"1906","viewweek":"12740","viewmonth":"12731","like":"123","likeday":"2","likeweek":"45","likemonth":"45","published":"2016-04-25","dmca":"0","url":"movie\/ruri-hayami-s-milf-pussy-gets-creampied-in-a-threesome.1105.html"},{"id":"1103","name":"Busty MILF Hitomi Araki Creampied In A Threesome","image":"http:\/\/statics.javhihi.com\/images\/movies\/javhihi.com-busty-milf-hitomi-araki-creampied-in-a-threesome.jpg","image_small":"http:\/\/statics.javhihi.com\/images\/movies\/javhihi.com-busty-milf-hitomi-araki-creampied-in-a-threesome.small.jpg","categories":["blowjob","creampie","group-sex","hardcore","threesome"],"tags":["hot-milf","group-action","busty","tit-licking","hairy-pussy","pussy-licking","fingering","double-blowjob","tit-fuck","hand-work","hardcore-action","doggy-style","dick-riding","deep-penetration","creamed-pussy","pussy-creampies"],"pornstars":["araki-hitomi"],"duration":"36:10","quality":"3","year":"0","view":"33,929","viewday":"989","viewweek":"6400","viewmonth":"6392","like":"65","likeday":"3","likeweek":"15","likemonth":"15","published":"2016-04-25","dmca":"0","url":"movie\/busty-milf-hitomi-araki-creampied-in-a-threesome.1103.html"},{"id":"1098","name":"Sweet Anna is very dedicated to cock sucking","image":"http:\/\/statics.javhihi.com\/images\/movies\/javhihi.com-sweet-anna-is-very-dedicated-to-cock-sucking.jpg","image_small":"http:\/\/statics.javhihi.com\/images\/movies\/javhihi.com-sweet-anna-is-very-dedicated-to-cock-sucking.small.jpg","categories":["blowjob","cumshot","masturbation","pov","toys"],"tags":["hot-milf","busty","sexy-lingerie","masturbation","dildo","hairy-pussy","cock-sucking","tit-fuck","cum-in-mouth"],"pornstars":["anna"],"duration":"31:23","quality":"3","year":"0","view":"10,391","viewday":"193","viewweek":"1233","viewmonth":"1233","like":"10","likeday":"0","likeweek":"1","likemonth":"1","published":"2016-04-24","dmca":"0","url":"movie\/sweet-anna-is-very-dedicated-to-cock-sucking.1098.html"},{"id":"1099","name":"Young Shoko Japanese girl licks cock so well","image":"http:\/\/statics.javhihi.com\/images\/movies\/javhihi.com-young-shoko-japanese-girl-licks-cock-so-well.jpg","image_small":"http:\/\/statics.javhihi.com\/images\/movies\/javhihi.com-young-shoko-japanese-girl-licks-cock-so-well.small.jpg","categories":["blowjob","cumshot","hardcore","milf","mini-skirt","pov"],"tags":["mom","hot-milf","pov","cock-sucking","short-skirt","nice-ass","cum-in-mouth","uniform"],"pornstars":["mao-miyazaki"],"duration":"11:35","quality":"3","year":"0","view":"16,235","viewday":"5","viewweek":"2318","viewmonth":"2317","like":"14","likeday":"0","likeweek":"1","likemonth":"1","published":"2016-04-24","dmca":"0","url":"movie\/young-shoko-japanese-girl-licks-cock-so-well.1099.html"},{"id":"1091","name":"Juri Sawaki rubs shlong of her big boobs","image":"http:\/\/statics.javhihi.com\/images\/movies\/javhihi.com-juri-sawaki-rubs-shlong-of-her-big-boobs.jpg","image_small":"http:\/\/statics.javhihi.com\/images\/movies\/javhihi.com-juri-sawaki-rubs-shlong-of-her-big-boobs.small.jpg","categories":["big-tits","blowjob","cumshot","footjob","tit-fuck"],"tags":["hot-milf","busty","hand-work","cock-sucking","footjob","tit-fuck","cum-in-mouth","tits"],"pornstars":["juri-sawaki"],"duration":"13:35","quality":"3","year":"0","view":"6,240","viewday":"104","viewweek":"615","viewmonth":"615","like":"14","likeday":"0","likeweek":"1","likemonth":"1","published":"2016-04-23","dmca":"0","url":"movie\/juri-sawaki-rubs-shlong-of-her-big-boobs.1091.html"},{"id":"1096","name":"Maki Sakashita licks dick and gets doggy","image":"http:\/\/statics.javhihi.com\/images\/movies\/javhihi.com-maki-sakashita-licks-dick-and-gets-doggy.jpg","image_small":"http:\/\/statics.javhihi.com\/images\/movies\/javhihi.com-maki-sakashita-licks-dick-and-gets-doggy.small.jpg","categories":["blowjob","creampie","fingering","group-sex","threesome"],"tags":["nice-teen","busty","group-action","mmf","cameltoe","fingering","sex-toys","toy-insertion","cock-sucking","double-blowjob","doggy-style","hardcore-action","dick-riding","cum-on-body","creamed-pussy","internal-creampie","pussy-creampies"],"pornstars":["maki-sakashita"],"duration":"29:47","quality":"3","year":"0","view":"10,967","viewday":"1","viewweek":"924","viewmonth":"922","like":"29","likeday":"0","likeweek":"0","likemonth":"0","published":"2016-04-23","dmca":"0","url":"movie\/maki-sakashita-licks-dick-and-gets-doggy.1096.html"},{"id":"1093","name":"Cute Sumire Matsu licks two cocks same time","image":"http:\/\/statics.javhihi.com\/images\/movies\/javhihi.com-cute-sumire-matsu-licks-two-cocks-same-time.jpg","image_small":"http:\/\/statics.javhihi.com\/images\/movies\/javhihi.com-cute-sumire-matsu-licks-two-cocks-same-time.small.jpg","categories":["blowjob","cumshot","facial","gang-bang","group-sex","toys"],"tags":["hot-milf","busty","oiled-body","group-action","vibrator","cock-sucking","double-blowjob","toy-insertion","cum-in-mouth","cum-on-face"],"pornstars":["sumire-matsu"],"duration":"22:58","quality":"3","year":"0","view":"10,644","viewday":"263","viewweek":"1691","viewmonth":"1690","like":"16","likeday":"1","likeweek":"2","likemonth":"2","published":"2016-04-23","dmca":"0","url":"movie\/cute-sumire-matsu-licks-two-cocks-same-time.1093.html"},{"id":"1094","name":"Tomoka Sakurai has cum from cock licking","image":"http:\/\/statics.javhihi.com\/images\/movies\/javhihi.com-tomoka-sakurai-has-cum-from-cock-licking.jpg","image_small":"http:\/\/statics.javhihi.com\/images\/movies\/javhihi.com-tomoka-sakurai-has-cum-from-cock-licking.small.jpg","categories":["blowjob","cumshot","shaved-pussy"],"tags":["shaved-pussy","pussy-licking","hot-milf","pov","cock-sucking","cum-in-mouth","pussy","lick","pussy-lick"],"pornstars":["tomoka-sakurai"],"duration":"9:26","quality":"3","year":"0","view":"8,581","viewday":"126","viewweek":"829","viewmonth":"828","like":"8","likeday":"0","likeweek":"0","likemonth":"0","published":"2016-04-23","dmca":"0","url":"movie\/tomoka-sakurai-has-cum-from-cock-licking.1094.html"},{"id":"1086","name":"Sweet Hazuki Rui with round chest is screwed","image":"http:\/\/statics.javhihi.com\/images\/movies\/javhihi.com-sweet-hazuki-rui-with-round-chest-is-screwed.jpg","image_small":"http:\/\/statics.javhihi.com\/images\/movies\/javhihi.com-sweet-hazuki-rui-with-round-chest-is-screwed.small.jpg","categories":["blowjob","cumshot","facial","hardcore","teen"],"tags":["nice-teen","fishnet-stockings","busty","pink-pussy","ass-licking","fingering","pussy-licking","cock-sucking","ball-licking","69","hardcore-action","doggy-style","cum-on-face","lick","ass-lick","pussy-lick"],"pornstars":["hazuki-rui"],"duration":"27:51","quality":"3","year":"0","view":"17,349","viewday":"389","viewweek":"2467","viewmonth":"2465","like":"29","likeday":"0","likeweek":"0","likemonth":"0","published":"2016-04-22","dmca":"0","url":"movie\/sweet-hazuki-rui-with-round-chest-is-screwed.1086.html"},{"id":"1090","name":"Saori's Make out Session Turns into Hardcore Fucking","image":"http:\/\/statics.javhihi.com\/images\/movies\/javhihi.com-saori-s-make-out-session-turns-into-hardcore-fucking.jpg","image_small":"http:\/\/statics.javhihi.com\/images\/movies\/javhihi.com-saori-s-make-out-session-turns-into-hardcore-fucking.small.jpg","categories":["blowjob","creampie","hardcore"],"tags":["hot-milf","kissing","small-tits","pussy-licking","cock-sucking","fingering","hardcore-action","doggy-style","dick-riding","creamed-pussy","pussy-creampies","lick","pussy-lick"],"pornstars":["saori"],"duration":"34:25","quality":"3","year":"0","view":"52,368","viewday":"2647","viewweek":"14775","viewmonth":"14761","like":"123","likeday":"3","likeweek":"53","likemonth":"53","published":"2016-04-22","dmca":"0","url":"movie\/saori-s-make-out-session-turns-into-hardcore-fucking.1090.html"},{"id":"1084","name":"Yuu Sakura in a hot, horny and hardcore action","image":"http:\/\/statics.javhihi.com\/images\/movies\/javhihi.com-yuu-sakura-in-a-hot-horny-and-hardcore-action.jpg","image_small":"http:\/\/statics.javhihi.com\/images\/movies\/javhihi.com-yuu-sakura-in-a-hot-horny-and-hardcore-action.small.jpg","categories":["blowjob","creampie","group-sex","threesome","toys"],"tags":["cock-sucking","hot-milf","hairy-pussy","hardcore-action","doggy-style","toy-insertion","vibrator","group-action","creamed-pussy","pussy-creampies"],"pornstars":["yuu-sakura"],"duration":"28:17","quality":"3","year":"0","view":"96,900","viewday":"13","viewweek":"19513","viewmonth":"19500","like":"174","likeday":"0","likeweek":"26","likemonth":"26","published":"2016-04-21","dmca":"0","url":"movie\/yuu-sakura-in-a-hot-horny-and-hardcore-action.1084.html"},{"id":"1081","name":"Sumire Matsu gets dong in cunt doggy way","image":"http:\/\/statics.javhihi.com\/images\/movies\/javhihi.com-sumire-matsu-gets-dong-in-cunt-doggy-way.jpg","image_small":"http:\/\/statics.javhihi.com\/images\/movies\/javhihi.com-sumire-matsu-gets-dong-in-cunt-doggy-way.small.jpg","categories":["blowjob","handjob","hardcore","lingerie","pov"],"tags":["hot-milf","sexy-lingerie","vibrator","cock-sucking","hand-work","busty","tit-fuck","footjob","hardcore-action","dick-riding","fingering","doggy-style","uniform"],"pornstars":["sumire-matsu"],"duration":"30:16","quality":"3","year":"0","view":"7,704","viewday":"0","viewweek":"868","viewmonth":"868","like":"5","likeday":"0","likeweek":"1","likemonth":"1","published":"2016-04-21","dmca":"0","url":"movie\/sumire-matsu-gets-dong-in-cunt-doggy-way.1081.html"},{"id":"1082","name":"SARA licks and sucks three dicks at once","image":"http:\/\/statics.javhihi.com\/images\/movies\/javhihi.com-sara-licks-and-sucks-three-dicks-at-once.jpg","image_small":"http:\/\/statics.javhihi.com\/images\/movies\/javhihi.com-sara-licks-and-sucks-three-dicks-at-once.small.jpg","categories":["blowjob","cumshot","group-sex","threesome","tit-fuck"],"tags":["hot-milf","redhead","cock-sucking","sexy-lingerie","double-blowjob","group-action","tit-fuck","cum-on-tits","tits"],"pornstars":["sara"],"duration":"17:28","quality":"3","year":"0","view":"24,870","viewday":"4","viewweek":"763","viewmonth":"763","like":"16","likeday":"0","likeweek":"0","likemonth":"0","published":"2016-04-21","dmca":"0","url":"movie\/sara-licks-and-sucks-three-dicks-at-once.1082.html"},{"id":"1080","name":"Cum Loving MILF Saori Sucks Cock In A POV Video","image":"http:\/\/statics.javhihi.com\/images\/movies\/javhihi.com-cum-loving-milf-saori-sucks-cock-in-a-pov-video.jpg","image_small":"http:\/\/statics.javhihi.com\/images\/movies\/javhihi.com-cum-loving-milf-saori-sucks-cock-in-a-pov-video.small.jpg","categories":["blowjob","cumshot","handjob","hardcore","milf","pov"],"tags":["mom","hot-milf","short-skirt","cock-sucking","hand-work","cum-in-mouth"],"pornstars":["saori"],"duration":"7:23","quality":"3","year":"0","view":"16,629","viewday":"452","viewweek":"2464","viewmonth":"2459","like":"20","likeday":"0","likeweek":"4","likemonth":"4","published":"2016-04-21","dmca":"0","url":"movie\/cum-loving-milf-saori-sucks-cock-in-a-pov-video.1080.html"},{"id":"1079","name":"Juri Sawaki oiled licks dick during fuck","image":"http:\/\/statics.javhihi.com\/images\/movies\/javhihi.com-juri-sawaki-oiled-licks-dick-during-fuck.jpg","image_small":"http:\/\/statics.javhihi.com\/images\/movies\/javhihi.com-juri-sawaki-oiled-licks-dick-during-fuck.small.jpg","categories":["big-tits","blowjob","creampie","hardcore"],"tags":["hot-milf","transparent-lingerie","oiled-body","busty","nice-ass","group-action","mmf","fingering","cock-sucking","double-blowjob","hardcore-action","rear-fuck","dick-riding","stand-fucking","creamed-pussy","pussy-creampies","tits"],"pornstars":["juri-sawaki"],"duration":"31:21","quality":"3","year":"0","view":"16,490","viewday":"321","viewweek":"2027","viewmonth":"2023","like":"16","likeday":"0","likeweek":"1","likemonth":"1","published":"2016-04-21","dmca":"0","url":"movie\/juri-sawaki-oiled-licks-dick-during-fuck.1079.html"},{"id":"1077","name":"Haruka Uchiyama oiled is deeply screwed","image":"http:\/\/statics.javhihi.com\/images\/movies\/javhihi.com-haruka-uchiyama-oiled-is-deeply-screwed.jpg","image_small":"http:\/\/statics.javhihi.com\/images\/movies\/javhihi.com-haruka-uchiyama-oiled-is-deeply-screwed.small.jpg","categories":["blowjob","cosplay","creampie","group-sex","lingerie","threesome"],"tags":["sexy-lingerie","group-action","mmf","oiled-body","hairy-pussy","fingering","nice-ass","cock-sucking","doggy-style","hardcore-action","dick-riding","creamed-pussy","pussy-creampies","uniform"],"pornstars":["haruka-uchiyama"],"duration":"37:09","quality":"3","year":"0","view":"39,025","viewday":"358","viewweek":"2504","viewmonth":"2500","like":"32","likeday":"1","likeweek":"5","likemonth":"5","published":"2016-04-20","dmca":"0","url":"movie\/haruka-uchiyama-oiled-is-deeply-screwed.1077.html"},{"id":"1078","name":"Insolent Miho Wakabayashi licks crown jewels","image":"http:\/\/statics.javhihi.com\/images\/movies\/javhihi.com-insolent-miho-wakabayashi-licks-crown-jewels.jpg","image_small":"http:\/\/statics.javhihi.com\/images\/movies\/javhihi.com-insolent-miho-wakabayashi-licks-crown-jewels.small.jpg","categories":["blowjob","cumshot","fingering","hardcore","milf"],"tags":["mom","hot-milf","upskirt","busty","masturbation","cock-sucking","fingering","cum-on-body"],"pornstars":["miho-wakabayashi"],"duration":"14:32","quality":"3","year":"0","view":"45,850","viewday":"735","viewweek":"2725","viewmonth":"2725","like":"55","likeday":"0","likeweek":"2","likemonth":"2","published":"2016-04-20","dmca":"0","url":"movie\/insolent-miho-wakabayashi-licks-crown-jewels.1078.html"}],"total":1096,"next_page_url":"movie\/blowjob.html?sort=published&page=3","page":2,"total_page":46}