{"movies":[{"id":"618","name":"Naughty brunette Asian babe getting her pussy licked and double penetrated","image":"http:\/\/statics.javhihi.com\/images\/movies\/javhihi.com-naughty-brunette-asian-babe-getting-her-pussy-licked-and-double-penetrated.jpg","image_small":"http:\/\/statics.javhihi.com\/images\/movies\/javhihi.com-naughty-brunette-asian-babe-getting-her-pussy-licked-and-double-penetrated.small.jpg","categories":["bondage","group-sex","hairy-pussy","threesome","toys"],"tags":["hot-milf","sex-toys","shaved-pussy","toy-insertion","ass-insertion","cock-sucking","group-action","mmf","busty","dick-riding","hardcore-action","cum-in-mouth","misc","pussy"],"pornstars":["mafuyu-hanasaki"],"duration":"24:34","quality":"3","year":"0","view":"21,086","viewday":"0","viewweek":"719","viewmonth":"719","like":"24","likeday":"0","likeweek":"0","likemonth":"0","published":"2016-02-10","dmca":"1","url":"movie\/naughty--brunette-asian-babe-getting-her-pussy-licked-and-double-penetrated.618.html"},{"id":"603","name":"Kana Mimura gets vibrator in BDSM action","image":"http:\/\/statics.javhihi.com\/images\/movies\/javhihi.com-kana-mimura-gets-vibrator-in-bdsm-action.jpg","image_small":"http:\/\/statics.javhihi.com\/images\/movies\/javhihi.com-kana-mimura-gets-vibrator-in-bdsm-action.small.jpg","categories":["bondage","fingering","hairy-pussy","toys"],"tags":["hairy-pussy","hardcore-action","fingering","busty","sex-toys","vibrator","toy-insertion","pussy"],"pornstars":["kana-mimura"],"duration":"21:41","quality":"3","year":"0","view":"11,603","viewday":"0","viewweek":"366","viewmonth":"364","like":"11","likeday":"0","likeweek":"0","likemonth":"0","published":"2016-02-07","dmca":"1","url":"movie\/kana--mimura-gets-vibrator-in-bdsm-action.603.html"},{"id":"595","name":"Saki Asaoka with cum on lips is screwed","image":"http:\/\/statics.javhihi.com\/images\/movies\/javhihi.com-saki-asaoka-with-cum-on-lips-is-screwed.jpg","image_small":"http:\/\/statics.javhihi.com\/images\/movies\/javhihi.com-saki-asaoka-with-cum-on-lips-is-screwed.small.jpg","categories":["bondage","hairy-pussy","lingerie","stockings","toys"],"tags":["sexy-lingerie","sexy-stockings","hairy-pussy","busty","vibrator","sex-toys","toy-insertion","huge-boobs","pussy","uniform"],"pornstars":["saki-asaoka"],"duration":"11:05","quality":"3","year":"0","view":"7,770","viewday":"55","viewweek":"297","viewmonth":"297","like":"7","likeday":"0","likeweek":"0","likemonth":"0","published":"2016-02-06","dmca":"0","url":"movie\/saki-asaoka-with-cum-on-lips-is-screwed.595.html"},{"id":"590","name":"Ayaka Mizuhara gets kinky and cum-sprayed all over her lips","image":"http:\/\/statics.javhihi.com\/images\/movies\/javhihi.com-ayaka-mizuhara-gets-kinky-and-cum-sprayed-all-over-her-lips.jpg","image_small":"http:\/\/statics.javhihi.com\/images\/movies\/javhihi.com-ayaka-mizuhara-gets-kinky-and-cum-sprayed-all-over-her-lips.small.jpg","categories":["blowjob","bondage","hairy-pussy","hardcore"],"tags":["cock-sucking","hot-milf","hairy-pussy","hardcore-action","doggy-style","sex-toys","vibrator","pussy"],"pornstars":["ayaka-mizuhara"],"duration":"26:17","quality":"3","year":"0","view":"11,479","viewday":"69","viewweek":"356","viewmonth":"355","like":"14","likeday":"0","likeweek":"0","likemonth":"0","published":"2016-02-05","dmca":"1","url":"movie\/ayaka--mizuhara-gets-kinky-and-cum-sprayed-all-over-her-lips.590.html"},{"id":"558","name":"Araki Hitomi busty in fishnets gets cock","image":"http:\/\/statics.javhihi.com\/images\/movies\/javhihi.com-araki-hitomi-busty-in-fishnets-gets-cock.jpg","image_small":"http:\/\/statics.javhihi.com\/images\/movies\/javhihi.com-araki-hitomi-busty-in-fishnets-gets-cock.small.jpg","categories":["blowjob","bondage","hardcore","lingerie","stockings"],"tags":["hot-milf","sexy-teacher","sexy-lingerie","black-stockings","vibrator","pissing","sex-toys","dildo","toy-insertion","cock-sucking","busty","dick-riding","hardcore-action","creamed-pussy","teacher","uniform"],"pornstars":["araki-hitomi"],"duration":"37:40","quality":"3","year":"0","view":"30,997","viewday":"228","viewweek":"1621","viewmonth":"1620","like":"56","likeday":"11","likeweek":"11","likemonth":"11","published":"2016-01-31","dmca":"1","url":"movie\/araki--hitomi-busty-in-fishnets-gets-cock.558.html"},{"id":"486","name":"Emiri Takeuchi busty and tied rides cock","image":"http:\/\/statics.javhihi.com\/images\/movies\/javhihi.com-emiri-takeuchi-busty-and-tied-rides-cock.jpg","image_small":"http:\/\/statics.javhihi.com\/images\/movies\/javhihi.com-emiri-takeuchi-busty-and-tied-rides-cock.small.jpg","categories":["blowjob","bondage","fingering","toys"],"tags":["cock-sucking","hairy-pussy","fingering","pussy-licking","nice-teen","mini-bikini"],"pornstars":["emiri-takeuchi"],"duration":"15:35","quality":"3","year":"0","view":"13,821","viewday":"62","viewweek":"400","viewmonth":"400","like":"27","likeday":"0","likeweek":"0","likemonth":"0","published":"2016-01-20","dmca":"1","url":"movie\/emiri--takeuchi-busty-and-tied-rides-cock.486.html"},{"id":"480","name":"Fetish and horny babe in tight latex get toyed with various sex toys","image":"http:\/\/statics.javhihi.com\/images\/movies\/javhihi.com-fetish-and-horny-babe-in-tight-latex-get-toyed-with-various-sex-toys.jpg","image_small":"http:\/\/statics.javhihi.com\/images\/movies\/javhihi.com-fetish-and-horny-babe-in-tight-latex-get-toyed-with-various-sex-toys.small.jpg","categories":["bondage","hardcore","squirting","toys"],"tags":["hot-milf","bondage-lingerie","sex-toys","toy-insertion","gaping-hole","fingering","vibrator","cock-sucking","headfuck","rear-fuck","hardcore-action","busty","dick-riding","creamed-pussy"],"pornstars":["china-mimura"],"duration":"34:52","quality":"3","year":"0","view":"45,375","viewday":"233","viewweek":"1447","viewmonth":"1447","like":"37","likeday":"0","likeweek":"1","likemonth":"1","published":"2016-01-19","dmca":"1","url":"movie\/fetish--and-horny-babe-in-tight-latex-get-toyed-with-various-sex-toys.480.html"},{"id":"454","name":"Ai Ootomo cock slammed in her tight and wet asshole","image":"http:\/\/statics.javhihi.com\/images\/movies\/javhihi.com-ai-ootomo-cock-slammed-in-her-tight-and-wet-asshole.jpg","image_small":"http:\/\/statics.javhihi.com\/images\/movies\/javhihi.com-ai-ootomo-cock-slammed-in-her-tight-and-wet-asshole.small.jpg","categories":["bondage","creampie","group-sex","hardcore","teen","threesome"],"tags":["cock-sucking","hardcore-action","hairy-pussy","fingering","sex-toys","doggy-style","group-action","toy-insertion","double-blowjob","creamed-pussy","anal-penetration","gag","massive-creampie"],"pornstars":["ai-ootomo"],"duration":"34:56","quality":"3","year":"0","view":"10,975","viewday":"61","viewweek":"376","viewmonth":"374","like":"21","likeday":"0","likeweek":"0","likemonth":"0","published":"2016-01-15","dmca":"1","url":"movie\/ai--ootomo-cock-slammed-in-her-tight-and-wet-asshole.454.html"},{"id":"408","name":"Crazy hardcore toy insertion action for tied up Kurachi Rika","image":"http:\/\/statics.javhihi.com\/images\/movies\/javhihi.com-crazy-hardcore-toy-insertion-action-for-tied-up-kurachi-rika.jpg","image_small":"http:\/\/statics.javhihi.com\/images\/movies\/javhihi.com-crazy-hardcore-toy-insertion-action-for-tied-up-kurachi-rika.small.jpg","categories":["bondage","creampie","gang-bang","group-sex","toys"],"tags":["oiled-body","wild-gang","hot-milf","hardcore-action","hairy-pussy","fingering","sex-toys","vibrator","group-action","toy-insertion","creamed-pussy","pussy-creampies"],"pornstars":["rika-kurachi"],"duration":"29:57","quality":"3","year":"0","view":"21,219","viewday":"69","viewweek":"435","viewmonth":"434","like":"19","likeday":"0","likeweek":"0","likemonth":"0","published":"2016-01-08","dmca":"1","url":"movie\/crazy--hardcore-toy-insertion-action-for-tied-up-kurachi-rika.408.html"},{"id":"391","name":"Kinky Hikaru Momose gets Tied up and Her Pussy Toyed","image":"http:\/\/statics.javhihi.com\/images\/movies\/javhihi.com-kinky-hikaru-momose-gets-tied-up-and-her-pussy-toyed.jpg","image_small":"http:\/\/statics.javhihi.com\/images\/movies\/javhihi.com-kinky-hikaru-momose-gets-tied-up-and-her-pussy-toyed.small.jpg","categories":["bondage","shaved-pussy","stockings","toys"],"tags":["hardcore-action","fingering","sex-toys","vibrator","toy-insertion","pink-pussy","black-stockings","pussy","uniform"],"pornstars":["hikaru-momose"],"duration":"18:15","quality":"3","year":"0","view":"12,431","viewday":"0","viewweek":"469","viewmonth":"468","like":"10","likeday":"0","likeweek":"1","likemonth":"1","published":"2016-01-05","dmca":"1","url":"movie\/kinky--hikaru-momose-gets-tied-up-and-her-pussy-toyed.391.html"},{"id":"389","name":"Chika Ishihara on a leash headfucked with deep throat","image":"http:\/\/statics.javhihi.com\/images\/movies\/javhihi.com-chika-ishihara-on-a-leash-headfucked-with-deep-throat.jpg","image_small":"http:\/\/statics.javhihi.com\/images\/movies\/javhihi.com-chika-ishihara-on-a-leash-headfucked-with-deep-throat.small.jpg","categories":["blowjob","bondage","cumshot","schoolgirl"],"tags":["nice-teen","school-uniform","collar","cock-sucking","deep-throat","ball-licking","cum-in-mouth","uniform"],"pornstars":["chika-ishihara"],"duration":"11:51","quality":"3","year":"0","view":"30,182","viewday":"96","viewweek":"555","viewmonth":"554","like":"61","likeday":"0","likeweek":"0","likemonth":"0","published":"2016-01-04","dmca":"1","url":"movie\/chika--ishihara-on-a-leash-headfucked-with-deep-throat.389.html"},{"id":"358","name":"Iori Miduki toy fucked and finger bang in her slit","image":"http:\/\/statics.javhihi.com\/images\/movies\/javhihi.com-iori-miduki-toy-fucked-and-finger-bang-in-her-slit.jpg","image_small":"http:\/\/statics.javhihi.com\/images\/movies\/javhihi.com-iori-miduki-toy-fucked-and-finger-bang-in-her-slit.small.jpg","categories":["bondage","fingering","squirting","teen"],"tags":["hairy-pussy","fingering","squirting","nice-teen","nice-ass","cameltoe","pussy-stimulation","teen-pussy","pussy"],"pornstars":["iori-mizuki"],"duration":"15:00","quality":"3","year":"0","view":"8,626","viewday":"44","viewweek":"220","viewmonth":"220","like":"15","likeday":"0","likeweek":"0","likemonth":"0","published":"2015-12-30","dmca":"1","url":"movie\/iori--miduki-toy-fucked-and-finger-bang-in-her-slit.358.html"},{"id":"355","name":"Yuu Mizuki got herself folded and finger-fuck in her slit","image":"http:\/\/statics.javhihi.com\/images\/movies\/javhihi.com-yuu-mizuki-got-herself-folded-and-finger-fuck-in-her-slit.jpg","image_small":"http:\/\/statics.javhihi.com\/images\/movies\/javhihi.com-yuu-mizuki-got-herself-folded-and-finger-fuck-in-her-slit.small.jpg","categories":["bondage","hairy-pussy","squirting","teen","toys"],"tags":["hairy-pussy","fingering","busty","sex-toys","nice-teen","vibrator","nice-ass","toy-insertion","pink-pussy","teen-pussy","pussy"],"pornstars":["yuu-mizuki"],"duration":"16:08","quality":"3","year":"0","view":"18,505","viewday":"45","viewweek":"351","viewmonth":"351","like":"23","likeday":"0","likeweek":"0","likemonth":"0","published":"2015-12-30","dmca":"1","url":"movie\/yuu--mizuki-got-herself-folded-and-finger-fuck-in-her-slit.355.html"},{"id":"353","name":"Japanese hottie Sara Seori stripped and finger-fucked in her twat","image":"http:\/\/statics.javhihi.com\/images\/movies\/javhihi.com-japanese-hottie-sara-seori-stripped-and-finger-fucked-in-her-twat.jpg","image_small":"http:\/\/statics.javhihi.com\/images\/movies\/javhihi.com-japanese-hottie-sara-seori-stripped-and-finger-fucked-in-her-twat.small.jpg","categories":["bikini","bondage","fingering","squirting"],"tags":["fingering","hairy-pussy","nice-teen","pink-pussy","squirting","mini-bikini","small-tits","uniform"],"pornstars":["sara-seori"],"duration":"15:14","quality":"3","year":"0","view":"12,113","viewday":"65","viewweek":"307","viewmonth":"306","like":"15","likeday":"0","likeweek":"0","likemonth":"0","published":"2015-12-29","dmca":"1","url":"movie\/japanese--hottie-sara-seori-stripped-and-finger-fucked-in-her-twat.353.html"},{"id":"340","name":"Bondage fingering play with tied up and gagged Hatsuka Kobayashi","image":"http:\/\/statics.javhihi.com\/images\/movies\/javhihi.com-bondage-fingering-play-with-tied-up-and-gagged-hatsuka-kobayashi.jpg","image_small":"http:\/\/statics.javhihi.com\/images\/movies\/javhihi.com-bondage-fingering-play-with-tied-up-and-gagged-hatsuka-kobayashi.small.jpg","categories":["bondage","fingering","hairy-pussy","squirting"],"tags":["hot-milf","squirting","hairy-pussy","fingering","busty","creamed-pussy","pussy"],"pornstars":["hatsuka-kobayashi"],"duration":"10:09","quality":"3","year":"0","view":"10,713","viewday":"86","viewweek":"378","viewmonth":"378","like":"14","likeday":"0","likeweek":"0","likemonth":"0","published":"2015-12-27","dmca":"1","url":"movie\/bondage--fingering-play-with-tied-up-and-gagged-hatsuka-kobayashi.340.html"},{"id":"341","name":"Asian Yukina Momose finger bang and vibrated in her mound","image":"http:\/\/statics.javhihi.com\/images\/movies\/javhihi.com-asian-yukina-momose-finger-bang-and-vibrated-in-her-mound.jpg","image_small":"http:\/\/statics.javhihi.com\/images\/movies\/javhihi.com-asian-yukina-momose-finger-bang-and-vibrated-in-her-mound.small.jpg","categories":["bondage","gang-bang","group-sex","squirting","toys"],"tags":["hardcore-action","hot-milf","hairy-pussy","fingering","sex-toys","squirting","vibrator","group-action","toy-insertion"],"pornstars":["yukina-momose"],"duration":"20:13","quality":"3","year":"0","view":"18,475","viewday":"71","viewweek":"358","viewmonth":"358","like":"15","likeday":"0","likeweek":"0","likemonth":"0","published":"2015-12-27","dmca":"1","url":"movie\/asian--yukina-momose-finger-bang-and-vibrated-in-her-mound.341.html"},{"id":"327","name":"Japanese hottie Moe Aizawa tied up and finger fucked","image":"http:\/\/statics.javhihi.com\/images\/movies\/javhihi.com-japanese-hottie-moe-aizawa-tied-up-and-finger-fucked.jpg","image_small":"http:\/\/statics.javhihi.com\/images\/movies\/javhihi.com-japanese-hottie-moe-aizawa-tied-up-and-finger-fucked.small.jpg","categories":["bondage","fingering","hardcore","squirting","teen"],"tags":["squirting","cameltoe","gag","hairy-pussy","fingering","busty","nice-teen","pussy-stimulation"],"pornstars":["moe-aizawa"],"duration":"7:19","quality":"3","year":"0","view":"9,290","viewday":"48","viewweek":"203","viewmonth":"202","like":"15","likeday":"0","likeweek":"0","likemonth":"0","published":"2015-12-25","dmca":"1","url":"movie\/japanese--hottie-moe-aizawa-tied-up-and-finger-fucked.327.html"},{"id":"324","name":"Hot Tsubasa Amami has pussy doubled aroused","image":"http:\/\/statics.javhihi.com\/images\/movies\/javhihi.com-hot-tsubasa-amami-has-pussy-doubled-aroused.jpg","image_small":"http:\/\/statics.javhihi.com\/images\/movies\/javhihi.com-hot-tsubasa-amami-has-pussy-doubled-aroused.small.jpg","categories":["bondage","fingering","hardcore","milf","toys"],"tags":["mom","hot-milf","sex-toys","vibrator","toy-insertion","pink-pussy","pussy-stimulation","fingering","wet-pussy"],"pornstars":["tsubasa-aihara"],"duration":"18:09","quality":"3","year":"0","view":"18,055","viewday":"136","viewweek":"722","viewmonth":"722","like":"23","likeday":"1","likeweek":"1","likemonth":"1","published":"2015-12-25","dmca":"1","url":"movie\/hot--tsubasa-amami-has-pussy-doubled-aroused.324.html"},{"id":"325","name":"Petite and hairy Asian babe ball gagged and fucked","image":"http:\/\/statics.javhihi.com\/images\/movies\/javhihi.com-petite-and-hairy-asian-babe-ball-gagged-and-fucked.jpg","image_small":"http:\/\/statics.javhihi.com\/images\/movies\/javhihi.com-petite-and-hairy-asian-babe-ball-gagged-and-fucked.small.jpg","categories":["blowjob","bondage","hairy-pussy","hardcore","teen"],"tags":["cock-sucking","nice-teen","hardcore-action","hairy-pussy","fingering","sex-toys","doggy-style","pussy-licking","vibrator","toy-insertion","pussy"],"pornstars":["mahiru-tsubaki"],"duration":"24:26","quality":"3","year":"0","view":"6,366","viewday":"51","viewweek":"195","viewmonth":"194","like":"6","likeday":"0","likeweek":"0","likemonth":"0","published":"2015-12-25","dmca":"1","url":"movie\/petite--and-hairy-asian-babe-ball-gagged-and-fucked.325.html"},{"id":"322","name":"Tied up with her pussy open for all kinds of insertions, Rika Aina","image":"http:\/\/statics.javhihi.com\/images\/movies\/javhihi.com-tied-up-with-her-pussy-open-for-all-kinds-of-insertions-rika-aina.jpg","image_small":"http:\/\/statics.javhihi.com\/images\/movies\/javhihi.com-tied-up-with-her-pussy-open-for-all-kinds-of-insertions-rika-aina.small.jpg","categories":["bondage","fingering","hardcore","teen","toys"],"tags":["hardcore-action","fingering","sex-toys","vibrator","group-action","toy-insertion","dildo","pussy-stimulation","nice-teen"],"pornstars":["rika-aina"],"duration":"24:34","quality":"3","year":"0","view":"11,841","viewday":"3","viewweek":"325","viewmonth":"325","like":"13","likeday":"0","likeweek":"0","likemonth":"0","published":"2015-12-24","dmca":"1","url":"movie\/tied--up-with-her-pussy-open-for-all-kinds-of-insertions-rika-aina.322.html"},{"id":"312","name":"The magic wand makes Yuu Shiraishis wet inside and out","image":"http:\/\/statics.javhihi.com\/images\/movies\/javhihi.com-the-magic-wand-makes-yuu-shiraishis-wet-inside-and-out.jpg","image_small":"http:\/\/statics.javhihi.com\/images\/movies\/javhihi.com-the-magic-wand-makes-yuu-shiraishis-wet-inside-and-out.small.jpg","categories":["bondage","fingering","shaved-pussy","toys"],"tags":["fingering","small-tits","toy-insertion","sex-toys","vibrator","pussy-stimulation","pussy"],"pornstars":["yuu-shiraishi"],"duration":"9:45","quality":"3","year":"0","view":"5,722","viewday":"43","viewweek":"191","viewmonth":"191","like":"3","likeday":"0","likeweek":"0","likemonth":"0","published":"2015-12-23","dmca":"1","url":"movie\/the--magic-wand-makes-yuu-shiraishis-wet-inside-and-out.312.html"},{"id":"301","name":"Filthy and fetish babe Tomoka Sakrai in tight stockings gagged","image":"http:\/\/statics.javhihi.com\/images\/movies\/javhihi.com-filthy-and-fetish-babe-tomoka-sakrai-in-tight-stockings-gagged.jpg","image_small":"http:\/\/statics.javhihi.com\/images\/movies\/javhihi.com-filthy-and-fetish-babe-tomoka-sakrai-in-tight-stockings-gagged.small.jpg","categories":["bondage","cumshot","group-sex","threesome","toys"],"tags":["hot-milf","gag","group-action","mmmf","shaved-pussy","sex-toys","vibrator","dildo","toy-insertion","sexy-stockings","cock-sucking","cum-in-mouth","rear-fuck","hardcore-action","dick-riding","creamed-pussy","foursome"],"pornstars":["tomoka-sakurai"],"duration":"42:23","quality":"3","year":"0","view":"69,489","viewday":"229","viewweek":"1453","viewmonth":"1452","like":"174","likeday":"2","likeweek":"7","likemonth":"7","published":"2015-12-21","dmca":"1","url":"movie\/filthy--and-fetish-babe-tomoka-sakrai-in-tight-stockings-gagged.301.html"},{"id":"284","name":"Hina Aisawa gets to know good pussy-vibrations","image":"http:\/\/statics.javhihi.com\/images\/movies\/javhihi.com-hina-aisawa-gets-to-know-good-pussy-vibrations.jpg","image_small":"http:\/\/statics.javhihi.com\/images\/movies\/javhihi.com-hina-aisawa-gets-to-know-good-pussy-vibrations.small.jpg","categories":["blowjob","bondage","cumshot","toys"],"tags":["upskirt","transparent-lingerie","sex-toys","pink-pussy","posing","fingering","vibrator","mini-bikini","cock-sucking","deep-throat","cum-on-body"],"pornstars":["hina-aisawa"],"duration":"14:05","quality":"3","year":"0","view":"7,058","viewday":"45","viewweek":"223","viewmonth":"223","like":"5","likeday":"0","likeweek":"0","likemonth":"0","published":"2015-12-18","dmca":"1","url":"movie\/hina--aisawa-gets-to-know-good-pussy-vibrations.284.html"},{"id":"285","name":"Akiho Nishimura tickled with toy rod and jizzed in her face","image":"http:\/\/statics.javhihi.com\/images\/movies\/javhihi.com-akiho-nishimura-tickled-with-toy-rod-and-jizzed-in-her-face.jpg","image_small":"http:\/\/statics.javhihi.com\/images\/movies\/javhihi.com-akiho-nishimura-tickled-with-toy-rod-and-jizzed-in-her-face.small.jpg","categories":["blowjob","bondage","cumshot","facial","toys"],"tags":["hot-milf","mini-bikini","group-action","vibrator","sex-toys","cock-sucking","headfuck","gag","fingering","cum-on-face","multiple-cumshots"],"pornstars":["akiho-nishimura"],"duration":"19:13","quality":"3","year":"0","view":"6,045","viewday":"0","viewweek":"260","viewmonth":"259","like":"3","likeday":"0","likeweek":"0","likemonth":"0","published":"2015-12-18","dmca":"1","url":"movie\/akiho--nishimura-tickled-with-toy-rod-and-jizzed-in-her-face.285.html"}],"total":99,"next_page_url":"movie\/bondage.html?sort=published&page=3","page":2,"total_page":5}