{"movies":[{"id":"1101","name":"Ruhime Maiori in red fishnets is pumped","image":"http:\/\/statics.javhihi.com\/images\/movies\/javhihi.com-ruhime-maiori-in-red-fishnets-is-pumped.jpg","image_small":"http:\/\/statics.javhihi.com\/images\/movies\/javhihi.com-ruhime-maiori-in-red-fishnets-is-pumped.small.jpg","categories":["creampie","group-sex","hardcore","lingerie","stockings","teen","threesome"],"tags":["nice-teen","sexy-lingerie","fishnet-stockings","group-action","mmf","pussy-licking","sex-toys","vibrator","cock-sucking","doggy-style","hardcore-action","dick-riding","nice-ass","creamed-pussy","pussy-creampies","uniform"],"pornstars":["ruhime-maiori"],"duration":"29:04","quality":"3","year":"0","view":"23,108","viewday":"683","viewweek":"4286","viewmonth":"4280","like":"38","likeday":"3","likeweek":"10","likemonth":"10","published":"2016-04-24","dmca":"0","url":"movie\/ruhime-maiori-in-red-fishnets-is-pumped.1101.html"},{"id":"1096","name":"Maki Sakashita licks dick and gets doggy","image":"http:\/\/statics.javhihi.com\/images\/movies\/javhihi.com-maki-sakashita-licks-dick-and-gets-doggy.jpg","image_small":"http:\/\/statics.javhihi.com\/images\/movies\/javhihi.com-maki-sakashita-licks-dick-and-gets-doggy.small.jpg","categories":["blowjob","creampie","fingering","group-sex","threesome"],"tags":["nice-teen","busty","group-action","mmf","cameltoe","fingering","sex-toys","toy-insertion","cock-sucking","double-blowjob","doggy-style","hardcore-action","dick-riding","cum-on-body","creamed-pussy","internal-creampie","pussy-creampies"],"pornstars":["maki-sakashita"],"duration":"29:47","quality":"3","year":"0","view":"10,967","viewday":"1","viewweek":"924","viewmonth":"922","like":"29","likeday":"0","likeweek":"0","likemonth":"0","published":"2016-04-23","dmca":"0","url":"movie\/maki-sakashita-licks-dick-and-gets-doggy.1096.html"},{"id":"1092","name":"SARA oiled and busty is deeply pumped","image":"http:\/\/statics.javhihi.com\/images\/movies\/javhihi.com-sara-oiled-and-busty-is-deeply-pumped.jpg","image_small":"http:\/\/statics.javhihi.com\/images\/movies\/javhihi.com-sara-oiled-and-busty-is-deeply-pumped.small.jpg","categories":["creampie","group-sex","hardcore","squirting","threesome"],"tags":["hot-milf","sexy-lingerie","busty","group-action","mmf","hairy-pussy","fingering","squirting","double-blowjob","hand-work","tit-squeezing","hardcore-action","deep-penetration","tit-fuck","creamed-pussy","pussy-creampies"],"pornstars":["sara"],"duration":"36:19","quality":"3","year":"0","view":"25,106","viewday":"2","viewweek":"3669","viewmonth":"3665","like":"31","likeday":"0","likeweek":"2","likemonth":"2","published":"2016-04-23","dmca":"0","url":"movie\/sara-oiled-and-busty-is-deeply-pumped.1092.html"},{"id":"1089","name":"Meguru Kosaka is fucked while sucks cock","image":"http:\/\/statics.javhihi.com\/images\/movies\/javhihi.com-meguru-kosaka-is-fucked-while-sucks-cock.jpg","image_small":"http:\/\/statics.javhihi.com\/images\/movies\/javhihi.com-meguru-kosaka-is-fucked-while-sucks-cock.small.jpg","categories":["creampie","group-sex","hardcore","office-lady","threesome"],"tags":["hot-milf","office-suit","group-action","cock-sucking","ripped-pantyhose","busty","tit-licking","shaved-pussy","pussy-licking","fingering","hardcore-action","deep-penetration","dick-riding","doggy-style","creamed-pussy","pussy-creampies","uniform"],"pornstars":["meguru-kosaka"],"duration":"38:15","quality":"3","year":"0","view":"48,102","viewday":"917","viewweek":"5651","viewmonth":"5643","like":"107","likeday":"1","likeweek":"13","likemonth":"13","published":"2016-04-22","dmca":"0","url":"movie\/meguru-kosaka-is-fucked-while-sucks-cock.1089.html"},{"id":"1090","name":"Saori's Make out Session Turns into Hardcore Fucking","image":"http:\/\/statics.javhihi.com\/images\/movies\/javhihi.com-saori-s-make-out-session-turns-into-hardcore-fucking.jpg","image_small":"http:\/\/statics.javhihi.com\/images\/movies\/javhihi.com-saori-s-make-out-session-turns-into-hardcore-fucking.small.jpg","categories":["blowjob","creampie","hardcore"],"tags":["hot-milf","kissing","small-tits","pussy-licking","cock-sucking","fingering","hardcore-action","doggy-style","dick-riding","creamed-pussy","pussy-creampies","lick","pussy-lick"],"pornstars":["saori"],"duration":"34:25","quality":"3","year":"0","view":"52,368","viewday":"2647","viewweek":"14775","viewmonth":"14761","like":"123","likeday":"3","likeweek":"53","likemonth":"53","published":"2016-04-22","dmca":"0","url":"movie\/saori-s-make-out-session-turns-into-hardcore-fucking.1090.html"},{"id":"1084","name":"Yuu Sakura in a hot, horny and hardcore action","image":"http:\/\/statics.javhihi.com\/images\/movies\/javhihi.com-yuu-sakura-in-a-hot-horny-and-hardcore-action.jpg","image_small":"http:\/\/statics.javhihi.com\/images\/movies\/javhihi.com-yuu-sakura-in-a-hot-horny-and-hardcore-action.small.jpg","categories":["blowjob","creampie","group-sex","threesome","toys"],"tags":["cock-sucking","hot-milf","hairy-pussy","hardcore-action","doggy-style","toy-insertion","vibrator","group-action","creamed-pussy","pussy-creampies"],"pornstars":["yuu-sakura"],"duration":"28:17","quality":"3","year":"0","view":"96,820","viewday":"5535","viewweek":"19433","viewmonth":"19420","like":"173","likeday":"4","likeweek":"25","likemonth":"25","published":"2016-04-21","dmca":"0","url":"movie\/yuu-sakura-in-a-hot-horny-and-hardcore-action.1084.html"},{"id":"1079","name":"Juri Sawaki oiled licks dick during fuck","image":"http:\/\/statics.javhihi.com\/images\/movies\/javhihi.com-juri-sawaki-oiled-licks-dick-during-fuck.jpg","image_small":"http:\/\/statics.javhihi.com\/images\/movies\/javhihi.com-juri-sawaki-oiled-licks-dick-during-fuck.small.jpg","categories":["big-tits","blowjob","creampie","hardcore"],"tags":["hot-milf","transparent-lingerie","oiled-body","busty","nice-ass","group-action","mmf","fingering","cock-sucking","double-blowjob","hardcore-action","rear-fuck","dick-riding","stand-fucking","creamed-pussy","pussy-creampies","tits"],"pornstars":["juri-sawaki"],"duration":"31:21","quality":"3","year":"0","view":"16,490","viewday":"321","viewweek":"2027","viewmonth":"2023","like":"16","likeday":"0","likeweek":"1","likemonth":"1","published":"2016-04-21","dmca":"0","url":"movie\/juri-sawaki-oiled-licks-dick-during-fuck.1079.html"},{"id":"1077","name":"Haruka Uchiyama oiled is deeply screwed","image":"http:\/\/statics.javhihi.com\/images\/movies\/javhihi.com-haruka-uchiyama-oiled-is-deeply-screwed.jpg","image_small":"http:\/\/statics.javhihi.com\/images\/movies\/javhihi.com-haruka-uchiyama-oiled-is-deeply-screwed.small.jpg","categories":["blowjob","cosplay","creampie","group-sex","lingerie","threesome"],"tags":["sexy-lingerie","group-action","mmf","oiled-body","hairy-pussy","fingering","nice-ass","cock-sucking","doggy-style","hardcore-action","dick-riding","creamed-pussy","pussy-creampies","uniform"],"pornstars":["haruka-uchiyama"],"duration":"37:09","quality":"3","year":"0","view":"39,025","viewday":"358","viewweek":"2504","viewmonth":"2500","like":"32","likeday":"1","likeweek":"5","likemonth":"5","published":"2016-04-20","dmca":"0","url":"movie\/haruka-uchiyama-oiled-is-deeply-screwed.1077.html"},{"id":"1075","name":"Megumi Shino with push ups is pumped well","image":"http:\/\/statics.javhihi.com\/images\/movies\/javhihi.com-megumi-shino-with-push-ups-is-pumped-well.jpg","image_small":"http:\/\/statics.javhihi.com\/images\/movies\/javhihi.com-megumi-shino-with-push-ups-is-pumped-well.small.jpg","categories":["blowjob","creampie","hardcore","teen"],"tags":["sexy-uniform","pussy-licking","cock-sucking","69","hardcore-action","dick-riding","doggy-style","creamed-pussy","pussy-creampies","lick","pussy-lick"],"pornstars":["megumi-shino"],"duration":"22:29","quality":"3","year":"0","view":"11,469","viewday":"246","viewweek":"2014","viewmonth":"2011","like":"16","likeday":"0","likeweek":"1","likemonth":"1","published":"2016-04-20","dmca":"0","url":"movie\/megumi-shino-with-push-ups-is-pumped-well.1075.html"},{"id":"1067","name":"Saori sucks dick while is licked on cunt","image":"http:\/\/statics.javhihi.com\/images\/movies\/javhihi.com-saori-sucks-dick-while-is-licked-on-cunt.jpg","image_small":"http:\/\/statics.javhihi.com\/images\/movies\/javhihi.com-saori-sucks-dick-while-is-licked-on-cunt.small.jpg","categories":["blowjob","creampie","group-sex","hardcore","threesome"],"tags":["hot-milf","foot-licking","group-action","mmf","tit-licking","hairy-pussy","pussy-licking","footjob","cock-sucking","double-blowjob","nice-ass","fingering","hardcore-action","dick-riding","creamed-pussy","pussy-creampies"],"pornstars":["saori"],"duration":"46:25","quality":"3","year":"0","view":"18,703","viewday":"389","viewweek":"2773","viewmonth":"2769","like":"34","likeday":"0","likeweek":"4","likemonth":"4","published":"2016-04-20","dmca":"0","url":"movie\/saori-sucks-dick-while-is-licked-on-cunt.1067.html"},{"id":"1071","name":"Hina Maeda with big round cans gets cock","image":"http:\/\/statics.javhihi.com\/images\/movies\/javhihi.com-hina-maeda-with-big-round-cans-gets-cock.jpg","image_small":"http:\/\/statics.javhihi.com\/images\/movies\/javhihi.com-hina-maeda-with-big-round-cans-gets-cock.small.jpg","categories":["creampie","hardcore","shaved-pussy","teen"],"tags":["nice-teen","busty","nice-ass","short-skirt","pussy-licking","shaved-pussy","fingering","cock-sucking","hardcore-action","doggy-style","creamed-pussy","pussy-creampies","teen-pussy","pussy","lick","pussy-lick"],"pornstars":["hina-maeda"],"duration":"28:41","quality":"3","year":"0","view":"23,016","viewday":"545","viewweek":"3023","viewmonth":"3021","like":"51","likeday":"3","likeweek":"5","likemonth":"5","published":"2016-04-20","dmca":"0","url":"movie\/hina-maeda-with-big-round-cans-gets-cock.1071.html"},{"id":"1065","name":"Miho Wakabayashi is fucked in hairy twat","image":"http:\/\/statics.javhihi.com\/images\/movies\/javhihi.com-miho-wakabayashi-is-fucked-in-hairy-twat.jpg","image_small":"http:\/\/statics.javhihi.com\/images\/movies\/javhihi.com-miho-wakabayashi-is-fucked-in-hairy-twat.small.jpg","categories":["blowjob","creampie","hairy-pussy","hardcore","pov"],"tags":["hot-milf","kissing","busty","cock-sucking","pov","nice-ass","69","pussy-licking","hairy-pussy","hardcore-action","doggy-style","dick-riding","deep-penetration","creamed-pussy","pussy-creampies","pussy"],"pornstars":["miho-wakabayashi"],"duration":"37:35","quality":"3","year":"0","view":"32,417","viewday":"0","viewweek":"4398","viewmonth":"4394","like":"46","likeday":"0","likeweek":"2","likemonth":"2","published":"2016-04-19","dmca":"0","url":"movie\/miho-wakabayashi-is-fucked-in-hairy-twat.1065.html"},{"id":"1059","name":"Meguru Kosaka with tits in rope is fucked","image":"http:\/\/statics.javhihi.com\/images\/movies\/javhihi.com-meguru-kosaka-with-tits-in-rope-is-fucked.jpg","image_small":"http:\/\/statics.javhihi.com\/images\/movies\/javhihi.com-meguru-kosaka-with-tits-in-rope-is-fucked.small.jpg","categories":["blowjob","bondage","creampie","hardcore"],"tags":["hot-milf","busty","shaved-pussy","vibrator","cock-sucking","kissing","hardcore-action","doggy-style","dick-riding","deep-penetration","creamed-pussy","pussy-creampies"],"pornstars":["meguru-kosaka"],"duration":"30:52","quality":"3","year":"0","view":"23,366","viewday":"382","viewweek":"2327","viewmonth":"2322","like":"37","likeday":"1","likeweek":"4","likemonth":"4","published":"2016-04-18","dmca":"0","url":"movie\/meguru-kosaka-with-tits-in-rope-is-fucked.1059.html"},{"id":"1053","name":"Sakura Anna hottest hardcore dick riding action","image":"http:\/\/statics.javhihi.com\/images\/movies\/javhihi.com-sakura-anna-hottest-hardcore-dick-riding-action.jpg","image_small":"http:\/\/statics.javhihi.com\/images\/movies\/javhihi.com-sakura-anna-hottest-hardcore-dick-riding-action.small.jpg","categories":["big-tits","blowjob","creampie","hardcore","tit-fuck"],"tags":["hot-milf","busty","fingering","cock-sucking","shower","soaping","masturbation","tit-fuck","hardcore-action","dick-riding","creamed-pussy","pussy-creampies","tits"],"pornstars":["sakura-anna"],"duration":"29:29","quality":"3","year":"0","view":"28,973","viewday":"491","viewweek":"2879","viewmonth":"2879","like":"38","likeday":"0","likeweek":"6","likemonth":"6","published":"2016-04-17","dmca":"0","url":"movie\/sakura-anna-hottest-hardcore-dick-riding-action.1053.html"},{"id":"1042","name":"Sexy Ayumi Kobayashi gets Creampied During a Threesome","image":"http:\/\/statics.javhihi.com\/images\/movies\/javhihi.com-sexy-ayumi-kobayashi-gets-creampied-during-a-threesome.jpg","image_small":"http:\/\/statics.javhihi.com\/images\/movies\/javhihi.com-sexy-ayumi-kobayashi-gets-creampied-during-a-threesome.small.jpg","categories":["creampie","group-sex","hardcore","teen","threesome","toys"],"tags":["nice-teen","group-action","mmf","sex-toys","toy-insertion","pussy-stimulation","pussy-licking","fingering","dildo","vibrator","cock-sucking","hardcore-action","creamed-pussy","pussy-creampies","misc"],"pornstars":["ayumi-kobayashi"],"duration":"45:40","quality":"3","year":"0","view":"15,542","viewday":"144","viewweek":"1362","viewmonth":"1361","like":"26","likeday":"0","likeweek":"5","likemonth":"5","published":"2016-04-16","dmca":"0","url":"movie\/sexy-ayumi-kobayashi-gets-creampied-during-a-threesome.1042.html"},{"id":"1044","name":"Akina Hara licks and sucks two shlongs","image":"http:\/\/statics.javhihi.com\/images\/movies\/javhihi.com-akina-hara-licks-and-sucks-two-shlongs.jpg","image_small":"http:\/\/statics.javhihi.com\/images\/movies\/javhihi.com-akina-hara-licks-and-sucks-two-shlongs.small.jpg","categories":["blowjob","creampie","group-sex","hardcore","teen","threesome"],"tags":["nice-teen","hairy-pussy","transparent-lingerie","swimsuit","group-action","mmf","pussy-licking","fingering","cock-sucking","headfuck","ball-licking","hardcore-action","nice-ass","dick-riding","stand-fucking","rear-fuck","creamed-pussy","pussy-creampies"],"pornstars":["akina-hara"],"duration":"37:23","quality":"3","year":"0","view":"63,646","viewday":"1799","viewweek":"9696","viewmonth":"9685","like":"112","likeday":"0","likeweek":"25","likemonth":"25","published":"2016-04-16","dmca":"0","url":"movie\/akina-hara-licks-and-sucks-two-shlongs.1044.html"},{"id":"1036","name":"Nasty Rio Kagawa is screwed again and again","image":"http:\/\/statics.javhihi.com\/images\/movies\/javhihi.com-nasty-rio-kagawa-is-screwed-again-and-again.jpg","image_small":"http:\/\/statics.javhihi.com\/images\/movies\/javhihi.com-nasty-rio-kagawa-is-screwed-again-and-again.small.jpg","categories":["anal","creampie","double-penetration","fingering","toys"],"tags":["hot-milf","group-action","mmf","pink-pussy","fingering","pussy-licking","anal-penetration","sex-toys","vibrator","dildo","ass-insertion","cock-sucking","doggy-style","hardcore-action","double-penetration","creamed-ass","anal-creampie"],"pornstars":["rio-kagawa"],"duration":"41:08","quality":"3","year":"0","view":"19,173","viewday":"278","viewweek":"6191","viewmonth":"6191","like":"21","likeday":"0","likeweek":"0","likemonth":"0","published":"2016-04-15","dmca":"0","url":"movie\/nasty-rio-kagawa-is-screwed-again-and-again.1036.html"},{"id":"1030","name":"Ai Sakura licks woody while is screwed","image":"http:\/\/statics.javhihi.com\/images\/movies\/javhihi.com-ai-sakura-licks-woody-while-is-screwed.jpg","image_small":"http:\/\/statics.javhihi.com\/images\/movies\/javhihi.com-ai-sakura-licks-woody-while-is-screwed.small.jpg","categories":["big-tits","creampie","hardcore","shaved-pussy","tit-fuck"],"tags":["hot-milf","busty","mini-bikini","pink-pussy","close-up","fingering","group-action","mmf","nice-ass","shaved-pussy","tit-fuck","cock-sucking","double-blowjob","doggy-style","hardcore-action","dick-riding","stand-fucking","creamed-pussy","pussy-creampies","pussy","tits"],"pornstars":["ai-sakura"],"duration":"33:41","quality":"3","year":"0","view":"23,628","viewday":"0","viewweek":"2644","viewmonth":"2642","like":"26","likeday":"0","likeweek":"1","likemonth":"1","published":"2016-04-14","dmca":"0","url":"movie\/ai-sakura-licks-woody-while-is-screwed.1030.html"},{"id":"1032","name":"Japanese Girl Nene Masaki Takes Three Guys at Once in JAV Foursome","image":"http:\/\/statics.javhihi.com\/images\/movies\/javhihi.com-japanese-girl-nene-masaki-takes-three-guys-at-once-in-jav-foursome.jpg","image_small":"http:\/\/statics.javhihi.com\/images\/movies\/javhihi.com-japanese-girl-nene-masaki-takes-three-guys-at-once-in-jav-foursome.small.jpg","categories":["anal","creampie","double-penetration","gang-bang","group-sex","shaved-pussy","teen"],"tags":["nice-teen","group-action","wild-gang","pink-pussy","shaved-pussy","close-up","fingering","anal-penetration","cock-sucking","busty","doggy-style","hardcore-action","double-penetration","creamed-ass","anal-creampie","teen-pussy","pussy"],"pornstars":["nene-masaki"],"duration":"40:45","quality":"3","year":"0","view":"88,553","viewday":"1400","viewweek":"8556","viewmonth":"8553","like":"133","likeday":"6","likeweek":"17","likemonth":"17","published":"2016-04-14","dmca":"0","url":"movie\/japanese-girl-nene-masaki-takes-three-guys-at-once-in-jav-foursome.1032.html"},{"id":"1033","name":"Kinky Satomi Suzuki pounded in a hot orgy","image":"http:\/\/statics.javhihi.com\/images\/movies\/javhihi.com-kinky-satomi-suzuki-pounded-in-a-hot-orgy.jpg","image_small":"http:\/\/statics.javhihi.com\/images\/movies\/javhihi.com-kinky-satomi-suzuki-pounded-in-a-hot-orgy.small.jpg","categories":["bikini","creampie","gang-bang","group-sex","hardcore","milf"],"tags":["mom","hot-milf","busty","mini-bikini","group-action","wild-gang","hairy-pussy","sex-toys","vibrator","cumshot","multiple-cumshots","creamed-pussy","hand-work","cock-sucking","pussy-creampies","uniform"],"pornstars":["satomi-suzuki"],"duration":"23:31","quality":"3","year":"0","view":"39,113","viewday":"604","viewweek":"3488","viewmonth":"3488","like":"48","likeday":"0","likeweek":"2","likemonth":"2","published":"2016-04-14","dmca":"0","url":"movie\/kinky-satomi-suzuki-pounded-in-a-hot-orgy.1033.html"},{"id":"1022","name":"Miyama Ranko's MILF Pussy Fucked In A Threesome","image":"http:\/\/statics.javhihi.com\/images\/movies\/javhihi.com-miyama-ranko-s-milf-pussy-fucked-in-a-threesome.jpg","image_small":"http:\/\/statics.javhihi.com\/images\/movies\/javhihi.com-miyama-ranko-s-milf-pussy-fucked-in-a-threesome.small.jpg","categories":["big-tits","blowjob","creampie","hardcore"],"tags":["hot-milf","group-action","gag","sex-toys","vibrator","busty","dildo","toy-insertion","cock-sucking","headfuck","rear-fuck","hardcore-action","doggy-style","creamed-pussy","pussy-creampies","tits"],"pornstars":["miyama-ranko"],"duration":"33:25","quality":"3","year":"0","view":"22,986","viewday":"207","viewweek":"1228","viewmonth":"1227","like":"37","likeday":"1","likeweek":"2","likemonth":"2","published":"2016-04-12","dmca":"0","url":"movie\/miyama-ranko-s-milf-pussy-fucked-in-a-threesome.1022.html"},{"id":"1023","name":"Ai Sakura giving a rough and cock-hardening double blowjob","image":"http:\/\/statics.javhihi.com\/images\/movies\/javhihi.com-ai-sakura-giving-a-rough-and-cock-hardening-double-blowjob.jpg","image_small":"http:\/\/statics.javhihi.com\/images\/movies\/javhihi.com-ai-sakura-giving-a-rough-and-cock-hardening-double-blowjob.small.jpg","categories":["blowjob","creampie","group-sex","shaved-pussy"],"tags":["hot-milf","busty","group-action","mmf","sexy-lingerie","sex-toys","vibrator","nice-ass","shaved-pussy","fingering","cock-sucking","double-blowjob","cum-in-mouth","cum-eating","creampie-eating","foursome","pussy"],"pornstars":["ai-sakura"],"duration":"27:45","quality":"3","year":"0","view":"15,657","viewday":"157","viewweek":"881","viewmonth":"880","like":"14","likeday":"0","likeweek":"0","likemonth":"0","published":"2016-04-12","dmca":"0","url":"movie\/ai-sakura-giving-a-rough-and-cock-hardening-double-blowjob.1023.html"},{"id":"1018","name":"Mai Asahina is fucked through stockings","image":"http:\/\/statics.javhihi.com\/images\/movies\/javhihi.com-mai-asahina-is-fucked-through-stockings.jpg","image_small":"http:\/\/statics.javhihi.com\/images\/movies\/javhihi.com-mai-asahina-is-fucked-through-stockings.small.jpg","categories":["creampie","hardcore","office-lady","stockings","teen"],"tags":["nice-teen","office-suit","sexy-pantyhose","cock-sucking","pussy-licking","pussy-stimulation","hardcore-action","rear-fuck","creamed-pussy","pussy-creampies","uniform","lick","pussy-lick"],"pornstars":["mai-asahina"],"duration":"25:18","quality":"3","year":"0","view":"30,013","viewday":"1","viewweek":"3027","viewmonth":"3025","like":"37","likeday":"1","likeweek":"1","likemonth":"1","published":"2016-04-12","dmca":"0","url":"movie\/mai-asahina-is-fucked-through-stockings.1018.html"},{"id":"1013","name":"Mai Asahina's Pussy Oozes Cum After A Threesome","image":"http:\/\/statics.javhihi.com\/images\/movies\/javhihi.com-mai-asahina-s-pussy-oozes-cum-after-a-threesome.jpg","image_small":"http:\/\/statics.javhihi.com\/images\/movies\/javhihi.com-mai-asahina-s-pussy-oozes-cum-after-a-threesome.small.jpg","categories":["creampie","footjob","group-sex","hardcore","teen","threesome"],"tags":["nice-teen","group-action","mmf","foot-licking","footjob","kissing","pink-pussy","fingering","cock-sucking","hardcore-action","dick-riding","creamed-pussy","pussy-creampies"],"pornstars":["mai-asahina"],"duration":"38:24","quality":"3","year":"0","view":"73,014","viewday":"1189","viewweek":"6132","viewmonth":"6126","like":"152","likeday":"2","likeweek":"9","likemonth":"9","published":"2016-04-11","dmca":"0","url":"movie\/mai-asahina-s-pussy-oozes-cum-after-a-threesome.1013.html"}],"total":539,"next_page_url":"movie\/creampie.html?sort=published&page=3","page":2,"total_page":23}