{"movies":[{"id":"35","name":"Aoba Itou with bee stings is well pumped","image":"http:\/\/statics.javhihi.com\/images\/movies\/javhihi.com-aoba-itou-with-bee-stings-is-well-pumped.jpg","image_small":"http:\/\/statics.javhihi.com\/images\/movies\/javhihi.com-aoba-itou-with-bee-stings-is-well-pumped.small.jpg","categories":["anal","creampie","double-penetration","gang-bang","group-sex","squirting"],"tags":["small-tits","wild-gang","pink-pussy","fingering","pussy-licking","sex-toys","toy-insertion","vibrator","dildo","squirting","cock-sucking","deep-throat","double-blowjob","rear-fuck","hardcore-action","deep-penetration","double-penetration","doggy-style","creamed-ass","cum-on-face","multiple-cumshots","massive-cum","creamed-pussy","anal-creampie","pussy-creampies"],"pornstars":["aoba-itou"],"duration":"61:44","quality":"3","year":"0","view":"71,547","viewday":"502","viewweek":"2715","viewmonth":"2713","like":"126","likeday":"0","likeweek":"7","likemonth":"7","published":"2015-11-07","dmca":"1","url":"movie\/aoba--itou-with-bee-stings-is-well-pumped.35.html"},{"id":"13","name":"Yuu Mahiru gets 1 hot double teaming","image":"http:\/\/statics.javhihi.com\/images\/movies\/javhihi.com-yuu-mahiru-gets-one-hot-double-teaming.jpg","image_small":"http:\/\/statics.javhihi.com\/images\/movies\/javhihi.com-yuu-mahiru-gets-one-hot-double-teaming.small.jpg","categories":["anal","bondage","double-penetration","group-sex","hardcore","teen","threesome"],"tags":["nice-teen","gag","group-action","mmf","pink-lingerie","pink-pussy","gaping-hole","fingering","sex-toys","dildo","toy-insertion","ass-insertion","cock-sucking","headfuck","deep-throat","hardcore-action","doggy-style","nice-ass","dick-riding","double-penetration","anal-penetration","creamed-ass"],"pornstars":["yuu-mahiru"],"duration":"32:27","quality":"3","year":"0","view":"162,880","viewday":"1048","viewweek":"5515","viewmonth":"5511","like":"205","likeday":"3","likeweek":"6","likemonth":"6","published":"2015-11-04","dmca":"0","url":"movie\/yuu-mahiru-gets-1-hot-double-teaming.13.html"},{"id":"1936","name":"Naomi Sugawara takes asian anal and some DP sex","image":"http:\/\/statics.javhihi.com\/images\/movies\/javhihi.com-naomi-sugawara-takes-asian-anal-and-some-dp-sex.jpg","image_small":"http:\/\/statics.javhihi.com\/images\/movies\/javhihi.com-naomi-sugawara-takes-asian-anal-and-some-dp-sex.small.jpg","categories":["anal","double-penetration","fingering","milf","threesome"],"tags":["mom","mmf","pink-pussy","cock-sucking","doggy-style","hardcore-action","creamed-pussy","creamed-ass"],"pornstars":["naomi-sugawara"],"duration":"40:11","quality":"3","year":"0","view":"39,753","viewday":"0","viewweek":"1157","viewmonth":"1157","like":"26","likeday":"0","likeweek":"0","likemonth":"0","published":"2015-10-10","dmca":"1","url":"movie\/naomi--sugawara-takes-asian-anal-and-some-dp-sex.1936.html"},{"id":"1878","name":"Nozomi Aiuchi fucking in top anal asian video","image":"http:\/\/statics.javhihi.com\/images\/movies\/javhihi.com-nozomi-aiuchi-fucking-in-top-anal-asian-video.jpg","image_small":"http:\/\/statics.javhihi.com\/images\/movies\/javhihi.com-nozomi-aiuchi-fucking-in-top-anal-asian-video.small.jpg","categories":["anal","blowjob","double-penetration","hairy-pussy","threesome"],"tags":["pink-pussy","ass-insertion","double-blowjob","hardcore-action","fingering","rear-fuck","gaping-hole","creamed-pussy"],"pornstars":["nozomi-aiuchi"],"duration":"39:50","quality":"3","year":"0","view":"47,799","viewday":"0","viewweek":"1096","viewmonth":"1096","like":"40","likeday":"0","likeweek":"0","likemonth":"0","published":"2015-09-21","dmca":"1","url":"movie\/nozomi--aiuchi-fucking-in-top-anal-asian-video.1878.html"},{"id":"1723","name":"Yukina Mori fucking in asian anal sex movies","image":"http:\/\/statics.javhihi.com\/images\/movies\/javhihi.com-yukina-mori-fucking-in-asian-anal-sex-movies.jpg","image_small":"http:\/\/statics.javhihi.com\/images\/movies\/javhihi.com-yukina-mori-fucking-in-asian-anal-sex-movies.small.jpg","categories":["anal","double-penetration","fingering","shaved-pussy","toys"],"tags":["school-uniform","group-action","mmf","vibrator","ass-insertion","dildo","cock-sucking","hardcore-action","doggy-style","creamed-ass","creamed-pussy"],"pornstars":["yukina-mori"],"duration":"42:33","quality":"3","year":"0","view":"46,191","viewday":"248","viewweek":"1365","viewmonth":"1365","like":"29","likeday":"0","likeweek":"1","likemonth":"1","published":"2015-08-19","dmca":"1","url":"movie\/yukina--mori-fucking-in-asian-anal-sex-movies.1723.html"},{"id":"2495","name":"Hinata Komine posing her big asian tits in hardcore","image":"http:\/\/statics.javhihi.com\/images\/movies\/javhihi.com-hinata-komine-posing-her-big-asian-tits-in-hardcore.jpg","image_small":"http:\/\/statics.javhihi.com\/images\/movies\/javhihi.com-hinata-komine-posing-her-big-asian-tits-in-hardcore.small.jpg","categories":["big-tits","double-penetration","fingering","milf","threesome"],"tags":["mom","red-lingerie","mmf","pink-pussy","anal-penetration","cock-sucking","tit-fuck","doggy-style","hardcore-action","creamed-ass"],"pornstars":["hinata-komine"],"duration":"31:30","quality":"3","year":"0","view":"55,805","viewday":"5","viewweek":"1820","viewmonth":"1820","like":"38","likeday":"0","likeweek":"0","likemonth":"0","published":"2015-07-31","dmca":"1","url":"movie\/hinata--komine-posing-her-big-asian-tits-in-hardcore.2495.html"},{"id":"2433","name":"Japanese anal with steamy and curvy Ren Azumi ","image":"http:\/\/statics.javhihi.com\/images\/movies\/javhihi.com-asian-anal-with-steamy-and-curvy-ren-azumi.jpg","image_small":"http:\/\/statics.javhihi.com\/images\/movies\/javhihi.com-asian-anal-with-steamy-and-curvy-ren-azumi.small.jpg","categories":["anal","creampie","double-penetration","milf","threesome"],"tags":["mom","mmf","sex-toys","dildo-riding","fingering","pussy-licking","doggy-style","creamed-pussy"],"pornstars":["ren-azumi"],"duration":"42:50","quality":"3","year":"0","view":"108,957","viewday":"3","viewweek":"3443","viewmonth":"3440","like":"57","likeday":"0","likeweek":"2","likemonth":"2","published":"2015-07-31","dmca":"0","url":"movie\/japanese-anal-with-steamy-and-curvy-ren-azumi.2433.html"},{"id":"2383","name":"Asian creampie for lusty girl Rei Furuse","image":"http:\/\/statics.javhihi.com\/images\/movies\/javhihi.com-asian-creampie-for-lusty-girl-rei-furuse.jpg","image_small":"http:\/\/statics.javhihi.com\/images\/movies\/javhihi.com-asian-creampie-for-lusty-girl-rei-furuse.small.jpg","categories":["creampie","double-penetration","hardcore","milf","toys"],"tags":["mom","mmf","fingering","toy-insertion","ass-insertion","dildo","cock-sucking","anal-penetration","creamed-pussy"],"pornstars":["rei-furuse"],"duration":"35:30","quality":"3","year":"0","view":"32,220","viewday":"222","viewweek":"1275","viewmonth":"1275","like":"18","likeday":"1","likeweek":"2","likemonth":"2","published":"2015-07-31","dmca":"0","url":"movie\/asian-creampie-for-lusty-girl-rei-furuse.2383.html"},{"id":"2353","name":"Kanako Iioka in hot japanese ass fuck scene ","image":"http:\/\/statics.javhihi.com\/images\/movies\/javhihi.com-kanako-iioka-in-hot-japanese-ass-fuck-scene.jpg","image_small":"http:\/\/statics.javhihi.com\/images\/movies\/javhihi.com-kanako-iioka-in-hot-japanese-ass-fuck-scene.small.jpg","categories":["anal","double-penetration","hardcore","lingerie","threesome"],"tags":["hot-milf","pussy-licking","ass-licking","fingering","cock-sucking","creamed-ass"],"pornstars":["kanako-iioka"],"duration":"30:45","quality":"3","year":"0","view":"28,660","viewday":"0","viewweek":"856","viewmonth":"856","like":"16","likeday":"0","likeweek":"1","likemonth":"1","published":"2015-07-31","dmca":"1","url":"movie\/kanako--iioka-in-hot-japanese-ass-fuck-scene.2353.html"},{"id":"2206","name":"Reira Aisaki gets asian anal sex in a group fucking","image":"http:\/\/statics.javhihi.com\/images\/movies\/javhihi.com-reira-aisaki-gets-asian-anal-sex-in-a-group-fucking.jpg","image_small":"http:\/\/statics.javhihi.com\/images\/movies\/javhihi.com-reira-aisaki-gets-asian-anal-sex-in-a-group-fucking.small.jpg","categories":["anal","creampie","double-penetration","group-sex","milf"],"tags":["mom","mmmf","fingering","ass-insertion","sex-toys","cock-sucking","creamed-pussy","creamed-ass"],"pornstars":["reira-aisaki"],"duration":"31:01","quality":"3","year":"0","view":"61,128","viewday":"2","viewweek":"1960","viewmonth":"1960","like":"49","likeday":"0","likeweek":"2","likemonth":"2","published":"2015-07-31","dmca":"1","url":"movie\/reira--aisaki-gets-asian-anal-sex-in-a-group-fucking.2206.html"},{"id":"2188","name":"Asian anal in threesome along sexy Rei Furuse","image":"http:\/\/statics.javhihi.com\/images\/movies\/javhihi.com-asian-anal-in-threesome-along-sexy-rei-furuse.jpg","image_small":"http:\/\/statics.javhihi.com\/images\/movies\/javhihi.com-asian-anal-in-threesome-along-sexy-rei-furuse.small.jpg","categories":["anal","creampie","double-penetration","stockings","threesome"],"tags":["shaved-pussy","creamed-pussy","rear-fuck","doggy-style","sex-toys","ass-insertion","fingering","pink-pussy","hot-milf"],"pornstars":["rei-furuse"],"duration":"45:05","quality":"3","year":"0","view":"35,705","viewday":"7","viewweek":"1530","viewmonth":"1528","like":"27","likeday":"0","likeweek":"1","likemonth":"1","published":"2015-07-31","dmca":"1","url":"movie\/asian--anal-in-threesome-along-sexy-rei-furuse.2188.html"},{"id":"2146","name":"An asian blow job leads to a DP fucking with Miyu Aoi","image":"http:\/\/statics.javhihi.com\/images\/movies\/javhihi.com-an-asian-blow-job-leads-to-a-dp-fucking-with-miyu-aoi.jpg","image_small":"http:\/\/statics.javhihi.com\/images\/movies\/javhihi.com-an-asian-blow-job-leads-to-a-dp-fucking-with-miyu-aoi.small.jpg","categories":["blowjob","creampie","double-penetration","group-sex"],"tags":["nice-teen","nice-ass","sexy-lingerie","fingering","vibrator","anal-insertion","shaved-pussy","doggy-style","anal-penetration","double-penetration","creamed-ass"],"pornstars":["miyu-aoi"],"duration":"46:54","quality":"3","year":"0","view":"22,549","viewday":"190","viewweek":"947","viewmonth":"946","like":"14","likeday":"0","likeweek":"0","likemonth":"0","published":"2015-07-31","dmca":"1","url":"movie\/an--asian-blow-job-leads-to-a-dp-fucking-with-miyu-aoi.2146.html"},{"id":"1964","name":"Ai Mizushima goes nasty during rough asian gang bang","image":"http:\/\/statics.javhihi.com\/images\/movies\/javhihi.com-ai-mizushima-goes-nasty-during-rough-asian-gang-bang.jpg","image_small":"http:\/\/statics.javhihi.com\/images\/movies\/javhihi.com-ai-mizushima-goes-nasty-during-rough-asian-gang-bang.small.jpg","categories":["blowjob","double-penetration","gang-bang","schoolgirl","teen"],"tags":["shaved-pussy","double-blowjob","ball-licking","dick-riding","anal-penetration","hardcore-action","creamed-pussy","cum-on-face"],"pornstars":["ai-mizushima"],"duration":"46:22","quality":"3","year":"0","view":"56,399","viewday":"6","viewweek":"1581","viewmonth":"1581","like":"43","likeday":"0","likeweek":"2","likemonth":"2","published":"2015-07-31","dmca":"1","url":"movie\/ai--mizushima-goes-nasty-during-rough-asian-gang-bang.1964.html"},{"id":"872","name":"Hot amateur Hanai Kanon gets a mean creampie!","image":"http:\/\/statics.javhihi.com\/images\/movies\/javhihi.com-hot-amateur-hanai-kanon-gets-a-mean-creampie.jpg","image_small":"http:\/\/statics.javhihi.com\/images\/movies\/javhihi.com-hot-amateur-hanai-kanon-gets-a-mean-creampie.small.jpg","categories":["anal","creampie","double-penetration","group-sex","hardcore","threesome"],"tags":["hot-milf","group-action","mmf","sexy-dress","fingering","close-up","anal-penetration","cock-sucking","headfuck","dick-riding","hardcore-action","double-penetration","hairy-pussy","doggy-style","creamed-ass","gaping-hole","anal-creampie"],"pornstars":["kanon-hanai"],"duration":"33:27","quality":"3","year":"0","view":"70,845","viewday":"480","viewweek":"2450","viewmonth":"2449","like":"53","likeday":"0","likeweek":"0","likemonth":"0","published":"2015-07-31","dmca":"1","url":"movie\/hot--amateur-hanai-kanon-gets-a-mean-creampie.872.html"},{"id":"129","name":"JAV Superstar Yui Misaki Pounded in her Pink Slit","image":"http:\/\/statics.javhihi.com\/images\/movies\/javhihi.com-jav-superstar-yui-misaki-pounded-in-her-pink-slit.jpg","image_small":"http:\/\/statics.javhihi.com\/images\/movies\/javhihi.com-jav-superstar-yui-misaki-pounded-in-her-pink-slit.small.jpg","categories":["anal","blowjob","double-penetration","group-sex","hardcore","teen","threesome"],"tags":["cock-sucking","nice-teen","hardcore-action","hairy-pussy","doggy-style","group-action","double-blowjob","double-penetration"],"pornstars":["yui-misaki"],"duration":"31:37","quality":"3","year":"0","view":"76,014","viewday":"458","viewweek":"2833","viewmonth":"2828","like":"127","likeday":"1","likeweek":"5","likemonth":"5","published":"2015-07-31","dmca":"1","url":"movie\/jav--superstar-yui-misaki-pounded-in-her-pink-slit.129.html"}],"total":39,"next_page_url":"movie\/double-penetration.html?sort=published&page=3","page":2,"total_page":2}