{"movies":[{"id":"378","name":"Sara Seori give her lover a mouth-job until he cums","image":"http:\/\/statics.javhihi.com\/images\/movies\/javhihi.com-sara-seori-give-her-lover-a-mouth-job-until-he-cums.jpg","image_small":"http:\/\/statics.javhihi.com\/images\/movies\/javhihi.com-sara-seori-give-her-lover-a-mouth-job-until-he-cums.small.jpg","categories":["blowjob","fingering","footjob","hardcore"],"tags":["footjob","tit-fuck","cock-sucking","hardcore-action","hairy-pussy","fingering","busty","nice-ass"],"pornstars":["sara-seori"],"duration":"9:31","quality":"3","year":"0","view":"13,376","viewday":"55","viewweek":"293","viewmonth":"292","like":"13","likeday":"0","likeweek":"0","likemonth":"0","published":"2016-01-03","dmca":"1","url":"movie\/sara--seori-give-her-lover-a-mouth-job-until-he-cums.378.html"},{"id":"381","name":"Hojo Maki showing off and wanking his mans stiff boner","image":"http:\/\/statics.javhihi.com\/images\/movies\/javhihi.com-hojo-maki-showing-off-and-wanking-his-mans-stiff-boner.jpg","image_small":"http:\/\/statics.javhihi.com\/images\/movies\/javhihi.com-hojo-maki-showing-off-and-wanking-his-mans-stiff-boner.small.jpg","categories":["blowjob","cumshot","footjob","handjob"],"tags":["hot-milf","sexy-dress","pink-pussy","footjob","petting","busty","cock-sucking","hand-work","pov","cum-in-mouth"],"pornstars":["maki-hojo"],"duration":"12:03","quality":"3","year":"0","view":"21,665","viewday":"155","viewweek":"880","viewmonth":"878","like":"19","likeday":"0","likeweek":"1","likemonth":"1","published":"2016-01-03","dmca":"1","url":"movie\/hojo--maki-showing-off-and-wanking-his-mans-stiff-boner.381.html"},{"id":"382","name":"Asian babe in stocking gives a foot-job to a cock","image":"http:\/\/statics.javhihi.com\/images\/movies\/javhihi.com-asian-babe-in-stocking-gives-a-foot-job-to-a-cock.jpg","image_small":"http:\/\/statics.javhihi.com\/images\/movies\/javhihi.com-asian-babe-in-stocking-gives-a-foot-job-to-a-cock.small.jpg","categories":["blowjob","footjob","handjob","tit-fuck"],"tags":["footjob","hand-work","tit-fuck","sexy-lingerie","amateur","busty","tits"],"pornstars":["iori-mizuki"],"duration":"11:11","quality":"3","year":"0","view":"9,452","viewday":"36","viewweek":"237","viewmonth":"237","like":"12","likeday":"0","likeweek":"0","likemonth":"0","published":"2016-01-03","dmca":"1","url":"movie\/asian--babe-in-stocking-gives-a-foot-job-to-a-cock.382.html"},{"id":"372","name":"Double cock sucking play with wild busty teen Sara Seori","image":"http:\/\/statics.javhihi.com\/images\/movies\/javhihi.com-double-cock-sucking-play-with-wild-busty-teen-sara-seori.jpg","image_small":"http:\/\/statics.javhihi.com\/images\/movies\/javhihi.com-double-cock-sucking-play-with-wild-busty-teen-sara-seori.small.jpg","categories":["blowjob","cumshot","footjob","handjob"],"tags":["cock-sucking","busty","nice-teen","group-action","amateur","hand-work","footjob","cumshot","cum-on-body"],"pornstars":["sara-seori"],"duration":"10:26","quality":"3","year":"0","view":"10,276","viewday":"58","viewweek":"354","viewmonth":"354","like":"11","likeday":"0","likeweek":"0","likemonth":"0","published":"2016-01-02","dmca":"1","url":"movie\/double--cock-sucking-play-with-wild-busty-teen-sara-seori.372.html"},{"id":"369","name":"Talented Asukarino plays with a hard prick: feet, heels and hands","image":"http:\/\/statics.javhihi.com\/images\/movies\/javhihi.com-talented-asukarino-plays-with-a-hard-prick-feet-heels-and-hands.jpg","image_small":"http:\/\/statics.javhihi.com\/images\/movies\/javhihi.com-talented-asukarino-plays-with-a-hard-prick-feet-heels-and-hands.small.jpg","categories":["blowjob","cumshot","facial","footjob","handjob"],"tags":["cock-sucking","busty","cum-on-face","hand-work","tit-fuck","footjob"],"pornstars":["rino-asuka"],"duration":"11:33","quality":"3","year":"0","view":"15,328","viewday":"59","viewweek":"400","viewmonth":"400","like":"10","likeday":"0","likeweek":"0","likemonth":"0","published":"2016-01-01","dmca":"1","url":"movie\/talented--asukarino-plays-with-a-hard-prick-feet-heels-and-hands.369.html"},{"id":"326","name":"Ai Ootomos nursing job to her patients stiff cock","image":"http:\/\/statics.javhihi.com\/images\/movies\/javhihi.com-ai-ootomos-nursing-job-to-her-patients-stiff-cock.jpg","image_small":"http:\/\/statics.javhihi.com\/images\/movies\/javhihi.com-ai-ootomos-nursing-job-to-her-patients-stiff-cock.small.jpg","categories":["blowjob","footjob","nurse","stockings","tit-fuck"],"tags":["wild-nurse","footjob","tit-fuck","cock-sucking","nice-teen","cumshot","hand-work","tits","uniform"],"pornstars":["ai-ootomo"],"duration":"7:57","quality":"3","year":"0","view":"10,457","viewday":"0","viewweek":"377","viewmonth":"376","like":"8","likeday":"0","likeweek":"0","likemonth":"0","published":"2015-12-25","dmca":"1","url":"movie\/ai--ootomos-nursing-job-to-her-patients-stiff-cock.326.html"},{"id":"287","name":"Asian hottie Akiho Nishimura playful with a stiff winkie","image":"http:\/\/statics.javhihi.com\/images\/movies\/javhihi.com-asian-hottie-akiho-nishimura-playful-with-a-stiff-winkie.jpg","image_small":"http:\/\/statics.javhihi.com\/images\/movies\/javhihi.com-asian-hottie-akiho-nishimura-playful-with-a-stiff-winkie.small.jpg","categories":["big-tits","bikini","blowjob","footjob","tit-fuck"],"tags":["hot-milf","mini-bikini","tit-fuck","busty","footjob","cock-sucking","hand-work","cum-on-tits","tits","uniform"],"pornstars":["akiho-nishimura"],"duration":"14:50","quality":"3","year":"0","view":"23,411","viewday":"113","viewweek":"649","viewmonth":"647","like":"12","likeday":"1","likeweek":"1","likemonth":"1","published":"2015-12-19","dmca":"1","url":"movie\/asian--hottie-akiho-nishimura-playful-with-a-stiff-winkie.287.html"},{"id":"276","name":"Playful Japanese babe Airi Ai gives a handjob and a tit fuck","image":"http:\/\/statics.javhihi.com\/images\/movies\/javhihi.com-playful-japanese-babe-airi-ai-gives-a-handjob-and-a-tit-fuck.jpg","image_small":"http:\/\/statics.javhihi.com\/images\/movies\/javhihi.com-playful-japanese-babe-airi-ai-gives-a-handjob-and-a-tit-fuck.small.jpg","categories":["amateur","blowjob","footjob","pov","tit-fuck"],"tags":["hot-milf","huge-boobs","mini-bikini","pov","footjob","tit-fuck","cock-sucking","hand-work","cum-on-tits","amateur","huge-tits","tits"],"pornstars":["airi-ai"],"duration":"10:46","quality":"3","year":"0","view":"27,405","viewday":"229","viewweek":"988","viewmonth":"988","like":"31","likeday":"0","likeweek":"1","likemonth":"1","published":"2015-12-17","dmca":"1","url":"movie\/playful--japanese-babe-airi-ai-gives-a-handjob-and-a-tit-fuck.276.html"},{"id":"280","name":"Ishiguro Kyok gives a foot and mouth job to a flesh tool","image":"http:\/\/statics.javhihi.com\/images\/movies\/javhihi.com-ishiguro-kyok-gives-a-foot-and-mouth-job-to-a-flesh-tool.jpg","image_small":"http:\/\/statics.javhihi.com\/images\/movies\/javhihi.com-ishiguro-kyok-gives-a-foot-and-mouth-job-to-a-flesh-tool.small.jpg","categories":["blowjob","footjob","handjob","lingerie"],"tags":["sexy-lingerie","pov","high-heels","footjob","cock-sucking","cumshot","hand-work","amateur","brunette","uniform"],"pornstars":["kyoka-ishiguro"],"duration":"7:42","quality":"3","year":"0","view":"26,050","viewday":"1","viewweek":"713","viewmonth":"713","like":"39","likeday":"0","likeweek":"0","likemonth":"0","published":"2015-12-17","dmca":"1","url":"movie\/ishiguro--kyok-gives-a-foot-and-mouth-job-to-a-flesh-tool.280.html"},{"id":"274","name":"Naho Hadsuki makes cock happy with feet, boobs and mouth","image":"http:\/\/statics.javhihi.com\/images\/movies\/javhihi.com-naho-hadsuki-makes-cock-happy-with-feet-boobs-and-mouth.jpg","image_small":"http:\/\/statics.javhihi.com\/images\/movies\/javhihi.com-naho-hadsuki-makes-cock-happy-with-feet-boobs-and-mouth.small.jpg","categories":["big-tits","blowjob","footjob","hardcore","milf","tit-fuck"],"tags":["mom","hot-milf","sexy-lingerie","footjob","busty","tit-fuck","pov","hand-work","cock-sucking","cum-in-mouth","tits"],"pornstars":["naho-hadsuki"],"duration":"10:26","quality":"3","year":"0","view":"61,151","viewday":"288","viewweek":"2169","viewmonth":"2167","like":"93","likeday":"0","likeweek":"6","likemonth":"6","published":"2015-12-16","dmca":"1","url":"movie\/naho--hadsuki-makes-cock-happy-with-feet-boobs-and-mouth.274.html"},{"id":"251","name":"Blowjob assisted by feet and hand from lewd Rino Asuka","image":"http:\/\/statics.javhihi.com\/images\/movies\/javhihi.com-blowjob-assisted-by-feet-and-hand-from-lewd-rino-asuka.jpg","image_small":"http:\/\/statics.javhihi.com\/images\/movies\/javhihi.com-blowjob-assisted-by-feet-and-hand-from-lewd-rino-asuka.small.jpg","categories":["amateur","blowjob","footjob","maid"],"tags":["footjob","pov","amateur","upskirt","cock-sucking","cumshot","ball-licking","uniform"],"pornstars":["rino-asuka"],"duration":"13:29","quality":"3","year":"0","view":"14,117","viewday":"73","viewweek":"441","viewmonth":"441","like":"12","likeday":"0","likeweek":"1","likemonth":"1","published":"2015-12-12","dmca":"1","url":"movie\/blowjob--assisted-by-feet-and-hand-from-lewd-rino-asuka.251.html"},{"id":"162","name":"Suzuki Satomi gives full service to a cock with her body","image":"http:\/\/statics.javhihi.com\/images\/movies\/javhihi.com-suzuki-satomi-gives-full-service-to-a-cock-with-her-body.jpg","image_small":"http:\/\/statics.javhihi.com\/images\/movies\/javhihi.com-suzuki-satomi-gives-full-service-to-a-cock-with-her-body.small.jpg","categories":["big-tits","creampie","footjob","hardcore","teen","tit-fuck"],"tags":["hot-milf","sexy-lingerie","busty","cock-sucking","tit-fuck","footjob","nice-ass","petting","hardcore-action","pov","dick-riding","hairy-pussy","creamed-pussy","pussy-creampies","tits"],"pornstars":["satomi-suzuki"],"duration":"23:05","quality":"3","year":"0","view":"126,629","viewday":"602","viewweek":"3460","viewmonth":"3456","like":"279","likeday":"1","likeweek":"5","likemonth":"5","published":"2015-11-28","dmca":"1","url":"movie\/suzuki--satomi-gives-full-service-to-a-cock-with-her-body.162.html"},{"id":"131","name":"JAV Star Ramu Nagatsuki Dominates a Guy With Her Feet","image":"http:\/\/statics.javhihi.com\/images\/movies\/javhihi.com-jav-star-ramu-nagatsuki-dominates-a-guy-with-her-feet.jpg","image_small":"http:\/\/statics.javhihi.com\/images\/movies\/javhihi.com-jav-star-ramu-nagatsuki-dominates-a-guy-with-her-feet.small.jpg","categories":["cumshot","footjob","handjob","teen"],"tags":["footjob","nice-teen","oiled-body","sexy-dress","hand-work","cum-on-body","upskirt","teen-pussy","pussy"],"pornstars":["ramu-nagatsuki"],"duration":"11:03","quality":"3","year":"0","view":"26,165","viewday":"267","viewweek":"1385","viewmonth":"1385","like":"31","likeday":"0","likeweek":"2","likemonth":"2","published":"2015-11-23","dmca":"1","url":"movie\/jav--star-ramu-nagatsuki-dominates-a-guy-with-her-feet.131.html"},{"id":"127","name":"Pretty Japanese babe Hayakawa Serina gets her twat vibed","image":"http:\/\/statics.javhihi.com\/images\/movies\/javhihi.com-pretty-japanese-babe-hayakawa-serina-gets-her-twat-vibed.jpg","image_small":"http:\/\/statics.javhihi.com\/images\/movies\/javhihi.com-pretty-japanese-babe-hayakawa-serina-gets-her-twat-vibed.small.jpg","categories":["footjob","hairy-pussy","lingerie","mini-skirt","toys"],"tags":["short-skirt","sexy-lingerie","nice-teen","busty","hairy-pussy","sex-toys","vibrator","fingering","toy-insertion","cum-on-face","cum-in-mouth","pussy","uniform"],"pornstars":["serina-hayakawa"],"duration":"20:14","quality":"3","year":"0","view":"8,270","viewday":"48","viewweek":"223","viewmonth":"223","like":"4","likeday":"0","likeweek":"0","likemonth":"0","published":"2015-11-22","dmca":"1","url":"movie\/pretty--japanese-babe-hayakawa-serina-gets-her-twat-vibed.127.html"},{"id":"24","name":"Sakura Aragaki hottest tit fuck and pov blowjob!","image":"http:\/\/statics.javhihi.com\/images\/movies\/javhihi.com-sakura-aragaki-hottest-tit-fuck-and-pov-blowjob.jpg","image_small":"http:\/\/statics.javhihi.com\/images\/movies\/javhihi.com-sakura-aragaki-hottest-tit-fuck-and-pov-blowjob.small.jpg","categories":["blowjob","footjob","handjob","pov","tit-fuck"],"tags":["sexy-lingerie","busty","footjob","hand-work","tit-fuck","cock-sucking","tits"],"pornstars":["sakura-aragaki"],"duration":"15:10","quality":"3","year":"0","view":"11,407","viewday":"56","viewweek":"293","viewmonth":"293","like":"12","likeday":"0","likeweek":"0","likemonth":"0","published":"2015-11-05","dmca":"1","url":"movie\/sakura--aragaki-hottest-tit-fuck-and-pov-blowjob.24.html"},{"id":"1863","name":"Hinata Tachibana gives an asian blow job and footjob to two","image":"http:\/\/statics.javhihi.com\/images\/movies\/javhihi.com-hinata-tachibana-gives-an-asian-blow-job-and-footjob-to-two.jpg","image_small":"http:\/\/statics.javhihi.com\/images\/movies\/javhihi.com-hinata-tachibana-gives-an-asian-blow-job-and-footjob-to-two.small.jpg","categories":["blowjob","footjob","threesome","toys"],"tags":["nice-teen","sex-toys","vibrator","footjob","group-action","double-blowjob","mmf","cock-sucking","cum-swallowing"],"pornstars":["hinata-tachibana"],"duration":"21:28","quality":"3","year":"0","view":"17,727","viewday":"117","viewweek":"580","viewmonth":"580","like":"8","likeday":"0","likeweek":"0","likemonth":"0","published":"2015-09-18","dmca":"1","url":"movie\/hinata--tachibana-gives-an-asian-blow-job-and-footjob-to-two.1863.html"},{"id":"1727","name":"Blonde Runa Anzai giving top asian blowjob in threesome","image":"http:\/\/statics.javhihi.com\/images\/movies\/javhihi.com-blonde-runa-anzai-giving-top-asian-blowjob-in-threesome.jpg","image_small":"http:\/\/statics.javhihi.com\/images\/movies\/javhihi.com-blonde-runa-anzai-giving-top-asian-blowjob-in-threesome.small.jpg","categories":["blowjob","footjob","hardcore","milf","threesome"],"tags":["mom","blonde","mmf","group-action","pussy-licking","fingering","dick-riding","doggy-style","creamed-pussy"],"pornstars":["runa-anzai"],"duration":"33:37","quality":"3","year":"0","view":"20,891","viewday":"117","viewweek":"518","viewmonth":"518","like":"18","likeday":"0","likeweek":"0","likemonth":"0","published":"2015-08-20","dmca":"1","url":"movie\/blonde--runa-anzai-giving-top-asian-blowjob-in-threesome.1727.html"},{"id":"2460","name":"Harsh Asian creampie with sensual Yui Hatano Star","image":"http:\/\/statics.javhihi.com\/images\/movies\/javhihi.com-harsh-asian-creampie-with-sensual-yui-hatano.jpg","image_small":"http:\/\/statics.javhihi.com\/images\/movies\/javhihi.com-harsh-asian-creampie-with-sensual-yui-hatano.small.jpg","categories":["bikini","creampie","footjob","hardcore","milf"],"tags":["mom","position-69","pussy-licking","fingering","doggy-style","dick-riding"],"pornstars":["yui-hatano"],"duration":"35:13","quality":"3","year":"0","view":"304,079","viewday":"2200","viewweek":"11979","viewmonth":"11967","like":"357","likeday":"1","likeweek":"10","likemonth":"10","published":"2015-07-31","dmca":"0","url":"movie\/harsh-asian-creampie-with-sensual-yui-hatano-star.2460.html"},{"id":"2449","name":"Japanese blow job by hot Aisan nurse in heats","image":"http:\/\/statics.javhihi.com\/images\/movies\/javhihi.com-japanese-blow-job-by-hot-aisan-nurse-in-heats.jpg","image_small":"http:\/\/statics.javhihi.com\/images\/movies\/javhihi.com-japanese-blow-job-by-hot-aisan-nurse-in-heats.small.jpg","categories":["blowjob","cosplay","footjob","nurse","pov"],"tags":["hand-work","amateur","tit-fuck","busty","hot-milf"],"pornstars":["mikuni-maisaki"],"duration":"18:16","quality":"3","year":"0","view":"35,852","viewday":"233","viewweek":"1259","viewmonth":"1259","like":"24","likeday":"0","likeweek":"2","likemonth":"2","published":"2015-07-31","dmca":"1","url":"movie\/japanese--blow-job-by-hot-aisan-nurse-in-heats.2449.html"},{"id":"2428","name":"Konoha gives an asian blowjob to two horny guys","image":"http:\/\/statics.javhihi.com\/images\/movies\/javhihi.com-konoha-gives-an-asian-blowjob-to-two-horny-guys.jpg","image_small":"http:\/\/statics.javhihi.com\/images\/movies\/javhihi.com-konoha-gives-an-asian-blowjob-to-two-horny-guys.small.jpg","categories":["blowjob","cumshot","footjob","group-sex"],"tags":["nice-teen","hand-work","double-blowjob","cum-on-face"],"pornstars":["konoha"],"duration":"16:26","quality":"3","year":"0","view":"11,254","viewday":"0","viewweek":"301","viewmonth":"301","like":"3","likeday":"0","likeweek":"0","likemonth":"0","published":"2015-07-31","dmca":"1","url":"movie\/konoha--gives-an-asian-blowjob-to-two-horny-guys.2428.html"},{"id":"2422","name":"Asian blowjob with natural beauty Anna Anjo ","image":"http:\/\/statics.javhihi.com\/images\/movies\/javhihi.com-asian-blowjob-with-natural-beauty-anna-anjo.jpg","image_small":"http:\/\/statics.javhihi.com\/images\/movies\/javhihi.com-asian-blowjob-with-natural-beauty-anna-anjo.small.jpg","categories":["blowjob","footjob","stockings","toys"],"tags":["sexy-pantyhose","masturbation","vibrator","small-tits","nice-ass","pov","cumshot"],"pornstars":["anna-anjo"],"duration":"18:15","quality":"3","year":"0","view":"18,982","viewday":"0","viewweek":"646","viewmonth":"646","like":"10","likeday":"0","likeweek":"3","likemonth":"3","published":"2015-07-31","dmca":"0","url":"movie\/asian-blowjob-with-natural-beauty-anna-anjo.2422.html"},{"id":"2374","name":"Miku Kohinata asian masturbate and fucked by two","image":"http:\/\/statics.javhihi.com\/images\/movies\/javhihi.com-miku-kohinata-asian-masturbate-and-fucked-by-two.jpg","image_small":"http:\/\/statics.javhihi.com\/images\/movies\/javhihi.com-miku-kohinata-asian-masturbate-and-fucked-by-two.small.jpg","categories":["fingering","footjob","hardcore","threesome"],"tags":["group-action","mmf","pussy-licking","fingering","hardcore-action","doggy-style","dick-riding","creamed-pussy"],"pornstars":["miku-kohinata"],"duration":"28:35","quality":"3","year":"0","view":"15,491","viewday":"83","viewweek":"435","viewmonth":"434","like":"6","likeday":"0","likeweek":"0","likemonth":"0","published":"2015-07-31","dmca":"1","url":"movie\/miku--kohinata-asian-masturbate-and-fucked-by-two.2374.html"},{"id":"2305","name":"Ayumi Iwasa gives an asian foot job and sits on his face","image":"http:\/\/statics.javhihi.com\/images\/movies\/javhihi.com-ayumi-iwasa-gives-an-asian-foot-job-and-sits-on-his-face.jpg","image_small":"http:\/\/statics.javhihi.com\/images\/movies\/javhihi.com-ayumi-iwasa-gives-an-asian-foot-job-and-sits-on-his-face.small.jpg","categories":["footjob","milf"],"tags":["mom","office-suit","pussy-licking","vibrator","hand-work","long-hair","cumshot"],"pornstars":["ayumi-iwasa"],"duration":"19:48","quality":"3","year":"0","view":"19,566","viewday":"170","viewweek":"764","viewmonth":"764","like":"5","likeday":"0","likeweek":"0","likemonth":"0","published":"2015-07-31","dmca":"1","url":"movie\/ayumi--iwasa-gives-an-asian-foot-job-and-sits-on-his-face.2305.html"},{"id":"2297","name":"An Yabuki on her knees to give him an asian blowjob","image":"http:\/\/statics.javhihi.com\/images\/movies\/javhihi.com-an-yabuki-on-her-knees-to-give-him-an-asian-blowjob.jpg","image_small":"http:\/\/statics.javhihi.com\/images\/movies\/javhihi.com-an-yabuki-on-her-knees-to-give-him-an-asian-blowjob.small.jpg","categories":["bikini","blowjob","footjob","handjob","milf"],"tags":["mom","hot-milf","mini-bikini","hand-work","footjob","cock-sucking"],"pornstars":["an-yabuki"],"duration":"16:38","quality":"3","year":"0","view":"19,133","viewday":"0","viewweek":"667","viewmonth":"667","like":"9","likeday":"0","likeweek":"0","likemonth":"0","published":"2015-07-31","dmca":"1","url":"movie\/an--yabuki-on-her-knees-to-give-him-an-asian-blowjob.2297.html"}],"total":51,"next_page_url":"movie\/footjob.html?sort=published&page=3","page":2,"total_page":3}