{"movies":[{"id":"915","name":"Hot Akane Ozora keeps things hot and new with feet rubs and tit fucks","image":"http:\/\/statics.javhihi.com\/images\/movies\/javhihi.com-hot-akane-ozora-keeps-things-hot-and-new-with-feet-rubs-and-tit-fucks.jpg","image_small":"http:\/\/statics.javhihi.com\/images\/movies\/javhihi.com-hot-akane-ozora-keeps-things-hot-and-new-with-feet-rubs-and-tit-fucks.small.jpg","categories":["blowjob","cumshot","handjob","tit-fuck"],"tags":["cock-sucking","hot-milf","busty","cum-in-mouth","hand-work","tit-fuck","cumshot","tits"],"pornstars":["akane-ozora"],"duration":"12:52","quality":"3","year":"0","view":"24,231","viewday":"164","viewweek":"967","viewmonth":"966","like":"25","likeday":"0","likeweek":"0","likemonth":"0","published":"2016-03-26","dmca":"0","url":"movie\/hot-akane-ozora-keeps-things-hot-and-new-with-feet-rubs-and-tit-fucks.915.html"},{"id":"902","name":"Hot-fuck and seductive Asian babe Bunny gagging and cum swallowing","image":"http:\/\/statics.javhihi.com\/images\/movies\/javhihi.com-hot-fuck-and-seductive-asian-babe-bunny-gagging-and-cum-swallowing.jpg","image_small":"http:\/\/statics.javhihi.com\/images\/movies\/javhihi.com-hot-fuck-and-seductive-asian-babe-bunny-gagging-and-cum-swallowing.small.jpg","categories":["big-tits","blowjob","cumshot","handjob","tit-fuck"],"tags":["nice-teen","nice-ass","busty","masturbation","cock-sucking","hand-work","ball-licking","cum-on-tits","tits"],"pornstars":["bunny-night"],"duration":"19:38","quality":"3","year":"0","view":"29,200","viewday":"177","viewweek":"1183","viewmonth":"1181","like":"43","likeday":"0","likeweek":"1","likemonth":"1","published":"2016-03-24","dmca":"0","url":"movie\/hot-fuck-and-seductive-asian-babe-bunny-gagging-and-cum-swallowing.902.html"},{"id":"898","name":"Close Up Shot Of Mai Shirosaki Sucking Cock","image":"http:\/\/statics.javhihi.com\/images\/movies\/javhihi.com-close-up-shot-of-mai-shirosaki-sucking-cock.jpg","image_small":"http:\/\/statics.javhihi.com\/images\/movies\/javhihi.com-close-up-shot-of-mai-shirosaki-sucking-cock.small.jpg","categories":["amateur","blowjob","handjob","pov"],"tags":["nice-teen","amateur","pov","cock-sucking","hand-work","cumshot"],"pornstars":["mai-shirosaki"],"duration":"13:29","quality":"3","year":"0","view":"25,485","viewday":"186","viewweek":"1126","viewmonth":"1126","like":"25","likeday":"0","likeweek":"0","likemonth":"0","published":"2016-03-23","dmca":"0","url":"movie\/close-up-shot-of-mai-shirosaki-sucking-cock.898.html"},{"id":"899","name":"Shizuku rubs her crack with hard penis","image":"http:\/\/statics.javhihi.com\/images\/movies\/javhihi.com-shizuku-rubs-her-crack-with-hard-penis.jpg","image_small":"http:\/\/statics.javhihi.com\/images\/movies\/javhihi.com-shizuku-rubs-her-crack-with-hard-penis.small.jpg","categories":["handjob","shaved-pussy"],"tags":["nice-teen","busty","dick-riding","hand-work","cumshot","shaved-pussy","pussy"],"pornstars":["shizuku"],"duration":"13:31","quality":"3","year":"0","view":"13,667","viewday":"90","viewweek":"570","viewmonth":"570","like":"22","likeday":"0","likeweek":"1","likemonth":"1","published":"2016-03-23","dmca":"0","url":"movie\/shizuku-rubs-her-crack-with-hard-penis.899.html"},{"id":"893","name":"Yuki Aida loaded with cum on top of her racks","image":"http:\/\/statics.javhihi.com\/images\/movies\/javhihi.com-yuki-aida-loaded-with-cum-on-top-of-her-racks.jpg","image_small":"http:\/\/statics.javhihi.com\/images\/movies\/javhihi.com-yuki-aida-loaded-with-cum-on-top-of-her-racks.small.jpg","categories":["blowjob","cumshot","handjob","tit-fuck"],"tags":["hot-mature","tit-fuck","huge-boobs","cock-sucking","cumshot","hand-work","cum-in-mouth","huge-tits","tits"],"pornstars":["yuki-aida"],"duration":"14:34","quality":"3","year":"0","view":"18,893","viewday":"103","viewweek":"703","viewmonth":"702","like":"24","likeday":"0","likeweek":"0","likemonth":"0","published":"2016-03-22","dmca":"0","url":"movie\/yuki-aida-loaded-with-cum-on-top-of-her-racks.893.html"},{"id":"876","name":"Miruku Ichigo Earns Three Facials In A Foursome","image":"http:\/\/statics.javhihi.com\/images\/movies\/javhihi.com-miruku-ichigo-earns-three-facials-in-a-foursome.jpg","image_small":"http:\/\/statics.javhihi.com\/images\/movies\/javhihi.com-miruku-ichigo-earns-three-facials-in-a-foursome.small.jpg","categories":["cumshot","facial","group-sex","handjob","lingerie"],"tags":["nice-teen","sexy-lingerie","hand-work","group-action","mmmf","sex-toys","vibrator","dildo","toy-insertion","cock-sucking","cum-on-face","foursome","uniform"],"pornstars":["miruku-ichigo"],"duration":"24:52","quality":"3","year":"0","view":"20,755","viewday":"2","viewweek":"951","viewmonth":"951","like":"24","likeday":"0","likeweek":"0","likemonth":"0","published":"2016-03-20","dmca":"0","url":"movie\/miruku-ichigo-earns-three-facials-in-a-foursome.876.html"},{"id":"868","name":"hairy Asuka Ishihara enjoys great outdoor fuck","image":"http:\/\/statics.javhihi.com\/images\/movies\/javhihi.com-hairy-asuka-ishihara-enjoys-great-outdoor-fuck.jpg","image_small":"http:\/\/statics.javhihi.com\/images\/movies\/javhihi.com-hairy-asuka-ishihara-enjoys-great-outdoor-fuck.small.jpg","categories":["hairy-pussy","handjob","outdoor","tit-fuck"],"tags":["hairy-pussy","fingering","busty","tit-fuck","doggy-style","nice-teen","pussy-stimulation","outdoor","footjob","pussy","tits"],"pornstars":["asuka-ishihara"],"duration":"17:43","quality":"3","year":"0","view":"8,584","viewday":"79","viewweek":"456","viewmonth":"456","like":"8","likeday":"0","likeweek":"0","likemonth":"0","published":"2016-03-20","dmca":"0","url":"movie\/hairy-asuka-ishihara-enjoys-great-outdoor-fuck.868.html"},{"id":"858","name":"Banana Asada sucks shlong with such skill","image":"http:\/\/statics.javhihi.com\/images\/movies\/javhihi.com-banana-asada-sucks-shlong-with-such-skill.jpg","image_small":"http:\/\/statics.javhihi.com\/images\/movies\/javhihi.com-banana-asada-sucks-shlong-with-such-skill.small.jpg","categories":["blowjob","creampie","cumshot","handjob"],"tags":["nice-teen","short-skirt","cock-sucking","group-action","dick-riding","hand-work","cum-in-mouth","cum-eating","creampie-eating"],"pornstars":["banana-asada"],"duration":"12:39","quality":"3","year":"0","view":"13,353","viewday":"75","viewweek":"445","viewmonth":"445","like":"9","likeday":"0","likeweek":"0","likemonth":"0","published":"2016-03-18","dmca":"0","url":"movie\/banana-asada-sucks-shlong-with-such-skill.858.html"},{"id":"854","name":"Ryo Sasaki milf gets a nice ball licking cumshot!","image":"http:\/\/statics.javhihi.com\/images\/movies\/javhihi.com-ryo-sasaki-milf-gets-a-nice-ball-licking-cumshot.jpg","image_small":"http:\/\/statics.javhihi.com\/images\/movies\/javhihi.com-ryo-sasaki-milf-gets-a-nice-ball-licking-cumshot.small.jpg","categories":["blowjob","cumshot","facial","handjob","hardcore","milf"],"tags":["mom","hot-milf","ball-licking","cock-sucking","body-licking","cum-on-face"],"pornstars":["ryo-sasaki"],"duration":"16:38","quality":"3","year":"0","view":"11,131","viewday":"107","viewweek":"584","viewmonth":"584","like":"8","likeday":"0","likeweek":"0","likemonth":"0","published":"2016-03-18","dmca":"0","url":"movie\/ryo-sasaki-milf-gets-a-nice-ball-licking-cumshot.854.html"},{"id":"846","name":"Pervert and naughty Asian babe Kaori Akitsu into kinky sex","image":"http:\/\/statics.javhihi.com\/images\/movies\/javhihi.com-pervert-and-naughty-asian-babe-kaori-akitsu-into-kinky-sex.jpg","image_small":"http:\/\/statics.javhihi.com\/images\/movies\/javhihi.com-pervert-and-naughty-asian-babe-kaori-akitsu-into-kinky-sex.small.jpg","categories":["blowjob","handjob","hardcore"],"tags":["hot-milf","body-licking","female-domination","hand-work","ass-licking","cock-sucking","facesitting","pussy-licking","dick-riding","hardcore-action","doggy-style","cum-on-body","lick","ass-lick","pussy-lick"],"pornstars":["kaori-akitsu"],"duration":"29:04","quality":"3","year":"0","view":"52,049","viewday":"302","viewweek":"2095","viewmonth":"2091","like":"53","likeday":"2","likeweek":"4","likemonth":"4","published":"2016-03-16","dmca":"0","url":"movie\/pervert-and-naughty-asian-babe-kaori-akitsu-into-kinky-sex.846.html"},{"id":"838","name":"Banana Asada sucks dong very erotically","image":"http:\/\/statics.javhihi.com\/images\/movies\/javhihi.com-banana-asada-sucks-dong-very-erotically.jpg","image_small":"http:\/\/statics.javhihi.com\/images\/movies\/javhihi.com-banana-asada-sucks-dong-very-erotically.small.jpg","categories":["blowjob","creampie","cumshot","handjob"],"tags":["nice-teen","pissing","group-action","pov","hand-work","cock-sucking","cumshot","cum-in-mouth","cum-eating","creampie-eating"],"pornstars":["banana-asada"],"duration":"11:04","quality":"3","year":"0","view":"13,137","viewday":"80","viewweek":"442","viewmonth":"442","like":"14","likeday":"0","likeweek":"0","likemonth":"0","published":"2016-03-15","dmca":"0","url":"movie\/banana-asada-sucks-dong-very-erotically.838.html"},{"id":"824","name":"The Clothes Come Off For Mami Asakura When It's Time To Suck","image":"http:\/\/statics.javhihi.com\/images\/movies\/javhihi.com-the-clothes-come-off-for-mami-asakura-when-it-s-time-to-suck.jpg","image_small":"http:\/\/statics.javhihi.com\/images\/movies\/javhihi.com-the-clothes-come-off-for-mami-asakura-when-it-s-time-to-suck.small.jpg","categories":["blowjob","handjob","office-lady"],"tags":["hand-work","office-suit","sexy-pantyhose","cock-sucking","69","pussy-licking","cum-in-mouth","uniform","lick","pussy-lick"],"pornstars":["mami-asakura"],"duration":"14:49","quality":"3","year":"0","view":"26,665","viewday":"238","viewweek":"1574","viewmonth":"1573","like":"39","likeday":"0","likeweek":"1","likemonth":"1","published":"2016-03-13","dmca":"0","url":"movie\/the-clothes-come-off-for-mami-asakura-when-it-s-time-to-suck.824.html"},{"id":"817","name":"Japanese Pixie Kaoru Amamiya Sucks Cock and Takes a Shower","image":"http:\/\/statics.javhihi.com\/images\/movies\/javhihi.com-japanese-pixie-kaoru-amamiya-sucks-cock-and-takes-a-shower.jpg","image_small":"http:\/\/statics.javhihi.com\/images\/movies\/javhihi.com-japanese-pixie-kaoru-amamiya-sucks-cock-and-takes-a-shower.small.jpg","categories":["blowjob","handjob","hardcore","masturbation","mature"],"tags":["mom","amateur","hot-mature","nice-ass","soaping","masturbation","shower","cock-sucking","ball-licking","hand-work","sexy-lingerie","cum-in-mouth"],"pornstars":["kaoru-amamiya"],"duration":"19:06","quality":"3","year":"0","view":"11,289","viewday":"103","viewweek":"603","viewmonth":"601","like":"9","likeday":"1","likeweek":"1","likemonth":"1","published":"2016-03-12","dmca":"0","url":"movie\/japanese-pixie-kaoru-amamiya-sucks-cock-and-takes-a-shower.817.html"},{"id":"805","name":"Arisa Suzuhusa sucks woody so damn fine","image":"http:\/\/statics.javhihi.com\/images\/movies\/javhihi.com-arisa-suzuhusa-sucks-woody-so-damn-fine.jpg","image_small":"http:\/\/statics.javhihi.com\/images\/movies\/javhihi.com-arisa-suzuhusa-sucks-woody-so-damn-fine.small.jpg","categories":["big-tits","blowjob","handjob","hardcore","mature","pov"],"tags":["mom","hot-mature","busty","sexy-lingerie","hand-work","pov","cock-sucking","body-licking","tits"],"pornstars":["arisa-suzuhusa"],"duration":"15:50","quality":"3","year":"0","view":"18,462","viewday":"125","viewweek":"821","viewmonth":"821","like":"13","likeday":"0","likeweek":"0","likemonth":"0","published":"2016-03-10","dmca":"0","url":"movie\/arisa-suzuhusa-sucks-woody-so-damn-fine.805.html"},{"id":"799","name":"Sayaka Fukuyama plays with tongue on cock","image":"http:\/\/statics.javhihi.com\/images\/movies\/javhihi.com-sayaka-fukuyama-plays-with-tongue-on-cock.jpg","image_small":"http:\/\/statics.javhihi.com\/images\/movies\/javhihi.com-sayaka-fukuyama-plays-with-tongue-on-cock.small.jpg","categories":["amateur","big-tits","blowjob","handjob","pov"],"tags":["nice-teen","pov","amateur","busty","cock-sucking","hand-work","cumshot","tits"],"pornstars":["sayaka-fukuyama"],"duration":"9:34","quality":"3","year":"0","view":"43,318","viewday":"363","viewweek":"2143","viewmonth":"2142","like":"53","likeday":"0","likeweek":"2","likemonth":"2","published":"2016-03-09","dmca":"0","url":"movie\/sayaka-fukuyama-plays-with-tongue-on-cock.799.html"},{"id":"764","name":"Kinky and horny teenage couple teasing, making out and having a hardcore sex","image":"http:\/\/statics.javhihi.com\/images\/movies\/javhihi.com-kinky-and-horny-teenage-couple-teasing-making-out-and-having-a-hardcore-sex..jpg","image_small":"http:\/\/statics.javhihi.com\/images\/movies\/javhihi.com-kinky-and-horny-teenage-couple-teasing-making-out-and-having-a-hardcore-sex..small.jpg","categories":["blowjob","cosplay","group-sex","handjob"],"tags":["hot-milf","group-action","mmmf","sexy-costume","cock-sucking","cum-in-mouth","pink-pussy","hand-work","cumshot","foursome","uniform"],"pornstars":["shirosaki-karin"],"duration":"20:19","quality":"3","year":"0","view":"14,590","viewday":"1","viewweek":"651","viewmonth":"651","like":"15","likeday":"0","likeweek":"0","likemonth":"0","published":"2016-03-03","dmca":"0","url":"movie\/kinky-and-horny-teenage-couple-teasing-making-out-and-having-a-hardcore-sex.764.html"},{"id":"734","name":"Toa in fishnets takes shlong in footjob","image":"http:\/\/statics.javhihi.com\/images\/movies\/javhihi.com-toa-in-fishnets-takes-shlong-in-footjob.jpg","image_small":"http:\/\/statics.javhihi.com\/images\/movies\/javhihi.com-toa-in-fishnets-takes-shlong-in-footjob.small.jpg","categories":["bikini","blowjob","footjob","handjob","pov","stockings"],"tags":["hot-milf","mini-bikini","fishnet-stockings","cock-sucking","footjob","body-licking","hand-work","cumshot","uniform"],"pornstars":["toa"],"duration":"12:37","quality":"3","year":"0","view":"10,177","viewday":"86","viewweek":"503","viewmonth":"501","like":"14","likeday":"0","likeweek":"1","likemonth":"1","published":"2016-02-27","dmca":"1","url":"movie\/toa--in-fishnets-takes-shlong-in-footjob.734.html"},{"id":"709","name":"Hot Aiuchi Shiori pleasures with cum in her mouth","image":"http:\/\/statics.javhihi.com\/images\/movies\/javhihi.com-hot-aiuchi-shiori-pleasures-with-cum-in-her-mouth.jpg","image_small":"http:\/\/statics.javhihi.com\/images\/movies\/javhihi.com-hot-aiuchi-shiori-pleasures-with-cum-in-her-mouth.small.jpg","categories":["cumshot","handjob","hardcore","teen"],"tags":["nice-teen","amateur","sexy-costume","pussy-licking","cock-sucking","dick-riding","busty","hardcore-action","cum-in-mouth","lick","pussy-lick"],"pornstars":["aiuchi-shiori"],"duration":"14:39","quality":"3","year":"0","view":"16,884","viewday":"117","viewweek":"973","viewmonth":"972","like":"28","likeday":"0","likeweek":"0","likemonth":"0","published":"2016-02-23","dmca":"1","url":"movie\/hot--aiuchi-shiori-pleasures-with-cum-in-her-mouth.709.html"},{"id":"687","name":"Sexy Shiori Uta rubs clit of her pink crack","image":"http:\/\/statics.javhihi.com\/images\/movies\/javhihi.com-sexy-shiori-uta-rubs-clit-of-her-pink-crack.jpg","image_small":"http:\/\/statics.javhihi.com\/images\/movies\/javhihi.com-sexy-shiori-uta-rubs-clit-of-her-pink-crack.small.jpg","categories":["blowjob","cumshot","handjob","teen"],"tags":["nice-teen","busty","masturbation","pov","cock-sucking","hand-work","cum-in-mouth","teen-pussy","pussy"],"pornstars":["shiori-uta"],"duration":"9:44","quality":"3","year":"0","view":"19,830","viewday":"246","viewweek":"841","viewmonth":"840","like":"58","likeday":"0","likeweek":"1","likemonth":"1","published":"2016-02-20","dmca":"1","url":"movie\/sexy--shiori-uta-rubs-clit-of-her-pink-crack.687.html"},{"id":"678","name":"Nasty babe stroking and gaggiing a hard and throbbing cock and get fucked","image":"http:\/\/statics.javhihi.com\/images\/movies\/javhihi.com-nasty-babe-stroking-and-gaggiing-a-hard-and-throbbing-cock-and-get-fucked.jpg","image_small":"http:\/\/statics.javhihi.com\/images\/movies\/javhihi.com-nasty-babe-stroking-and-gaggiing-a-hard-and-throbbing-cock-and-get-fucked.small.jpg","categories":["blowjob","cumshot","handjob","hardcore","milf"],"tags":["mom","hot-milf","body-licking","small-tits","pov","cock-sucking","handwork","cum-on-body"],"pornstars":["nene-mashiro"],"duration":"9:35","quality":"3","year":"0","view":"7,944","viewday":"41","viewweek":"260","viewmonth":"260","like":"15","likeday":"0","likeweek":"0","likemonth":"0","published":"2016-02-19","dmca":"1","url":"movie\/nasty--babe-stroking-and-gaggiing-a-hard-and-throbbing-cock-and-get-fucked.678.html"},{"id":"641","name":"Pretty and stunning redhead cutie, Rei Sasaki gagging cock and stroking cock with her toes","image":"http:\/\/statics.javhihi.com\/images\/movies\/javhihi.com-pretty-and-stunning-redhead-cutie-rei-sasaki-gagging-cock-and-stroking-cock-with-her-toes.jpg","image_small":"http:\/\/statics.javhihi.com\/images\/movies\/javhihi.com-pretty-and-stunning-redhead-cutie-rei-sasaki-gagging-cock-and-stroking-cock-with-her-toes.small.jpg","categories":["blowjob","cumshot","footjob","handjob","pov"],"tags":["hot-milf","pov","hand-work","body-licking","cumshot","cum-in-mouth","footjob","cum-eating","ball-licking","cock-sucking","deep-throat","headfuck"],"pornstars":["rei-sasaki"],"duration":"23:12","quality":"3","year":"0","view":"10,305","viewday":"112","viewweek":"499","viewmonth":"499","like":"10","likeday":"0","likeweek":"1","likemonth":"1","published":"2016-02-13","dmca":"1","url":"movie\/pretty--and-stunning-redhead-cutie-rei-sasaki-gagging-cock-and-stroking-cock-with-her-toes.641.html"},{"id":"635","name":"Rui Yazawa gobbles a man-meat and cum-sprayed in her face","image":"http:\/\/statics.javhihi.com\/images\/movies\/javhihi.com-rui-yazawa-gobbles-a-man-meat-and-cum-sprayed-in-her-face.jpg","image_small":"http:\/\/statics.javhihi.com\/images\/movies\/javhihi.com-rui-yazawa-gobbles-a-man-meat-and-cum-sprayed-in-her-face.small.jpg","categories":["blowjob","cumshot","facial","handjob","tit-fuck"],"tags":["cock-sucking","busty","nice-teen","cum-on-face","hand-work","cumshot","tit-fuck","huge-boobs","tits"],"pornstars":["rui-yazawa"],"duration":"20:26","quality":"3","year":"0","view":"18,801","viewday":"0","viewweek":"643","viewmonth":"643","like":"28","likeday":"0","likeweek":"0","likemonth":"0","published":"2016-02-12","dmca":"1","url":"movie\/rui--yazawa-gobbles-a-man-meat-and-cum-sprayed-in-her-face.635.html"},{"id":"613","name":"Innocent girl Kanae Serizawa loves to play with a cock","image":"http:\/\/statics.javhihi.com\/images\/movies\/javhihi.com-innocent-girl-kanae-serizawa-loves-to-play-with-a-cock.jpg","image_small":"http:\/\/statics.javhihi.com\/images\/movies\/javhihi.com-innocent-girl-kanae-serizawa-loves-to-play-with-a-cock.small.jpg","categories":["blowjob","cumshot","footjob","handjob"],"tags":["cock-sucking","nice-teen","amateur","cum-in-mouth","hand-work","footjob"],"pornstars":["kanae-serizawa"],"duration":"9:47","quality":"3","year":"0","view":"9,966","viewday":"76","viewweek":"354","viewmonth":"354","like":"13","likeday":"0","likeweek":"0","likemonth":"0","published":"2016-02-09","dmca":"1","url":"movie\/innocent--girl-kanae-serizawa-loves-to-play-with-a-cock.613.html"},{"id":"610","name":"The sexy Kana Mimura gives a foot and handjob","image":"http:\/\/statics.javhihi.com\/images\/movies\/javhihi.com-the-sexy-kana-mimura-gives-a-foot-and-handjob.jpg","image_small":"http:\/\/statics.javhihi.com\/images\/movies\/javhihi.com-the-sexy-kana-mimura-gives-a-foot-and-handjob.small.jpg","categories":["blowjob","cumshot","footjob","handjob"],"tags":["cock-sucking","busty","nice-teen","cum-in-mouth","hand-work","footjob","cumshot"],"pornstars":["kana-mimura"],"duration":"17:04","quality":"3","year":"0","view":"10,505","viewday":"0","viewweek":"403","viewmonth":"403","like":"16","likeday":"0","likeweek":"1","likemonth":"1","published":"2016-02-08","dmca":"1","url":"movie\/the--sexy-kana-mimura-gives-a-foot-and-handjob.610.html"}],"total":153,"next_page_url":"movie\/handjob.html?sort=published&page=3","page":2,"total_page":7}