{"movies":[{"id":"953","name":"Akari Asagiri fucks with large vibrator a lot","image":"http:\/\/statics.javhihi.com\/images\/movies\/javhihi.com-akari-asagiri-fucks-with-large-vibrator-a-lot.jpg","image_small":"http:\/\/statics.javhihi.com\/images\/movies\/javhihi.com-akari-asagiri-fucks-with-large-vibrator-a-lot.small.jpg","categories":["big-tits","hardcore","masturbation","milf","toys"],"tags":["mom","busty","hot-milf","sex-toys","dildo","toy-insertion","solo-girl","vibrator","tits"],"pornstars":["akari-asagiri"],"duration":"9:29","quality":"3","year":"0","view":"25,949","viewday":"330","viewweek":"2099","viewmonth":"2098","like":"38","likeday":"0","likeweek":"3","likemonth":"3","published":"2016-04-01","dmca":"0","url":"movie\/akari-asagiri-fucks-with-large-vibrator-a-lot.953.html"},{"id":"952","name":"Kaoru Amamiya in doggy fuck sucks shlong","image":"http:\/\/statics.javhihi.com\/images\/movies\/javhihi.com-kaoru-amamiya-in-doggy-fuck-sucks-shlong.jpg","image_small":"http:\/\/statics.javhihi.com\/images\/movies\/javhihi.com-kaoru-amamiya-in-doggy-fuck-sucks-shlong.small.jpg","categories":["group-sex","hardcore","lingerie","masturbation","threesome"],"tags":["hot-milf","sexy-lingerie","sex-toys","vibrator","masturbation","group-action","mmf","hairy-pussy","kissing","doggy-style","hardcore-action","cock-sucking","dick-riding","cum-in-mouth","uniform"],"pornstars":["kaoru-amamiya"],"duration":"34:59","quality":"3","year":"0","view":"7,411","viewday":"61","viewweek":"309","viewmonth":"309","like":"8","likeday":"0","likeweek":"0","likemonth":"0","published":"2016-04-01","dmca":"0","url":"movie\/kaoru-amamiya-in-doggy-fuck-sucks-shlong.952.html"},{"id":"942","name":"Yuki Aida pleasing her shave clam with a vibrating rod","image":"http:\/\/statics.javhihi.com\/images\/movies\/javhihi.com-yuki-aida-pleasing-her-shave-clam-with-a-vibrating-rod.jpg","image_small":"http:\/\/statics.javhihi.com\/images\/movies\/javhihi.com-yuki-aida-pleasing-her-shave-clam-with-a-vibrating-rod.small.jpg","categories":["amateur","hairy-pussy","masturbation","toys"],"tags":["hairy-pussy","busty","nice-teen","pink-pussy","amateur","pussy-stimulation","masturbation","solo-girl","sex-toys","toy-insertion","pussy"],"pornstars":["yuki-aida"],"duration":"16:24","quality":"3","year":"0","view":"23,953","viewday":"186","viewweek":"1334","viewmonth":"1334","like":"30","likeday":"0","likeweek":"2","likemonth":"2","published":"2016-03-30","dmca":"0","url":"movie\/yuki-aida-pleasing-her-shave-clam-with-a-vibrating-rod.942.html"},{"id":"916","name":"Toy with specs is naughty and sucks cock","image":"http:\/\/statics.javhihi.com\/images\/movies\/javhihi.com-toy-with-specs-is-naughty-and-sucks-cock.jpg","image_small":"http:\/\/statics.javhihi.com\/images\/movies\/javhihi.com-toy-with-specs-is-naughty-and-sucks-cock.small.jpg","categories":["big-tits","blowjob","masturbation","mini-skirt","schoolgirl","tit-fuck"],"tags":["nice-teen","school-uniform","busty","masturbation","voyeur","upskirt","short-skirt","nice-ass","tattoo","fingering","pussy-stimulation","cock-sucking","glasses","tit-fuck","cum-on-tits","tits","uniform"],"pornstars":["toy"],"duration":"21:07","quality":"3","year":"0","view":"16,128","viewday":"146","viewweek":"988","viewmonth":"987","like":"12","likeday":"0","likeweek":"1","likemonth":"1","published":"2016-03-26","dmca":"0","url":"movie\/toy-with-specs-is-naughty-and-sucks-cock.916.html"},{"id":"908","name":"Yuri Hirayama pleasures pussy on and on","image":"http:\/\/statics.javhihi.com\/images\/movies\/javhihi.com-yuri-hirayama-pleasures-pussy-on-and-on.jpg","image_small":"http:\/\/statics.javhihi.com\/images\/movies\/javhihi.com-yuri-hirayama-pleasures-pussy-on-and-on.small.jpg","categories":["amateur","hairy-pussy","masturbation","toys"],"tags":["hairy-pussy","busty","sex-toys","toy-insertion","vibrator","amateur","pussy-stimulation","masturbation","solo-girl","pussy"],"pornstars":["yuri-hirayama"],"duration":"11:04","quality":"3","year":"0","view":"9,337","viewday":"3","viewweek":"581","viewmonth":"581","like":"8","likeday":"0","likeweek":"0","likemonth":"0","published":"2016-03-25","dmca":"0","url":"movie\/yuri-hirayama-pleasures-pussy-on-and-on.908.html"},{"id":"911","name":"Shizuku pleases her cooter with vibrator","image":"http:\/\/statics.javhihi.com\/images\/movies\/javhihi.com-shizuku-pleases-her-cooter-with-vibrator.jpg","image_small":"http:\/\/statics.javhihi.com\/images\/movies\/javhihi.com-shizuku-pleases-her-cooter-with-vibrator.small.jpg","categories":["amateur","masturbation","shaved-pussy"],"tags":["nice-teen","amateur","shaving","shaved-pussy","busty","sex-toys","masturbation","vibrator","pussy"],"pornstars":["shizuku"],"duration":"10:00","quality":"3","year":"0","view":"10,926","viewday":"70","viewweek":"480","viewmonth":"480","like":"18","likeday":"0","likeweek":"0","likemonth":"0","published":"2016-03-25","dmca":"0","url":"movie\/shizuku-pleases-her-cooter-with-vibrator.911.html"},{"id":"907","name":"Akane Ozora fondles big cans and love box","image":"http:\/\/statics.javhihi.com\/images\/movies\/javhihi.com-akane-ozora-fondles-big-cans-and-love-box.jpg","image_small":"http:\/\/statics.javhihi.com\/images\/movies\/javhihi.com-akane-ozora-fondles-big-cans-and-love-box.small.jpg","categories":["amateur","hairy-pussy","masturbation","stockings"],"tags":["hairy-pussy","sex-toys","toy-insertion","pink-pussy","amateur","pussy-stimulation","masturbation","solo-girl","pussy","uniform"],"pornstars":["akane-ozora"],"duration":"10:50","quality":"3","year":"0","view":"14,393","viewday":"3","viewweek":"795","viewmonth":"795","like":"13","likeday":"0","likeweek":"1","likemonth":"1","published":"2016-03-25","dmca":"0","url":"movie\/akane-ozora-fondles-big-cans-and-love-box.907.html"},{"id":"879","name":"Authentic Japanese Sweetheart Akina Hara Masturbates","image":"http:\/\/statics.javhihi.com\/images\/movies\/javhihi.com-authentic-japanese-sweetheart-akina-hara-masturbates.jpg","image_small":"http:\/\/statics.javhihi.com\/images\/movies\/javhihi.com-authentic-japanese-sweetheart-akina-hara-masturbates.small.jpg","categories":["amateur","hardcore","masturbation","milf","toys"],"tags":["mom","amateur","hot-milf","solo-girl","masturbation","sex-toys","vibrator"],"pornstars":["akina-hara"],"duration":"16:21","quality":"3","year":"0","view":"19,186","viewday":"144","viewweek":"981","viewmonth":"980","like":"24","likeday":"0","likeweek":"0","likemonth":"0","published":"2016-03-20","dmca":"0","url":"movie\/authentic-japanese-sweetheart-akina-hara-masturbates.879.html"},{"id":"873","name":"Japanese Babe Minako Uchida Uses Her Toy to get Off","image":"http:\/\/statics.javhihi.com\/images\/movies\/javhihi.com-japanese-babe-minako-uchida-uses-her-toy-to-get-off.jpg","image_small":"http:\/\/statics.javhihi.com\/images\/movies\/javhihi.com-japanese-babe-minako-uchida-uses-her-toy-to-get-off.small.jpg","categories":["hairy-pussy","hardcore","masturbation","milf","squirting"],"tags":["mom","hot-milf","busty","mini-bikini","masturbation","vibrator","solo-girl","hairy-pussy","squirting","pussy"],"pornstars":["minako-uchida"],"duration":"10:01","quality":"3","year":"0","view":"10,842","viewday":"0","viewweek":"550","viewmonth":"550","like":"12","likeday":"0","likeweek":"1","likemonth":"1","published":"2016-03-20","dmca":"0","url":"movie\/japanese-babe-minako-uchida-uses-her-toy-to-get-off.873.html"},{"id":"856","name":"Sexy toy fucking in the ourdoors by the hot Asuka Ishihara","image":"http:\/\/statics.javhihi.com\/images\/movies\/javhihi.com-sexy-toy-fucking-in-the-ourdoors-by-the-hot-asuka-ishihara.jpg","image_small":"http:\/\/statics.javhihi.com\/images\/movies\/javhihi.com-sexy-toy-fucking-in-the-ourdoors-by-the-hot-asuka-ishihara.small.jpg","categories":["amateur","masturbation","outdoor","toys"],"tags":["outdoor","nice-teen","pink-pussy","amateur","pussy-stimulation","masturbation","solo-girl","misc"],"pornstars":["asuka-ishihara"],"duration":"12:18","quality":"3","year":"0","view":"9,162","viewday":"74","viewweek":"491","viewmonth":"490","like":"6","likeday":"0","likeweek":"1","likemonth":"1","published":"2016-03-18","dmca":"0","url":"movie\/sexy-toy-fucking-in-the-ourdoors-by-the-hot-asuka-ishihara.856.html"},{"id":"826","name":"Aika Hoshino wild cat fucks with vibrator","image":"http:\/\/statics.javhihi.com\/images\/movies\/javhihi.com-aika-hoshino-wild-cat-fucks-with-vibrator.jpg","image_small":"http:\/\/statics.javhihi.com\/images\/movies\/javhihi.com-aika-hoshino-wild-cat-fucks-with-vibrator.small.jpg","categories":["anal","cosplay","lingerie","masturbation","toys"],"tags":["nice-teen","sexy-costume","pov","amateur","sexy-lingerie","shaved-pussy","pink-pussy","wet-pussy","sex-toys","dildo","dildo-riding","nice-ass","ass-insertion","vibrator","uniform"],"pornstars":["aika-hoshino"],"duration":"20:29","quality":"3","year":"0","view":"26,838","viewday":"282","viewweek":"1506","viewmonth":"1502","like":"24","likeday":"0","likeweek":"0","likemonth":"0","published":"2016-03-13","dmca":"0","url":"movie\/aika-hoshino-wild-cat-fucks-with-vibrator.826.html"},{"id":"817","name":"Japanese Pixie Kaoru Amamiya Sucks Cock and Takes a Shower","image":"http:\/\/statics.javhihi.com\/images\/movies\/javhihi.com-japanese-pixie-kaoru-amamiya-sucks-cock-and-takes-a-shower.jpg","image_small":"http:\/\/statics.javhihi.com\/images\/movies\/javhihi.com-japanese-pixie-kaoru-amamiya-sucks-cock-and-takes-a-shower.small.jpg","categories":["blowjob","handjob","hardcore","masturbation","mature"],"tags":["mom","amateur","hot-mature","nice-ass","soaping","masturbation","shower","cock-sucking","ball-licking","hand-work","sexy-lingerie","cum-in-mouth"],"pornstars":["kaoru-amamiya"],"duration":"19:06","quality":"3","year":"0","view":"11,289","viewday":"103","viewweek":"603","viewmonth":"601","like":"9","likeday":"1","likeweek":"1","likemonth":"1","published":"2016-03-12","dmca":"0","url":"movie\/japanese-pixie-kaoru-amamiya-sucks-cock-and-takes-a-shower.817.html"},{"id":"811","name":"Sayaka Fukuyama busty babe wants huge orgasm","image":"http:\/\/statics.javhihi.com\/images\/movies\/javhihi.com-sayaka-fukuyama-busty-babe-wants-huge-orgasm.jpg","image_small":"http:\/\/statics.javhihi.com\/images\/movies\/javhihi.com-sayaka-fukuyama-busty-babe-wants-huge-orgasm.small.jpg","categories":["big-tits","lingerie","masturbation","stockings","toys"],"tags":["nice-teen","sexy-lingerie","busty","black-stockings","masturbation","solo-girl","wet-pussy","sex-toys","vibrator","nice-ass","tits","uniform"],"pornstars":["sayaka-fukuyama"],"duration":"15:05","quality":"3","year":"0","view":"12,562","viewday":"120","viewweek":"710","viewmonth":"709","like":"11","likeday":"0","likeweek":"0","likemonth":"0","published":"2016-03-11","dmca":"0","url":"movie\/sayaka-fukuyama-busty-babe-wants-huge-orgasm.811.html"},{"id":"812","name":"Rika Kurogawa sticks vibrator in pussy","image":"http:\/\/statics.javhihi.com\/images\/movies\/javhihi.com-rika-kurogawa-sticks-vibrator-in-pussy.jpg","image_small":"http:\/\/statics.javhihi.com\/images\/movies\/javhihi.com-rika-kurogawa-sticks-vibrator-in-pussy.small.jpg","categories":["masturbation","shaved-pussy","teen","toys"],"tags":["nice-teen","busty","sexy-dress","masturbation","solo-girl","sex-toys","vibrator","wet-pussy","shaved-pussy","teen-pussy","pussy"],"pornstars":["rika-kurogawa"],"duration":"9:34","quality":"3","year":"0","view":"11,462","viewday":"98","viewweek":"513","viewmonth":"512","like":"11","likeday":"0","likeweek":"0","likemonth":"0","published":"2016-03-11","dmca":"0","url":"movie\/rika-kurogawa-sticks-vibrator-in-pussy.812.html"},{"id":"796","name":"Arisa Suzuhusa solo girl action with sex toys","image":"http:\/\/statics.javhihi.com\/images\/movies\/javhihi.com-arisa-suzuhusa-solo-girl-action-with-sex-toys.jpg","image_small":"http:\/\/statics.javhihi.com\/images\/movies\/javhihi.com-arisa-suzuhusa-solo-girl-action-with-sex-toys.small.jpg","categories":["amateur","hardcore","lingerie","masturbation","mature"],"tags":["mom","hot-mature","sexy-lingerie","amateur","masturbation","sex-toys","vibrator","solo-girl","uniform"],"pornstars":["arisa-suzuhusa"],"duration":"8:36","quality":"3","year":"0","view":"15,012","viewday":"120","viewweek":"729","viewmonth":"729","like":"16","likeday":"0","likeweek":"0","likemonth":"0","published":"2016-03-09","dmca":"0","url":"movie\/arisa-suzuhusa-solo-girl-action-with-sex-toys.796.html"},{"id":"795","name":"Aya horny doll sucks vibrator after use","image":"http:\/\/statics.javhihi.com\/images\/movies\/javhihi.com-aya-horny-doll-sucks-vibrator-after-use.jpg","image_small":"http:\/\/statics.javhihi.com\/images\/movies\/javhihi.com-aya-horny-doll-sucks-vibrator-after-use.small.jpg","categories":["hairy-pussy","hardcore","masturbation","milf","toys"],"tags":["mom","hot-milf","solo-girl","masturbation","sex-toys","dildo","vibrator","pussy"],"pornstars":["aya"],"duration":"8:35","quality":"3","year":"0","view":"9,233","viewday":"60","viewweek":"323","viewmonth":"323","like":"7","likeday":"0","likeweek":"0","likemonth":"0","published":"2016-03-08","dmca":"0","url":"movie\/aya-horny-doll-sucks-vibrator-after-use.795.html"},{"id":"792","name":"Reina Sakai solo girl pussy feeling close ups","image":"http:\/\/statics.javhihi.com\/images\/movies\/javhihi.com-reina-sakai-solo-girl-pussy-feeling-close-ups.jpg","image_small":"http:\/\/statics.javhihi.com\/images\/movies\/javhihi.com-reina-sakai-solo-girl-pussy-feeling-close-ups.small.jpg","categories":["amateur","hardcore","lingerie","masturbation","milf"],"tags":["mom","hot-milf","sexy-lingerie","masturbation","solo-girl","pink-pussy","sex-toys","vibrator","close-up","uniform"],"pornstars":["reina-sakai"],"duration":"12:26","quality":"3","year":"0","view":"18,435","viewday":"150","viewweek":"1068","viewmonth":"1067","like":"27","likeday":"0","likeweek":"1","likemonth":"1","published":"2016-03-08","dmca":"0","url":"movie\/reina-sakai-solo-girl-pussy-feeling-close-ups.792.html"},{"id":"785","name":"Redhead Asian babe make her hairy slit wet","image":"http:\/\/statics.javhihi.com\/images\/movies\/javhihi.com-redhead-asian-babe-make-her-hairy-slit-wet.jpg","image_small":"http:\/\/statics.javhihi.com\/images\/movies\/javhihi.com-redhead-asian-babe-make-her-hairy-slit-wet.small.jpg","categories":["amateur","masturbation","toys"],"tags":["nice-teen","solo-girl","masturbation","amateur","sex-toys","vibrator","nice-ass"],"pornstars":["sana-anzyu"],"duration":"10:36","quality":"3","year":"0","view":"23,727","viewday":"180","viewweek":"1169","viewmonth":"1168","like":"27","likeday":"0","likeweek":"0","likemonth":"0","published":"2016-03-07","dmca":"0","url":"movie\/redhead-asian-babe-make-her-hairy-slit-wet.785.html"},{"id":"782","name":"Naughty and cock-craving babe playing with her various sex toys and plugging it up her cunt","image":"http:\/\/statics.javhihi.com\/images\/movies\/javhihi.com-naughty-and-cock-craving-babe-playing-with-her-various-sex-toys-and-plugging-it-up-her-cunt.jpg","image_small":"http:\/\/statics.javhihi.com\/images\/movies\/javhihi.com-naughty-and-cock-craving-babe-playing-with-her-various-sex-toys-and-plugging-it-up-her-cunt.small.jpg","categories":["amateur","hardcore","masturbation","milf","toys"],"tags":["mom","amateur","hot-milf","housewife","masturbation","sex-toys","solo-girl","vibrator","dildo-riding"],"pornstars":["koda-riri"],"duration":"20:08","quality":"3","year":"0","view":"24,079","viewday":"185","viewweek":"919","viewmonth":"919","like":"24","likeday":"0","likeweek":"0","likemonth":"0","published":"2016-03-06","dmca":"0","url":"movie\/naughty-and-cock-craving-babe-playing-with-her-various-sex-toys-and-plugging-it-up-her-cunt.782.html"},{"id":"743","name":"Kyouko Maki rubs and fingers her hot box","image":"http:\/\/statics.javhihi.com\/images\/movies\/javhihi.com-kyouko-maki-rubs-and-fingers-her-hot-box.jpg","image_small":"http:\/\/statics.javhihi.com\/images\/movies\/javhihi.com-kyouko-maki-rubs-and-fingers-her-hot-box.small.jpg","categories":["amateur","big-tits","masturbation"],"tags":["nice-teen","amateur","solo-girl","bathroom","soaping","masturbation","busty","tits"],"pornstars":["kyouko-maki"],"duration":"8:31","quality":"3","year":"0","view":"14,300","viewday":"146","viewweek":"710","viewmonth":"710","like":"15","likeday":"0","likeweek":"0","likemonth":"0","published":"2016-02-29","dmca":"1","url":"movie\/kyouko--maki-rubs-and-fingers-her-hot-box.743.html"},{"id":"733","name":"Yurika Momo rubs her clitoris in bathroom","image":"http:\/\/statics.javhihi.com\/images\/movies\/javhihi.com-yurika-momo-rubs-her-clitoris-in-bathroom.jpg","image_small":"http:\/\/statics.javhihi.com\/images\/movies\/javhihi.com-yurika-momo-rubs-her-clitoris-in-bathroom.small.jpg","categories":["amateur","masturbation"],"tags":["amateur","nice-teen","masturbation","shower","busty","nice-ass"],"pornstars":["yurika-momo"],"duration":"10:12","quality":"3","year":"0","view":"7,788","viewday":"41","viewweek":"271","viewmonth":"271","like":"33","likeday":"1","likeweek":"1","likemonth":"1","published":"2016-02-27","dmca":"1","url":"movie\/yurika--momo-rubs-her-clitoris-in-bathroom.733.html"},{"id":"735","name":"Nozomi Hatsuki uses vibrator on her clit","image":"http:\/\/statics.javhihi.com\/images\/movies\/javhihi.com-nozomi-hatsuki-uses-vibrator-on-her-clit.jpg","image_small":"http:\/\/statics.javhihi.com\/images\/movies\/javhihi.com-nozomi-hatsuki-uses-vibrator-on-her-clit.small.jpg","categories":["amateur","masturbation","squirting","toys"],"tags":["nice-teen","masturbation","bath","sex-toys","vibrator","squirting","amateur"],"pornstars":["nozomi-hatsuki"],"duration":"15:31","quality":"3","year":"0","view":"14,882","viewday":"77","viewweek":"565","viewmonth":"565","like":"17","likeday":"0","likeweek":"0","likemonth":"0","published":"2016-02-27","dmca":"1","url":"movie\/nozomi--hatsuki-uses-vibrator-on-her-clit.735.html"},{"id":"725","name":"Busty Maria Ozawa Plays With Her Pussy In A Pool","image":"http:\/\/statics.javhihi.com\/images\/movies\/javhihi.com-busty-maria-ozawa-plays-with-her-pussy-in-a-pool.jpg","image_small":"http:\/\/statics.javhihi.com\/images\/movies\/javhihi.com-busty-maria-ozawa-plays-with-her-pussy-in-a-pool.small.jpg","categories":["amateur","masturbation"],"tags":["nice-teen","busty","amateur","solo-girl","masturbation"],"pornstars":["maria-ozawa"],"duration":"8:29","quality":"3","year":"0","view":"51,584","viewday":"622","viewweek":"3410","viewmonth":"3405","like":"91","likeday":"1","likeweek":"6","likemonth":"6","published":"2016-02-26","dmca":"1","url":"movie\/busty--maria-ozawa-plays-with-her-pussy-in-a-pool.725.html"},{"id":"718","name":"Haruna Katou has cunt aroused with shower","image":"http:\/\/statics.javhihi.com\/images\/movies\/javhihi.com-haruna-katou-has-cunt-aroused-with-shower.jpg","image_small":"http:\/\/statics.javhihi.com\/images\/movies\/javhihi.com-haruna-katou-has-cunt-aroused-with-shower.small.jpg","categories":["fingering","hairy-pussy","hardcore","masturbation","milf"],"tags":["mom","hot-milf","solo-girl","masturbation","soaping","close-up","transparent-lingerie","busty","pink-pussy","fingering","pussy"],"pornstars":["haruna-katou"],"duration":"12:10","quality":"3","year":"0","view":"10,328","viewday":"73","viewweek":"358","viewmonth":"358","like":"13","likeday":"0","likeweek":"0","likemonth":"0","published":"2016-02-25","dmca":"1","url":"movie\/haruna--katou-has-cunt-aroused-with-shower.718.html"}],"total":157,"next_page_url":"movie\/masturbation.html?sort=published&page=3","page":2,"total_page":7}