{"movies":[{"id":"680","name":"Long legged teenage babe fondled and tricked in a steamy fucking scene","image":"http:\/\/statics.javhihi.com\/images\/movies\/javhihi.com-long-legged-teenage-babe-fondled-and-tricked-in-a-steamy-fucking-scene.jpg","image_small":"http:\/\/statics.javhihi.com\/images\/movies\/javhihi.com-long-legged-teenage-babe-fondled-and-tricked-in-a-steamy-fucking-scene.small.jpg","categories":["creampie","group-sex","hardcore","lingerie","schoolgirl","teen","threesome"],"tags":["nice-teen","school-uniform","group-action","mmf","sexy-lingerie","tit-licking","hairy-pussy","pussy-licking","cock-sucking","vibrator","double-blowjob","hardcore-action","dick-riding","creamed-pussy","pussy-creampies","uniform"],"pornstars":["shiori-uta"],"duration":"37:44","quality":"3","year":"0","view":"43,327","viewday":"363","viewweek":"2240","viewmonth":"2239","like":"86","likeday":"1","likeweek":"5","likemonth":"5","published":"2016-02-19","dmca":"1","url":"movie\/long--legged-teenage-babe-fondled-and-tricked-in-a-steamy-fucking-scene.680.html"},{"id":"667","name":"Teen babe Reina in a hot cock sucking action","image":"http:\/\/statics.javhihi.com\/images\/movies\/javhihi.com-teen-babe-reina-in-a-hot-cock-sucking-action.jpg","image_small":"http:\/\/statics.javhihi.com\/images\/movies\/javhihi.com-teen-babe-reina-in-a-hot-cock-sucking-action.small.jpg","categories":["blowjob","creampie","hardcore","schoolgirl","teen"],"tags":["nice-teen","school-uniform","pink-pussy","cock-sucking","bath","hardcore-action","dick-riding","rear-fuck","creamed-pussy","pussy-creampies","uniform"],"pornstars":["nakoto-kurasaki"],"duration":"31:09","quality":"3","year":"0","view":"24,552","viewday":"188","viewweek":"854","viewmonth":"854","like":"50","likeday":"0","likeweek":"0","likemonth":"0","published":"2016-02-17","dmca":"1","url":"movie\/teen--babe-reina-in-a-hot-cock-sucking-action.667.html"},{"id":"668","name":"Rin Yazawa doggy style fuck and creamed pussy","image":"http:\/\/statics.javhihi.com\/images\/movies\/javhihi.com-rin-yazawa-doggy-style-fuck-and-creamed-pussy.jpg","image_small":"http:\/\/statics.javhihi.com\/images\/movies\/javhihi.com-rin-yazawa-doggy-style-fuck-and-creamed-pussy.small.jpg","categories":["hardcore","schoolgirl","teen","toys"],"tags":["nice-teen","school-uniform","pink-pussy","fingering","cock-sucking","sex-toys","vibrator","hardcore-action","cfnm","doggy-style","creamed-pussy","teen-pussy","pussy","uniform"],"pornstars":["reiko"],"duration":"29:17","quality":"3","year":"0","view":"12,360","viewday":"89","viewweek":"509","viewmonth":"508","like":"28","likeday":"0","likeweek":"0","likemonth":"0","published":"2016-02-17","dmca":"1","url":"movie\/rin--yazawa-doggy-style-fuck-and-creamed-pussy.668.html"},{"id":"653","name":"Busty JAV Super pornstar Yukina Mori Gets Cum in her Pussy","image":"http:\/\/statics.javhihi.com\/images\/movies\/javhihi.com-busty-jav-superstar-yukina-mori-gets-cum-in-her-pussy.jpg","image_small":"http:\/\/statics.javhihi.com\/images\/movies\/javhihi.com-busty-jav-superstar-yukina-mori-gets-cum-in-her-pussy.small.jpg","categories":["big-tits","creampie","hardcore","schoolgirl","teen","tit-fuck"],"tags":["nice-teen","school-uniform","busty","tit-squeezing","pink-pussy","fingering","sex-toys","vibrator","cock-sucking","tit-fuck","hardcore-action","doggy-style","creamed-pussy","pussy-creampies","tits","uniform"],"pornstars":["yukina-mori"],"duration":"37:05","quality":"3","year":"0","view":"258,122","viewday":"1389","viewweek":"8101","viewmonth":"8097","like":"475","likeday":"4","likeweek":"16","likemonth":"16","published":"2016-02-15","dmca":"0","url":"movie\/busty-jav-super-pornstar-yukina-mori-gets-cum-in-her-pussy.653.html"},{"id":"620","name":"Hot Nao Kojima in long socks fucks dildo","image":"http:\/\/statics.javhihi.com\/images\/movies\/javhihi.com-hot-nao-kojima-in-long-socks-fucks-dildo.jpg","image_small":"http:\/\/statics.javhihi.com\/images\/movies\/javhihi.com-hot-nao-kojima-in-long-socks-fucks-dildo.small.jpg","categories":["hairy-pussy","lingerie","schoolgirl","stockings","teen","toys"],"tags":["nice-teen","school-uniform","sexy-lingerie","black-stockings","high-heels","sex-toys","dildo-riding","dildo-sucking","solo-girl","teen-pussy","pussy","uniform"],"pornstars":["nao-kojima"],"duration":"11:49","quality":"3","year":"0","view":"36,603","viewday":"212","viewweek":"1460","viewmonth":"1459","like":"83","likeday":"0","likeweek":"2","likemonth":"2","published":"2016-02-10","dmca":"1","url":"movie\/hot--nao-kojima-in-long-socks-fucks-dildo.620.html"},{"id":"604","name":"Nao Kojima rubs cock with feet in nylon","image":"http:\/\/statics.javhihi.com\/images\/movies\/javhihi.com-nao-kojima-rubs-cock-with-feet-in-nylon.jpg","image_small":"http:\/\/statics.javhihi.com\/images\/movies\/javhihi.com-nao-kojima-rubs-cock-with-feet-in-nylon.small.jpg","categories":["cumshot","footjob","handjob","lingerie","schoolgirl","stockings"],"tags":["nice-teen","sexy-teacher","sexy-lingerie","black-stockings","hand-work","footjob","cum-on-body","teacher","uniform"],"pornstars":["nao-kojima"],"duration":"18:43","quality":"3","year":"0","view":"16,283","viewday":"111","viewweek":"755","viewmonth":"754","like":"29","likeday":"0","likeweek":"2","likemonth":"2","published":"2016-02-07","dmca":"1","url":"movie\/nao--kojima-rubs-cock-with-feet-in-nylon.604.html"},{"id":"594","name":"Horny teen porn star Riko Masaki into hot fucking action","image":"http:\/\/statics.javhihi.com\/images\/movies\/javhihi.com-horny-teen-porn-star-riko-masaki-into-hot-fucking-action.jpg","image_small":"http:\/\/statics.javhihi.com\/images\/movies\/javhihi.com-horny-teen-porn-star-riko-masaki-into-hot-fucking-action.small.jpg","categories":["big-tits","hardcore","pov","schoolgirl","teen","toys"],"tags":["nice-teen","school-uniform","amateur","busty","cock-sucking","nice-ass","cameltoe","sex-toys","vibrator","hardcore-action","dick-riding","doggy-style","creamed-pussy","masturbation","tits","uniform"],"pornstars":["riko-masaki"],"duration":"33:34","quality":"3","year":"0","view":"42,842","viewday":"323","viewweek":"1949","viewmonth":"1948","like":"74","likeday":"0","likeweek":"4","likemonth":"4","published":"2016-02-06","dmca":"1","url":"movie\/horny--teen-porn-star-riko-masaki-into-hot-fucking-action.594.html"},{"id":"585","name":"Hot babe Mizutama Remon in a kinky and hardcore sex","image":"http:\/\/statics.javhihi.com\/images\/movies\/javhihi.com-hot-babe-mizutama-remon-in-a-kinky-and-hardcore-sex.jpg","image_small":"http:\/\/statics.javhihi.com\/images\/movies\/javhihi.com-hot-babe-mizutama-remon-in-a-kinky-and-hardcore-sex.small.jpg","categories":["blowjob","cumshot","handjob","pov","schoolgirl","stockings"],"tags":["nice-teen","school-uniform","black-stockings","hand-work","pov","cock-sucking","cum-in-mouth","uniform"],"pornstars":["mizutama-remon"],"duration":"18:27","quality":"3","year":"0","view":"27,501","viewday":"253","viewweek":"1068","viewmonth":"1066","like":"36","likeday":"0","likeweek":"1","likemonth":"1","published":"2016-02-04","dmca":"1","url":"movie\/hot--babe-mizutama-remon-in-a-kinky-and-hardcore-sex.585.html"},{"id":"586","name":"Cock-starved schoolgirl Ayaka Mizuhara in fingering session","image":"http:\/\/statics.javhihi.com\/images\/movies\/javhihi.com-cock-starved-schoolgirl-ayaka-mizuhara-in-fingering-session.jpg","image_small":"http:\/\/statics.javhihi.com\/images\/movies\/javhihi.com-cock-starved-schoolgirl-ayaka-mizuhara-in-fingering-session.small.jpg","categories":["amateur","hairy-pussy","schoolgirl","toys"],"tags":["hairy-pussy","sex-toys","nice-teen","vibrator","toy-insertion","amateur","pussy-stimulation","masturbation","solo-girl","school-uniform","pussy","uniform"],"pornstars":["ayaka-mizuhara"],"duration":"9:58","quality":"3","year":"0","view":"25,247","viewday":"161","viewweek":"895","viewmonth":"893","like":"47","likeday":"0","likeweek":"0","likemonth":"0","published":"2016-02-04","dmca":"1","url":"movie\/cock--starved-schoolgirl-ayaka-mizuhara-in-fingering-session.586.html"},{"id":"582","name":"Yuki Morina with big tits fucked in school clothes","image":"http:\/\/statics.javhihi.com\/images\/movies\/javhihi.com-yuki-morina-with-big-tits-fucked-in-school-clothes.jpg","image_small":"http:\/\/statics.javhihi.com\/images\/movies\/javhihi.com-yuki-morina-with-big-tits-fucked-in-school-clothes.small.jpg","categories":["big-tits","blowjob","cumshot","schoolgirl","tit-fuck"],"tags":["nice-teen","school-uniform","busty","tit-squeezing","nipple-pinching","pink-pussy","fingering","sex-toys","vibrator","cock-sucking","tit-fuck","cum-on-tits","amateur","tits","uniform"],"pornstars":["yukina-mori"],"duration":"39:23","quality":"1","year":"0","view":"49,746","viewday":"338","viewweek":"2020","viewmonth":"2018","like":"113","likeday":"0","likeweek":"5","likemonth":"5","published":"2016-02-04","dmca":"1","url":"movie\/yuki--morina-with-big-tits-fucked-in-school-clothes.582.html"},{"id":"542","name":"Miyuki in a serious cock blowing and humping","image":"http:\/\/statics.javhihi.com\/images\/movies\/javhihi.com-miyuki-in-a-serious-cock-blowing-and-humping.jpg","image_small":"http:\/\/statics.javhihi.com\/images\/movies\/javhihi.com-miyuki-in-a-serious-cock-blowing-and-humping.small.jpg","categories":["blowjob","creampie","hardcore","schoolgirl","teen"],"tags":["nice-teen","school-uniform","cock-sucking","hardcore-action","nice-ass","doggy-style","vibrator","dick-riding","creamed-pussy","pussy-creampies","uniform"],"pornstars":["miyuki"],"duration":"19:44","quality":"3","year":"0","view":"21,874","viewday":"115","viewweek":"617","viewmonth":"616","like":"44","likeday":"0","likeweek":"1","likemonth":"1","published":"2016-01-28","dmca":"1","url":"movie\/miyuki--in-a-serious-cock-blowing-and-humping.542.html"},{"id":"511","name":"Riko Masaki in uniform is deeply fucked","image":"http:\/\/statics.javhihi.com\/images\/movies\/javhihi.com-riko-masaki-in-uniform-is-deeply-fucked.jpg","image_small":"http:\/\/statics.javhihi.com\/images\/movies\/javhihi.com-riko-masaki-in-uniform-is-deeply-fucked.small.jpg","categories":["big-tits","blowjob","hardcore","schoolgirl","teen","tit-fuck"],"tags":["nice-teen","school-uniform","busty","fingering","cock-sucking","hardcore-action","cfnm","doggy-style","dick-riding","creamed-pussy","shower","tit-fuck","amateur","tits","uniform"],"pornstars":["riko-masaki"],"duration":"35:46","quality":"3","year":"0","view":"60,124","viewday":"449","viewweek":"2780","viewmonth":"2779","like":"111","likeday":"1","likeweek":"4","likemonth":"4","published":"2016-01-24","dmca":"0","url":"movie\/riko-masaki-in-uniform-is-deeply-fucked.511.html"},{"id":"478","name":"Ai Okada hardcore action with creamed pussy","image":"http:\/\/statics.javhihi.com\/images\/movies\/javhihi.com-ai-okada-hardcore-action-with-creamed-pussy.jpg","image_small":"http:\/\/statics.javhihi.com\/images\/movies\/javhihi.com-ai-okada-hardcore-action-with-creamed-pussy.small.jpg","categories":["blowjob","hardcore","schoolgirl","teen","toys"],"tags":["nice-teen","school-uniform","cock-sucking","ball-licking","fingering","sex-toys","hardcore-action","vibrator","doggy-style","creamed-pussy","shower","uniform"],"pornstars":["ai-okada"],"duration":"27:54","quality":"3","year":"0","view":"20,308","viewday":"78","viewweek":"414","viewmonth":"413","like":"55","likeday":"0","likeweek":"0","likemonth":"0","published":"2016-01-18","dmca":"1","url":"movie\/ai--okada-hardcore-action-with-creamed-pussy.478.html"},{"id":"448","name":"Nozomi Kahara hardcore action and creamed pussy","image":"http:\/\/statics.javhihi.com\/images\/movies\/javhihi.com-nozomi-kahara-hardcore-action-and-creamed-pussy.jpg","image_small":"http:\/\/statics.javhihi.com\/images\/movies\/javhihi.com-nozomi-kahara-hardcore-action-and-creamed-pussy.small.jpg","categories":["blowjob","creampie","hardcore","schoolgirl","teen"],"tags":["nice-teen","pink-pussy","sex-toys","vibrator","nice-ass","cock-sucking","shower","wet-body","dick-riding","hardcore-action","doggy-style","creamed-pussy","pussy-creampies","uniform"],"pornstars":["nozomi-kahara"],"duration":"30:53","quality":"3","year":"0","view":"28,342","viewday":"129","viewweek":"761","viewmonth":"760","like":"33","likeday":"0","likeweek":"1","likemonth":"1","published":"2016-01-14","dmca":"1","url":"movie\/nozomi--kahara-hardcore-action-and-creamed-pussy.448.html"},{"id":"417","name":"Asuka hardcore into kinky doggy style sex","image":"http:\/\/statics.javhihi.com\/images\/movies\/javhihi.com-asuka-hardcore-into-kinky-doggy-style-sex.jpg","image_small":"http:\/\/statics.javhihi.com\/images\/movies\/javhihi.com-asuka-hardcore-into-kinky-doggy-style-sex.small.jpg","categories":["big-tits","fingering","hairy-pussy","schoolgirl","tit-fuck"],"tags":["nice-teen","school-uniform","busty","hairy-pussy","nipple-pinching","amateur","pov","cock-sucking","tit-fuck","fingering","hardcore-action","doggy-style","dick-riding","creamed-pussy","pussy","tits","uniform"],"pornstars":["asuka"],"duration":"44:46","quality":"3","year":"0","view":"71,127","viewday":"0","viewweek":"2486","viewmonth":"2486","like":"83","likeday":"0","likeweek":"2","likemonth":"2","published":"2016-01-09","dmca":"1","url":"movie\/asuka--hardcore-into-kinky-doggy-style-sex.417.html"},{"id":"394","name":"Naughty school girl firm tits and wet pussy fondled","image":"http:\/\/statics.javhihi.com\/images\/movies\/javhihi.com-naughty-school-girl-firm-tits-and-wet-pussy-fondled.jpg","image_small":"http:\/\/statics.javhihi.com\/images\/movies\/javhihi.com-naughty-school-girl-firm-tits-and-wet-pussy-fondled.small.jpg","categories":["creampie","fingering","hardcore","schoolgirl","teen"],"tags":["nice-teen","school-uniform","pink-pussy","gaping-hole","fingering","sex-toys","vibrator","cock-sucking","hardcore-action","doggy-style","nice-ass","creamed-pussy","pussy-creampies","uniform"],"pornstars":["ai-1"],"duration":"34:06","quality":"3","year":"0","view":"49,469","viewday":"300","viewweek":"1729","viewmonth":"1728","like":"72","likeday":"6","likeweek":"9","likemonth":"9","published":"2016-01-05","dmca":"1","url":"movie\/naughty--school-girl-firm-tits-and-wet-pussy-fondled.394.html"},{"id":"389","name":"Chika Ishihara on a leash headfucked with deep throat","image":"http:\/\/statics.javhihi.com\/images\/movies\/javhihi.com-chika-ishihara-on-a-leash-headfucked-with-deep-throat.jpg","image_small":"http:\/\/statics.javhihi.com\/images\/movies\/javhihi.com-chika-ishihara-on-a-leash-headfucked-with-deep-throat.small.jpg","categories":["blowjob","bondage","cumshot","schoolgirl"],"tags":["nice-teen","school-uniform","collar","cock-sucking","deep-throat","ball-licking","cum-in-mouth","uniform"],"pornstars":["chika-ishihara"],"duration":"11:51","quality":"3","year":"0","view":"30,182","viewday":"96","viewweek":"555","viewmonth":"554","like":"61","likeday":"0","likeweek":"0","likemonth":"0","published":"2016-01-04","dmca":"1","url":"movie\/chika--ishihara-on-a-leash-headfucked-with-deep-throat.389.html"},{"id":"318","name":"Shizuku Morino gets a very nice creamed pussy","image":"http:\/\/statics.javhihi.com\/images\/movies\/javhihi.com-shizuku-morino-gets-a-very-nice-creamed-pussy.jpg","image_small":"http:\/\/statics.javhihi.com\/images\/movies\/javhihi.com-shizuku-morino-gets-a-very-nice-creamed-pussy.small.jpg","categories":["big-tits","hardcore","schoolgirl","teen","tit-fuck"],"tags":["nice-teen","school-uniform","busty","tit-squeezing","pink-pussy","fingering","cock-sucking","ball-licking","vibrator","sex-toys","tit-fuck","hardcore-action","dick-riding","doggy-style","creamed-pussy","teen-pussy","pussy","tits","uniform"],"pornstars":["shizuku-morino"],"duration":"57:10","quality":"3","year":"0","view":"185,958","viewday":"858","viewweek":"5254","viewmonth":"5247","like":"307","likeday":"0","likeweek":"4","likemonth":"4","published":"2015-12-24","dmca":"1","url":"movie\/shizuku--morino-gets-a-very-nice-creamed-pussy.318.html"},{"id":"302","name":"Pretty Yukari teenage school girl stripping off and masturbating","image":"http:\/\/statics.javhihi.com\/images\/movies\/javhihi.com-pretty-yukari-teenage-school-girl-stripping-off-and-masturbating.jpg","image_small":"http:\/\/statics.javhihi.com\/images\/movies\/javhihi.com-pretty-yukari-teenage-school-girl-stripping-off-and-masturbating.small.jpg","categories":["big-tits","blowjob","schoolgirl","toys"],"tags":["nice-teen","school-uniform","busty","pink-pussy","sex-toys","vibrator","bath","shower","wet-body","cock-sucking","tits","uniform"],"pornstars":["yukari"],"duration":"30:23","quality":"3","year":"0","view":"14,253","viewday":"103","viewweek":"584","viewmonth":"583","like":"27","likeday":"0","likeweek":"2","likemonth":"2","published":"2015-12-21","dmca":"1","url":"movie\/pretty--yukari-teenage-school-girl-stripping-off-and-masturbating.302.html"},{"id":"289","name":"Teenage Asian babes pink and hairy cunt licked and drilled deep","image":"http:\/\/statics.javhihi.com\/images\/movies\/javhihi.com-teenage-asian-babes-pink-and-hairy-cunt-licked-and-drilled-deep.jpg","image_small":"http:\/\/statics.javhihi.com\/images\/movies\/javhihi.com-teenage-asian-babes-pink-and-hairy-cunt-licked-and-drilled-deep.small.jpg","categories":["hairy-pussy","hardcore","schoolgirl"],"tags":["cock-sucking","hardcore-action","hairy-pussy","fingering","doggy-style","pink-pussy","school-uniform","pussy","uniform","lick","pussy-lick"],"pornstars":["yui-misaki"],"duration":"25:43","quality":"3","year":"0","view":"20,710","viewday":"94","viewweek":"515","viewmonth":"515","like":"22","likeday":"0","likeweek":"1","likemonth":"1","published":"2015-12-19","dmca":"1","url":"movie\/teenage--asian-babes-pink-and-hairy-cunt-licked-and-drilled-deep.289.html"},{"id":"259","name":"Aisaki Kotone, two dicks, face sitting and lots of sucking","image":"http:\/\/statics.javhihi.com\/images\/movies\/javhihi.com-aisaki-kotone-two-dicks-face-sitting-and-lots-of-sucking.jpg","image_small":"http:\/\/statics.javhihi.com\/images\/movies\/javhihi.com-aisaki-kotone-two-dicks-face-sitting-and-lots-of-sucking.small.jpg","categories":["group-sex","handjob","pov","schoolgirl","threesome"],"tags":["nice-teen","school-uniform","ball-licking","cock-sucking","group-action","mmf","pussy-licking","facesitting","hand-work","cumshot","uniform","lick","pussy-lick"],"pornstars":["kotone-aisaki"],"duration":"10:12","quality":"3","year":"0","view":"44,556","viewday":"221","viewweek":"1240","viewmonth":"1237","like":"86","likeday":"2","likeweek":"2","likemonth":"2","published":"2015-12-14","dmca":"1","url":"movie\/aisaki--kotone-two-dicks-face-sitting-and-lots-of-sucking.259.html"},{"id":"249","name":"Inexperienced Yuu Mahiru gets a lesson at sex toy play","image":"http:\/\/statics.javhihi.com\/images\/movies\/javhihi.com-inexperienced-yuu-mahiru-gets-a-lesson-at-sex-toy-play.jpg","image_small":"http:\/\/statics.javhihi.com\/images\/movies\/javhihi.com-inexperienced-yuu-mahiru-gets-a-lesson-at-sex-toy-play.small.jpg","categories":["blowjob","cumshot","schoolgirl","toys"],"tags":["nice-teen","school-uniform","upskirt","cock-sucking","masturbation","cum-in-mouth","small-tits","dildo-sucking","toy-insertion","ass-insertion","uniform"],"pornstars":["yuu-mahiru"],"duration":"27:50","quality":"3","year":"0","view":"26,671","viewday":"118","viewweek":"635","viewmonth":"634","like":"33","likeday":"0","likeweek":"0","likemonth":"0","published":"2015-12-12","dmca":"1","url":"movie\/inexperienced--yuu-mahiru-gets-a-lesson-at-sex-toy-play.249.html"},{"id":"239","name":"Innocent schoolgirl Rino Mizusawa faces three horny cocks","image":"http:\/\/statics.javhihi.com\/images\/movies\/javhihi.com-innocent-schoolgirl-rino-mizusawa-faces-three-horny-cocks.jpg","image_small":"http:\/\/statics.javhihi.com\/images\/movies\/javhihi.com-innocent-schoolgirl-rino-mizusawa-faces-three-horny-cocks.small.jpg","categories":["blowjob","cumshot","facial","group-sex","mini-skirt","schoolgirl"],"tags":["school-uniform","group-action","mmmf","cock-sucking","hand-work","glasses","cum-on-face","cum-in-mouth","foursome","uniform"],"pornstars":["rino-mizusawa"],"duration":"14:19","quality":"3","year":"0","view":"20,331","viewday":"3","viewweek":"742","viewmonth":"741","like":"34","likeday":"0","likeweek":"3","likemonth":"3","published":"2015-12-10","dmca":"1","url":"movie\/innocent--schoolgirl-rino-mizusawa-faces-three-horny-cocks.239.html"},{"id":"197","name":"Hana Japanese is fucked with fingers","image":"http:\/\/statics.javhihi.com\/images\/movies\/javhihi.com-hana-japanese-is-fucked-with-fingers.jpg","image_small":"http:\/\/statics.javhihi.com\/images\/movies\/javhihi.com-hana-japanese-is-fucked-with-fingers.small.jpg","categories":["schoolgirl","shaved-pussy","squirting","stockings","teen","toys"],"tags":["squirting","black-stockings","nice-ass","pink-pussy","fingering","ass-insertion","sex-toys","dildo","anal-penetration","close-up","pussy-licking","teen-pussy","pussy","uniform"],"pornstars":["hana"],"duration":"21:27","quality":"3","year":"0","view":"32,554","viewday":"134","viewweek":"840","viewmonth":"840","like":"29","likeday":"0","likeweek":"0","likemonth":"0","published":"2015-12-03","dmca":"0","url":"movie\/hana-japanese-is-fucked-with-fingers.197.html"}],"total":83,"next_page_url":"movie\/schoolgirl.html?sort=published&page=3","page":2,"total_page":4}