{"movies":[{"id":"459","name":"She enjoys a good pussy teasing: Yuu Uehara fingered and vibed","image":"http:\/\/statics.javhihi.com\/images\/movies\/javhihi.com-she-enjoys-a-good-pussy-teasing-yuu-uehara-fingered-and-vibed.jpg","image_small":"http:\/\/statics.javhihi.com\/images\/movies\/javhihi.com-she-enjoys-a-good-pussy-teasing-yuu-uehara-fingered-and-vibed.small.jpg","categories":["fingering","hairy-pussy","squirting","toys"],"tags":["hairy-pussy","fingering","busty","pussy-licking","nice-teen","pink-pussy","squirting","kissing","sex-toys","toy-insertion","pussy"],"pornstars":["yuu-uehara"],"duration":"11:43","quality":"3","year":"0","view":"15,381","viewday":"0","viewweek":"706","viewmonth":"706","like":"23","likeday":"0","likeweek":"0","likemonth":"0","published":"2016-01-16","dmca":"1","url":"movie\/she--enjoys-a-good-pussy-teasing-yuu-uehara-fingered-and-vibed.459.html"},{"id":"455","name":"Dildo loving skinny Asian chick Yui Misaki tits and pussy fondled","image":"http:\/\/statics.javhihi.com\/images\/movies\/javhihi.com-dildo-loving-skinny-asian-chick-yui-misaki-tits-and-pussy-fondled.jpg","image_small":"http:\/\/statics.javhihi.com\/images\/movies\/javhihi.com-dildo-loving-skinny-asian-chick-yui-misaki-tits-and-pussy-fondled.small.jpg","categories":["fingering","hairy-pussy","squirting","toys"],"tags":["hairy-pussy","fingering","sex-toys","vibrator","toy-insertion","pink-pussy","squirting","pussy-stimulation","pov","pussy"],"pornstars":["yui-misaki"],"duration":"19:32","quality":"3","year":"0","view":"14,181","viewday":"83","viewweek":"471","viewmonth":"471","like":"9","likeday":"1","likeweek":"1","likemonth":"1","published":"2016-01-15","dmca":"1","url":"movie\/dildo--loving-skinny-asian-chick-yui-misaki-tits-and-pussy-fondled.455.html"},{"id":"452","name":"Mizuki Ogawa took care of her boyfriends stiff cock","image":"http:\/\/statics.javhihi.com\/images\/movies\/javhihi.com-mizuki-ogawa-took-care-of-her-boyfriends-stiff-cock.jpg","image_small":"http:\/\/statics.javhihi.com\/images\/movies\/javhihi.com-mizuki-ogawa-took-care-of-her-boyfriends-stiff-cock.small.jpg","categories":["blowjob","group-sex","squirting","stockings","threesome"],"tags":["cock-sucking","hardcore-action","hairy-pussy","fingering","squirting","doggy-style","group-action","pussy-licking","black-stockings","double-blowjob","uniform"],"pornstars":["mizuki-ogawa"],"duration":"49:48","quality":"3","year":"0","view":"20,585","viewday":"0","viewweek":"784","viewmonth":"783","like":"24","likeday":"0","likeweek":"0","likemonth":"0","published":"2016-01-15","dmca":"1","url":"movie\/mizuki--ogawa-took-care-of-her-boyfriends-stiff-cock.452.html"},{"id":"445","name":"Ai Yuumi gets vibrators in ass and cunt","image":"http:\/\/statics.javhihi.com\/images\/movies\/javhihi.com-ai-yuumi-gets-vibrators-in-ass-and-cunt.jpg","image_small":"http:\/\/statics.javhihi.com\/images\/movies\/javhihi.com-ai-yuumi-gets-vibrators-in-ass-and-cunt.small.jpg","categories":["fingering","hairy-pussy","lingerie","squirting","stockings"],"tags":["hairy-pussy","sex-toys","toy-insertion","pink-pussy","squirting","vibrator","masturbation","pussy-stimulation","close-up","sexy-stockings","fingering","pussy","uniform"],"pornstars":["ai-yuumi"],"duration":"14:56","quality":"3","year":"0","view":"6,058","viewday":"0","viewweek":"308","viewmonth":"308","like":"8","likeday":"0","likeweek":"0","likemonth":"0","published":"2016-01-14","dmca":"0","url":"movie\/ai-yuumi-gets-vibrators-in-ass-and-cunt.445.html"},{"id":"441","name":"Tiara Ayase is fingered under vibrator","image":"http:\/\/statics.javhihi.com\/images\/movies\/javhihi.com-tiara-ayase-is-fingered-under-vibrator.jpg","image_small":"http:\/\/statics.javhihi.com\/images\/movies\/javhihi.com-tiara-ayase-is-fingered-under-vibrator.small.jpg","categories":["fingering","lingerie","squirting","stockings","toys"],"tags":["sexy-stockings","sexy-lingerie","fingering","squirting","red-lingerie","sex-toys","toy-insertion","vibrator","hot-milf","uniform"],"pornstars":["tiara-ayase"],"duration":"8:41","quality":"3","year":"0","view":"6,995","viewday":"0","viewweek":"404","viewmonth":"404","like":"9","likeday":"0","likeweek":"0","likemonth":"0","published":"2016-01-13","dmca":"0","url":"movie\/tiara-ayase-is-fingered-under-vibrator.441.html"},{"id":"439","name":"Ai Yuumis tight and wet pussy toy fucked and cock-filled","image":"http:\/\/statics.javhihi.com\/images\/movies\/javhihi.com-ai-yuumis-tight-and-wet-pussy-toy-fucked-and-cock-filled.jpg","image_small":"http:\/\/statics.javhihi.com\/images\/movies\/javhihi.com-ai-yuumis-tight-and-wet-pussy-toy-fucked-and-cock-filled.small.jpg","categories":["group-sex","hardcore","squirting","threesome","toys"],"tags":["cock-sucking","hot-milf","hardcore-action","hairy-pussy","fingering","squirting","sex-toys","doggy-style","group-action","toy-insertion","mmf"],"pornstars":["ai-yuumi"],"duration":"33:50","quality":"3","year":"0","view":"10,554","viewday":"0","viewweek":"448","viewmonth":"448","like":"14","likeday":"0","likeweek":"0","likemonth":"0","published":"2016-01-13","dmca":"1","url":"movie\/ai--yuumis-tight-and-wet-pussy-toy-fucked-and-cock-filled.439.html"},{"id":"435","name":"Babe in bikini Mari Sasaki tied up, gagged and fingered hard","image":"http:\/\/statics.javhihi.com\/images\/movies\/javhihi.com-babe-in-bikini-mari-sasaki-tied-up-gagged-and-fingered-hard.jpg","image_small":"http:\/\/statics.javhihi.com\/images\/movies\/javhihi.com-babe-in-bikini-mari-sasaki-tied-up-gagged-and-fingered-hard.small.jpg","categories":["bikini","fingering","hairy-pussy","squirting"],"tags":["hairy-pussy","fingering","nice-teen","nice-ass","pink-pussy","squirting","sexy-lingerie","mini-bikini","small-tits","pussy","uniform"],"pornstars":["mari-sasaki"],"duration":"13:31","quality":"3","year":"0","view":"10,512","viewday":"67","viewweek":"311","viewmonth":"311","like":"13","likeday":"0","likeweek":"0","likemonth":"0","published":"2016-01-12","dmca":"1","url":"movie\/babe--in-bikini-mari-sasaki-tied-up-gagged-and-fingered-hard.435.html"},{"id":"427","name":"Teen Moe Yoshikawa teases her clit with a big vibrator","image":"http:\/\/statics.javhihi.com\/images\/movies\/javhihi.com-teen-moe-yoshikawa-teases-her-clit-with-a-big-vibrator.jpg","image_small":"http:\/\/statics.javhihi.com\/images\/movies\/javhihi.com-teen-moe-yoshikawa-teases-her-clit-with-a-big-vibrator.small.jpg","categories":["amateur","squirting","toys"],"tags":["sex-toys","nice-teen","vibrator","toy-insertion","pink-pussy","amateur","masturbation","pussy-stimulation","solo-girl","sexy-lingerie"],"pornstars":["moe-yoshikawa"],"duration":"10:28","quality":"3","year":"0","view":"29,481","viewday":"121","viewweek":"701","viewmonth":"701","like":"29","likeday":"0","likeweek":"0","likemonth":"0","published":"2016-01-11","dmca":"1","url":"movie\/teen--moe-yoshikawa-teases-her-clit-with-a-big-vibrator.427.html"},{"id":"424","name":"Pink bikini earns a fingering session for sexy Moe Yoshikawa","image":"http:\/\/statics.javhihi.com\/images\/movies\/javhihi.com-pink-bikini-earns-a-fingering-session-for-sexy-moe-yoshikawa.jpg","image_small":"http:\/\/statics.javhihi.com\/images\/movies\/javhihi.com-pink-bikini-earns-a-fingering-session-for-sexy-moe-yoshikawa.small.jpg","categories":["fingering","hairy-pussy","squirting"],"tags":["cameltoe","sexy-lingerie","tit-licking","hairy-pussy","fingering","busty","pussy-licking","nice-teen","pink-pussy","squirting","pussy","lick","pussy-lick"],"pornstars":["moe-yoshikawa"],"duration":"8:27","quality":"3","year":"0","view":"68,279","viewday":"112","viewweek":"603","viewmonth":"603","like":"39","likeday":"0","likeweek":"0","likemonth":"0","published":"2016-01-10","dmca":"1","url":"movie\/pink--bikini-earns-a-fingering-session-for-sexy-moe-yoshikawa.424.html"},{"id":"421","name":"Tiara Avase Has a Hot Threesome with two Random Guys","image":"http:\/\/statics.javhihi.com\/images\/movies\/javhihi.com-tiara-avase-has-a-hot-threesome-with-two-random-guys.jpg","image_small":"http:\/\/statics.javhihi.com\/images\/movies\/javhihi.com-tiara-avase-has-a-hot-threesome-with-two-random-guys.small.jpg","categories":["creampie","group-sex","hardcore","squirting","threesome"],"tags":["cock-sucking","hot-milf","squirting","hardcore-action","doggy-style","pussy-licking","dick-riding","group-action","mmf","double-blowjob","creamed-pussy","massive-creampie","pussy-creampies"],"pornstars":["tiara-ayase"],"duration":"35:25","quality":"3","year":"0","view":"36,156","viewday":"320","viewweek":"1101","viewmonth":"1101","like":"20","likeday":"0","likeweek":"2","likemonth":"2","published":"2016-01-10","dmca":"1","url":"movie\/tiara--avase-has-a-hot-threesome-with-two-random-guys.421.html"},{"id":"416","name":"Nagisa Aiba is fucked and screams a lot","image":"http:\/\/statics.javhihi.com\/images\/movies\/javhihi.com-nagisa-aiba-is-fucked-and-screams-a-lot.jpg","image_small":"http:\/\/statics.javhihi.com\/images\/movies\/javhihi.com-nagisa-aiba-is-fucked-and-screams-a-lot.small.jpg","categories":["blowjob","hairy-pussy","hardcore","squirting"],"tags":["cock-sucking","hot-milf","squirting","hardcore-action","hairy-pussy","fingering","doggy-style","creamed-pussy","bedroom","pussy-licking","pussy"],"pornstars":["nagisa-aiba"],"duration":"30:21","quality":"3","year":"0","view":"36,452","viewday":"81","viewweek":"444","viewmonth":"444","like":"15","likeday":"0","likeweek":"0","likemonth":"0","published":"2016-01-09","dmca":"1","url":"movie\/nagisa--aiba-is-fucked-and-screams-a-lot.416.html"},{"id":"418","name":"A Lucky Guy gets to Finger Fuck two Japanese Girls","image":"http:\/\/statics.javhihi.com\/images\/movies\/javhihi.com-a-lucky-guy-gets-to-finger-fuck-two-japanese-girls.jpg","image_small":"http:\/\/statics.javhihi.com\/images\/movies\/javhihi.com-a-lucky-guy-gets-to-finger-fuck-two-japanese-girls.small.jpg","categories":["fingering","hairy-pussy","lingerie","squirting"],"tags":["hot-milf","hairy-pussy","fingering","doggy-style","squirting","nice-ass","sexy-lingerie","pussy","uniform"],"pornstars":["sakura-kiryu","akari-kimishima"],"duration":"16:59","quality":"3","year":"0","view":"53,619","viewday":"162","viewweek":"857","viewmonth":"857","like":"53","likeday":"0","likeweek":"1","likemonth":"1","published":"2016-01-09","dmca":"1","url":"movie\/a--lucky-guy-gets-to-finger-fuck-two-japanese-girls.418.html"},{"id":"419","name":"Sweet teen Nagisa Aiba with her legs opened wide takes some toy fun","image":"http:\/\/statics.javhihi.com\/images\/movies\/javhihi.com-sweet-teen-nagisa-aiba-with-her-legs-opened-wide-takes-some-toy-fun.jpg","image_small":"http:\/\/statics.javhihi.com\/images\/movies\/javhihi.com-sweet-teen-nagisa-aiba-with-her-legs-opened-wide-takes-some-toy-fun.small.jpg","categories":["hairy-pussy","lingerie","squirting","toys"],"tags":["hairy-pussy","fingering","sex-toys","nice-teen","toy-insertion","pink-pussy","squirting","sexy-lingerie","vibrator","pussy","uniform"],"pornstars":["nagisa-aiba"],"duration":"13:55","quality":"3","year":"0","view":"14,750","viewday":"0","viewweek":"238","viewmonth":"238","like":"10","likeday":"0","likeweek":"0","likemonth":"0","published":"2016-01-09","dmca":"1","url":"movie\/sweet--teen-nagisa-aiba-with-her-legs-opened-wide-takes-some-toy-fun.419.html"},{"id":"410","name":"Bathroom fucking with Kurachi Rika leaved her pussy creampied","image":"http:\/\/statics.javhihi.com\/images\/movies\/javhihi.com-bathroom-fucking-with-kurachi-rika-leaved-her-pussy-creampied.jpg","image_small":"http:\/\/statics.javhihi.com\/images\/movies\/javhihi.com-bathroom-fucking-with-kurachi-rika-leaved-her-pussy-creampied.small.jpg","categories":["blowjob","creampie","hardcore","squirting","teen"],"tags":["cock-sucking","squirting","hardcore-action","hairy-pussy","fingering","doggy-style","dick-riding","nice-teen","nice-ass","creamed-pussy","pink-pussy","pussy-creampies"],"pornstars":["rika-kurachi"],"duration":"41:24","quality":"3","year":"0","view":"14,130","viewday":"49","viewweek":"284","viewmonth":"284","like":"10","likeday":"0","likeweek":"0","likemonth":"0","published":"2016-01-08","dmca":"1","url":"movie\/bathroom--fucking-with-kurachi-rika-leaved-her-pussy-creampied.410.html"},{"id":"413","name":"Amateur milf with huge boobs Ruri Kouda in a shower dildo pay","image":"http:\/\/statics.javhihi.com\/images\/movies\/javhihi.com-amateur-milf-with-huge-boobs-ruri-kouda-in-a-shower-dildo-pay.jpg","image_small":"http:\/\/statics.javhihi.com\/images\/movies\/javhihi.com-amateur-milf-with-huge-boobs-ruri-kouda-in-a-shower-dildo-pay.small.jpg","categories":["amateur","big-tits","squirting","toys"],"tags":["busty","sex-toys","toy-insertion","amateur","dildo","huge-boobs","squirting","huge-tits","tits"],"pornstars":["ruri-kouda"],"duration":"7:29","quality":"3","year":"0","view":"13,777","viewday":"53","viewweek":"271","viewmonth":"271","like":"8","likeday":"0","likeweek":"0","likemonth":"0","published":"2016-01-08","dmca":"1","url":"movie\/amateur--milf-with-huge-boobs-ruri-kouda-in-a-shower-dildo-pay.413.html"},{"id":"377","name":"Cute and kinky Asian babe getting her pussy fondled with vibrator","image":"http:\/\/statics.javhihi.com\/images\/movies\/javhihi.com-cute-and-kinky-asian-babe-getting-her-pussy-fondled-with-vibrator.jpg","image_small":"http:\/\/statics.javhihi.com\/images\/movies\/javhihi.com-cute-and-kinky-asian-babe-getting-her-pussy-fondled-with-vibrator.small.jpg","categories":["blowjob","hardcore","squirting","toys"],"tags":["cock-sucking","squirting","hot-milf","hardcore-action","hairy-pussy","fingering","sex-toys","vibrator","toy-insertion"],"pornstars":["misa-kikouden"],"duration":"45:16","quality":"3","year":"0","view":"5,070","viewday":"32","viewweek":"161","viewmonth":"161","like":"4","likeday":"0","likeweek":"0","likemonth":"0","published":"2016-01-02","dmca":"1","url":"movie\/cute--and-kinky-asian-babe-getting-her-pussy-fondled-with-vibrator.377.html"},{"id":"358","name":"Iori Miduki toy fucked and finger bang in her slit","image":"http:\/\/statics.javhihi.com\/images\/movies\/javhihi.com-iori-miduki-toy-fucked-and-finger-bang-in-her-slit.jpg","image_small":"http:\/\/statics.javhihi.com\/images\/movies\/javhihi.com-iori-miduki-toy-fucked-and-finger-bang-in-her-slit.small.jpg","categories":["bondage","fingering","squirting","teen"],"tags":["hairy-pussy","fingering","squirting","nice-teen","nice-ass","cameltoe","pussy-stimulation","teen-pussy","pussy"],"pornstars":["iori-mizuki"],"duration":"15:00","quality":"3","year":"0","view":"8,626","viewday":"44","viewweek":"220","viewmonth":"220","like":"15","likeday":"0","likeweek":"0","likemonth":"0","published":"2015-12-30","dmca":"1","url":"movie\/iori--miduki-toy-fucked-and-finger-bang-in-her-slit.358.html"},{"id":"359","name":"Rika Aina has boobs touched by two hunks","image":"http:\/\/statics.javhihi.com\/images\/movies\/javhihi.com-rika-aina-has-boobs-touched-by-two-hunks.jpg","image_small":"http:\/\/statics.javhihi.com\/images\/movies\/javhihi.com-rika-aina-has-boobs-touched-by-two-hunks.small.jpg","categories":["blowjob","group-sex","squirting","threesome"],"tags":["cock-sucking","hot-milf","busty","group-action","sexy-lingerie","squirting","hand-work","double-blowjob","cum-on-tits","pussy-licking","sex-toys","toy-insertion","huge-tits","tits"],"pornstars":["rika-aina"],"duration":"25:06","quality":"3","year":"0","view":"18,781","viewday":"82","viewweek":"417","viewmonth":"415","like":"13","likeday":"0","likeweek":"0","likemonth":"0","published":"2015-12-30","dmca":"1","url":"movie\/rika--aina-has-boobs-touched-by-two-hunks.359.html"},{"id":"355","name":"Yuu Mizuki got herself folded and finger-fuck in her slit","image":"http:\/\/statics.javhihi.com\/images\/movies\/javhihi.com-yuu-mizuki-got-herself-folded-and-finger-fuck-in-her-slit.jpg","image_small":"http:\/\/statics.javhihi.com\/images\/movies\/javhihi.com-yuu-mizuki-got-herself-folded-and-finger-fuck-in-her-slit.small.jpg","categories":["bondage","hairy-pussy","squirting","teen","toys"],"tags":["hairy-pussy","fingering","busty","sex-toys","nice-teen","vibrator","nice-ass","toy-insertion","pink-pussy","teen-pussy","pussy"],"pornstars":["yuu-mizuki"],"duration":"16:08","quality":"3","year":"0","view":"18,505","viewday":"45","viewweek":"351","viewmonth":"351","like":"23","likeday":"0","likeweek":"0","likemonth":"0","published":"2015-12-30","dmca":"1","url":"movie\/yuu--mizuki-got-herself-folded-and-finger-fuck-in-her-slit.355.html"},{"id":"356","name":"Sexy and hairy Asian babe and her throbbing vibrators","image":"http:\/\/statics.javhihi.com\/images\/movies\/javhihi.com-sexy-and-hairy-asian-babe-and-her-throbbing-vibrators.jpg","image_small":"http:\/\/statics.javhihi.com\/images\/movies\/javhihi.com-sexy-and-hairy-asian-babe-and-her-throbbing-vibrators.small.jpg","categories":["blowjob","cumshot","facial","squirting","toys"],"tags":["cock-sucking","hot-milf","squirting","fingering","busty","sex-toys","doggy-style","vibrator","cum-on-face"],"pornstars":["misa-kikouden"],"duration":"19:23","quality":"3","year":"0","view":"5,148","viewday":"22","viewweek":"94","viewmonth":"94","like":"7","likeday":"0","likeweek":"0","likemonth":"0","published":"2015-12-30","dmca":"1","url":"movie\/sexy--and-hairy-asian-babe-and-her-throbbing-vibrators.356.html"},{"id":"353","name":"Japanese hottie Sara Seori stripped and finger-fucked in her twat","image":"http:\/\/statics.javhihi.com\/images\/movies\/javhihi.com-japanese-hottie-sara-seori-stripped-and-finger-fucked-in-her-twat.jpg","image_small":"http:\/\/statics.javhihi.com\/images\/movies\/javhihi.com-japanese-hottie-sara-seori-stripped-and-finger-fucked-in-her-twat.small.jpg","categories":["bikini","bondage","fingering","squirting"],"tags":["fingering","hairy-pussy","nice-teen","pink-pussy","squirting","mini-bikini","small-tits","uniform"],"pornstars":["sara-seori"],"duration":"15:14","quality":"3","year":"0","view":"12,113","viewday":"65","viewweek":"307","viewmonth":"306","like":"15","likeday":"0","likeweek":"0","likemonth":"0","published":"2015-12-29","dmca":"1","url":"movie\/japanese--hottie-sara-seori-stripped-and-finger-fucked-in-her-twat.353.html"},{"id":"342","name":"Hot and big tit Asian babe in lingerie getting naked and hardcore fucking","image":"http:\/\/statics.javhihi.com\/images\/movies\/javhihi.com-hot-and-big-tit-asian-babe-in-lingerie-getting-naked-and-hardcore-fucking.jpg","image_small":"http:\/\/statics.javhihi.com\/images\/movies\/javhihi.com-hot-and-big-tit-asian-babe-in-lingerie-getting-naked-and-hardcore-fucking.small.jpg","categories":["blowjob","hardcore","squirting"],"tags":["hot-milf","hairy-pussy","fingering","squirting","busty","doggy-style","dick-riding","creamed-pussy","amateur","huge-boobs","hardcore-action","huge-tits","tits"],"pornstars":["rika-aina"],"duration":"38:16","quality":"3","year":"0","view":"34,358","viewday":"148","viewweek":"731","viewmonth":"731","like":"43","likeday":"0","likeweek":"0","likemonth":"0","published":"2015-12-28","dmca":"1","url":"movie\/hot--and-big-tit-asian-babe-in-lingerie-getting-naked-and-hardcore-fucking.342.html"},{"id":"344","name":"A Group Sex of Guys Gang up and Work Her Body with Vibrators","image":"http:\/\/statics.javhihi.com\/images\/movies\/javhihi.com-a-group-of-guys-gang-up-and-work-her-body-with-vibrators.jpg","image_small":"http:\/\/statics.javhihi.com\/images\/movies\/javhihi.com-a-group-of-guys-gang-up-and-work-her-body-with-vibrators.small.jpg","categories":["hairy-pussy","squirting","toys"],"tags":["hot-milf","squirting","hairy-pussy","fingering","busty","sex-toys","vibrator","toy-insertion","huge-boobs","huge-tits","pussy","tits"],"pornstars":["hinano"],"duration":"11:06","quality":"3","year":"0","view":"84,367","viewday":"72","viewweek":"286","viewmonth":"286","like":"9","likeday":"0","likeweek":"0","likemonth":"0","published":"2015-12-28","dmca":"0","url":"movie\/a-group-sex-of-guys-gang-up-and-work-her-body-with-vibrators.344.html"},{"id":"340","name":"Bondage fingering play with tied up and gagged Hatsuka Kobayashi","image":"http:\/\/statics.javhihi.com\/images\/movies\/javhihi.com-bondage-fingering-play-with-tied-up-and-gagged-hatsuka-kobayashi.jpg","image_small":"http:\/\/statics.javhihi.com\/images\/movies\/javhihi.com-bondage-fingering-play-with-tied-up-and-gagged-hatsuka-kobayashi.small.jpg","categories":["bondage","fingering","hairy-pussy","squirting"],"tags":["hot-milf","squirting","hairy-pussy","fingering","busty","creamed-pussy","pussy"],"pornstars":["hatsuka-kobayashi"],"duration":"10:09","quality":"3","year":"0","view":"10,713","viewday":"86","viewweek":"378","viewmonth":"378","like":"14","likeday":"0","likeweek":"0","likemonth":"0","published":"2015-12-27","dmca":"1","url":"movie\/bondage--fingering-play-with-tied-up-and-gagged-hatsuka-kobayashi.340.html"}],"total":111,"next_page_url":"movie\/squirting.html?sort=published&page=3","page":2,"total_page":5}