{"movies":[{"id":"907","name":"Akane Ozora fondles big cans and love box","image":"http:\/\/statics.javhihi.com\/images\/movies\/javhihi.com-akane-ozora-fondles-big-cans-and-love-box.jpg","image_small":"http:\/\/statics.javhihi.com\/images\/movies\/javhihi.com-akane-ozora-fondles-big-cans-and-love-box.small.jpg","categories":["amateur","hairy-pussy","masturbation","stockings"],"tags":["hairy-pussy","sex-toys","toy-insertion","pink-pussy","amateur","pussy-stimulation","masturbation","solo-girl","pussy","uniform"],"pornstars":["akane-ozora"],"duration":"10:50","quality":"3","year":"0","view":"14,393","viewday":"3","viewweek":"795","viewmonth":"795","like":"13","likeday":"0","likeweek":"1","likemonth":"1","published":"2016-03-25","dmca":"0","url":"movie\/akane-ozora-fondles-big-cans-and-love-box.907.html"},{"id":"888","name":"Hot Ayumi Kobayashi gets doggy and vibrator","image":"http:\/\/statics.javhihi.com\/images\/movies\/javhihi.com-hot-ayumi-kobayashi-gets-doggy-and-vibrator.jpg","image_small":"http:\/\/statics.javhihi.com\/images\/movies\/javhihi.com-hot-ayumi-kobayashi-gets-doggy-and-vibrator.small.jpg","categories":["hardcore","lingerie","stockings","toys"],"tags":["hot-milf","sexy-lingerie","sexy-stockings","pink-pussy","fingering","pussy-licking","ass-insertion","sex-toys","ass-licking","cock-sucking","dick-riding","hardcore-action","doggy-style","creamed-pussy","misc","uniform","lick","ass-lick","pussy-lick"],"pornstars":["ayumi-kobayashi"],"duration":"31:49","quality":"3","year":"0","view":"18,250","viewday":"5","viewweek":"985","viewmonth":"984","like":"16","likeday":"0","likeweek":"0","likemonth":"0","published":"2016-03-22","dmca":"0","url":"movie\/hot-ayumi-kobayashi-gets-doggy-and-vibrator.888.html"},{"id":"839","name":"Asuka Ishihara is fucked and sucks tool","image":"http:\/\/statics.javhihi.com\/images\/movies\/javhihi.com-asuka-ishihara-is-fucked-and-sucks-tool.jpg","image_small":"http:\/\/statics.javhihi.com\/images\/movies\/javhihi.com-asuka-ishihara-is-fucked-and-sucks-tool.small.jpg","categories":["blowjob","outdoor","stockings"],"tags":["outdoor","cock-sucking","hot-milf","hardcore-action","group-action","double-blowjob","black-stockings","sexy-stockings","pussy-licking","uniform","lick","pussy-lick"],"pornstars":["asuka-ishihara"],"duration":"32:48","quality":"3","year":"0","view":"14,226","viewday":"118","viewweek":"629","viewmonth":"629","like":"16","likeday":"0","likeweek":"1","likemonth":"1","published":"2016-03-15","dmca":"0","url":"movie\/asuka-ishihara-is-fucked-and-sucks-tool.839.html"},{"id":"835","name":"Rika Kurogawa sucks stiffy in the bathtub","image":"http:\/\/statics.javhihi.com\/images\/movies\/javhihi.com-rika-kurogawa-sucks-stiffy-in-the-bathtub.jpg","image_small":"http:\/\/statics.javhihi.com\/images\/movies\/javhihi.com-rika-kurogawa-sucks-stiffy-in-the-bathtub.small.jpg","categories":["big-tits","blowjob","cumshot","lingerie","stockings","tit-fuck"],"tags":["nice-teen","busty","sexy-pantyhose","masturbation","bath","sexy-lingerie","oiled-body","hand-work","tit-fuck","cock-sucking","cum-in-mouth","tits","uniform"],"pornstars":["rika-kurogawa"],"duration":"13:42","quality":"3","year":"0","view":"14,463","viewday":"0","viewweek":"653","viewmonth":"652","like":"18","likeday":"0","likeweek":"1","likemonth":"1","published":"2016-03-15","dmca":"0","url":"movie\/rika-kurogawa-sucks-stiffy-in-the-bathtub.835.html"},{"id":"834","name":"Mami Asakura loves vibrator on fish taco","image":"http:\/\/statics.javhihi.com\/images\/movies\/javhihi.com-mami-asakura-loves-vibrator-on-fish-taco.jpg","image_small":"http:\/\/statics.javhihi.com\/images\/movies\/javhihi.com-mami-asakura-loves-vibrator-on-fish-taco.small.jpg","categories":["lingerie","stockings","toys"],"tags":["nice-teen","sexy-lingerie","white-stockings","sex-toys","high-heels","dildo","toy-insertion","uniform"],"pornstars":["mami-asakura"],"duration":"8:53","quality":"3","year":"0","view":"8,412","viewday":"0","viewweek":"329","viewmonth":"329","like":"14","likeday":"0","likeweek":"0","likemonth":"0","published":"2016-03-14","dmca":"0","url":"movie\/mami-asakura-loves-vibrator-on-fish-taco.834.html"},{"id":"811","name":"Sayaka Fukuyama busty babe wants huge orgasm","image":"http:\/\/statics.javhihi.com\/images\/movies\/javhihi.com-sayaka-fukuyama-busty-babe-wants-huge-orgasm.jpg","image_small":"http:\/\/statics.javhihi.com\/images\/movies\/javhihi.com-sayaka-fukuyama-busty-babe-wants-huge-orgasm.small.jpg","categories":["big-tits","lingerie","masturbation","stockings","toys"],"tags":["nice-teen","sexy-lingerie","busty","black-stockings","masturbation","solo-girl","wet-pussy","sex-toys","vibrator","nice-ass","tits","uniform"],"pornstars":["sayaka-fukuyama"],"duration":"15:05","quality":"3","year":"0","view":"12,562","viewday":"120","viewweek":"710","viewmonth":"709","like":"11","likeday":"0","likeweek":"0","likemonth":"0","published":"2016-03-11","dmca":"0","url":"movie\/sayaka-fukuyama-busty-babe-wants-huge-orgasm.811.html"},{"id":"780","name":"Hot fuck and sexy Shirosaki Karin in a tight and sexy stockings pussy fondled and double penetrated","image":"http:\/\/statics.javhihi.com\/images\/movies\/javhihi.com-hot-fuck-and-sexy-shirosaki-karin-in-a-tight-and-sexy-stockings-pussy-fondled-and-double-penetrated.jpg","image_small":"http:\/\/statics.javhihi.com\/images\/movies\/javhihi.com-hot-fuck-and-sexy-shirosaki-karin-in-a-tight-and-sexy-stockings-pussy-fondled-and-double-penetrated.small.jpg","categories":["creampie","group-sex","hardcore","lingerie","stockings","threesome"],"tags":["hot-milf","sexy-lingerie","black-stockings","group-action","mmf","pink-pussy","pussy-licking","fingering","cock-sucking","69","dick-riding","shaved-pussy","rear-fuck","creamed-pussy","pussy-creampies","uniform"],"pornstars":["shirosaki-karin"],"duration":"31:33","quality":"3","year":"0","view":"21,791","viewday":"250","viewweek":"1488","viewmonth":"1488","like":"25","likeday":"0","likeweek":"1","likemonth":"1","published":"2016-03-06","dmca":"0","url":"movie\/hot-fuck-and-sexy-shirosaki-karin-in-a-tight-and-sexy-stockings-pussy-fondled-and-double-penetrated.780.html"},{"id":"781","name":"Megumi Haruka gets rough and doggy fuck","image":"http:\/\/statics.javhihi.com\/images\/movies\/javhihi.com-megumi-haruka-gets-rough-and-doggy-fuck.jpg","image_small":"http:\/\/statics.javhihi.com\/images\/movies\/javhihi.com-megumi-haruka-gets-rough-and-doggy-fuck.small.jpg","categories":["blowjob","hardcore","lingerie","stockings","teen"],"tags":["nice-teen","black-stockings","pink-pussy","busty","fingering","body-licking","cock-sucking","69","rear-fuck","hardcore-action","creamed-pussy","teen-pussy","pussy","uniform"],"pornstars":["megumi-haruka"],"duration":"33:19","quality":"3","year":"0","view":"34,195","viewday":"264","viewweek":"2228","viewmonth":"2227","like":"47","likeday":"0","likeweek":"1","likemonth":"1","published":"2016-03-06","dmca":"0","url":"movie\/megumi-haruka-gets-rough-and-doggy-fuck.781.html"},{"id":"771","name":"Megumi Haruka gets doggy during blowjob","image":"http:\/\/statics.javhihi.com\/images\/movies\/javhihi.com-megumi-haruka-gets-doggy-during-blowjob.jpg","image_small":"http:\/\/statics.javhihi.com\/images\/movies\/javhihi.com-megumi-haruka-gets-doggy-during-blowjob.small.jpg","categories":["creampie","group-sex","lingerie","stockings","threesome"],"tags":["sexy-lingerie","black-stockings","group-action","mmf","tit-licking","ass-licking","pussy-licking","pussy-stimulation","cock-sucking","doggy-style","hardcore-action","creamed-pussy","pussy-creampies","uniform","lick","ass-lick","pussy-lick"],"pornstars":["megumi-haruka"],"duration":"31:54","quality":"3","year":"0","view":"71,725","viewday":"527","viewweek":"3094","viewmonth":"3092","like":"67","likeday":"0","likeweek":"5","likemonth":"5","published":"2016-03-05","dmca":"0","url":"movie\/megumi-haruka-gets-doggy-during-blowjob.771.html"},{"id":"770","name":"Skinny babe in lingerie teased and fondled by two hung and horny guys and get fucked.","image":"http:\/\/statics.javhihi.com\/images\/movies\/javhihi.com-skinny-babe-in-lingerie-teased-and-fondled-by-two-hung-and-horny-guys-and-get-fucked..jpg","image_small":"http:\/\/statics.javhihi.com\/images\/movies\/javhihi.com-skinny-babe-in-lingerie-teased-and-fondled-by-two-hung-and-horny-guys-and-get-fucked..small.jpg","categories":["blowjob","group-sex","lingerie","stockings","threesome","toys"],"tags":["hot-milf","sexy-lingerie","fishnet-stockings","group-action","mmf","pink-pussy","high-heels","sex-toys","vibrator","cock-sucking","pussy-licking","69","rear-fuck","hardcore-action","dick-riding","doggy-style","uniform"],"pornstars":["rei-sasaki"],"duration":"34:12","quality":"3","year":"0","view":"49,755","viewday":"365","viewweek":"2796","viewmonth":"2795","like":"69","likeday":"2","likeweek":"4","likemonth":"4","published":"2016-03-04","dmca":"0","url":"movie\/skinny-babe-in-lingerie-teased-and-fondled-by-two-hung-and-horny-guys-and-get-fucked..770.html"},{"id":"703","name":"Nene Azami sucks shlong while is pumped","image":"http:\/\/statics.javhihi.com\/images\/movies\/javhihi.com-nene-azami-sucks-shlong-while-is-pumped.jpg","image_small":"http:\/\/statics.javhihi.com\/images\/movies\/javhihi.com-nene-azami-sucks-shlong-while-is-pumped.small.jpg","categories":["big-tits","group-sex","hardcore","lingerie","stockings","teen"],"tags":["nice-teen","busty","sexy-lingerie","group-action","mmmf","fishnet-stockings","pussy-licking","fingering","cock-sucking","doggy-style","hardcore-action","creamed-pussy","foursome","tits","uniform"],"pornstars":["nene-azami"],"duration":"36:15","quality":"3","year":"0","view":"80,635","viewday":"295","viewweek":"1959","viewmonth":"1959","like":"81","likeday":"1","likeweek":"1","likemonth":"1","published":"2016-03-03","dmca":"1","url":"movie\/nene--azami-sucks-shlong-while-is-pumped.703.html"},{"id":"465","name":"Ai Yuumi gets one strong doggy fucking","image":"http:\/\/statics.javhihi.com\/images\/movies\/javhihi.com-ai-yuumi-gets-one-strong-doggy-fucking.jpg","image_small":"http:\/\/statics.javhihi.com\/images\/movies\/javhihi.com-ai-yuumi-gets-one-strong-doggy-fucking.small.jpg","categories":["blowjob","creampie","squirting","stockings"],"tags":["cock-sucking","hot-milf","fingering","squirting","hardcore-action","doggy-style","nice-ass","pussy-licking","69","white-stockings","creamed-pussy","pussy-creampies","uniform"],"pornstars":["ai-yuumi"],"duration":"24:52","quality":"3","year":"0","view":"12,352","viewday":"108","viewweek":"707","viewmonth":"706","like":"21","likeday":"1","likeweek":"1","likemonth":"1","published":"2016-03-03","dmca":"1","url":"movie\/ai--yuumi-gets-one-strong-doggy-fucking.465.html"},{"id":"744","name":"Yurika Momo has whole vibrator in beaver","image":"http:\/\/statics.javhihi.com\/images\/movies\/javhihi.com-yurika-momo-has-whole-vibrator-in-beaver.jpg","image_small":"http:\/\/statics.javhihi.com\/images\/movies\/javhihi.com-yurika-momo-has-whole-vibrator-in-beaver.small.jpg","categories":["fingering","lingerie","squirting","stockings","toys"],"tags":["nice-ass","sexy-lingerie","black-stockings","sex-toys","toy-insertion","vibrator","dildo","fingering","squirting","uniform"],"pornstars":["yurika-momo"],"duration":"16:05","quality":"3","year":"0","view":"11,457","viewday":"111","viewweek":"714","viewmonth":"714","like":"9","likeday":"0","likeweek":"0","likemonth":"0","published":"2016-02-29","dmca":"1","url":"movie\/yurika--momo-has-whole-vibrator-in-beaver.744.html"},{"id":"734","name":"Toa in fishnets takes shlong in footjob","image":"http:\/\/statics.javhihi.com\/images\/movies\/javhihi.com-toa-in-fishnets-takes-shlong-in-footjob.jpg","image_small":"http:\/\/statics.javhihi.com\/images\/movies\/javhihi.com-toa-in-fishnets-takes-shlong-in-footjob.small.jpg","categories":["bikini","blowjob","footjob","handjob","pov","stockings"],"tags":["hot-milf","mini-bikini","fishnet-stockings","cock-sucking","footjob","body-licking","hand-work","cumshot","uniform"],"pornstars":["toa"],"duration":"12:37","quality":"3","year":"0","view":"10,177","viewday":"86","viewweek":"503","viewmonth":"501","like":"14","likeday":"0","likeweek":"1","likemonth":"1","published":"2016-02-27","dmca":"1","url":"movie\/toa--in-fishnets-takes-shlong-in-footjob.734.html"},{"id":"736","name":"Ryo Sasaki is fishnets is screwed a lot","image":"http:\/\/statics.javhihi.com\/images\/movies\/javhihi.com-ryo-sasaki-is-fishnets-is-screwed-a-lot.jpg","image_small":"http:\/\/statics.javhihi.com\/images\/movies\/javhihi.com-ryo-sasaki-is-fishnets-is-screwed-a-lot.small.jpg","categories":["blowjob","cumshot","facial","hardcore","lingerie","mini-skirt","stockings"],"tags":["hot-milf","sexy-lingerie","upskirt","sexy-stockings","busty","pink-pussy","sex-toys","vibrator","fingering","cock-sucking","doggy-style","cum-on-face","uniform"],"pornstars":["ryo-sasaki"],"duration":"23:03","quality":"3","year":"0","view":"17,282","viewday":"91","viewweek":"4679","viewmonth":"4679","like":"10","likeday":"0","likeweek":"1","likemonth":"1","published":"2016-02-27","dmca":"0","url":"movie\/ryo-sasaki-is-fishnets-is-screwed-a-lot.736.html"},{"id":"716","name":"Two Cocks and Double Creampie for Sexy Nozomi Hatsuki","image":"http:\/\/statics.javhihi.com\/images\/movies\/javhihi.com-two-cocks-and-double-creampie-for-sexy-nozomi-hatsuki.jpg","image_small":"http:\/\/statics.javhihi.com\/images\/movies\/javhihi.com-two-cocks-and-double-creampie-for-sexy-nozomi-hatsuki.small.jpg","categories":["blowjob","fingering","group-sex","lingerie","stockings","threesome"],"tags":["nice-teen","sexy-lingerie","sexy-stockings","group-action","mmf","fingering","pussy-licking","cock-sucking","deep-throat","headfuck","dick-riding","hardcore-action","creamed-pussy","uniform"],"pornstars":["nozomi-hatsuki"],"duration":"32:45","quality":"3","year":"0","view":"25,419","viewday":"0","viewweek":"853","viewmonth":"853","like":"28","likeday":"0","likeweek":"0","likemonth":"0","published":"2016-02-25","dmca":"1","url":"movie\/two--cocks-and-double-creampie-for-sexy-nozomi-hatsuki.716.html"},{"id":"708","name":"Wild kinky action with two very sexy teens!","image":"http:\/\/statics.javhihi.com\/images\/movies\/javhihi.com-wild-kinky-action-with-two-very-sexy-teens.jpg","image_small":"http:\/\/statics.javhihi.com\/images\/movies\/javhihi.com-wild-kinky-action-with-two-very-sexy-teens.small.jpg","categories":["amateur","group-sex","lingerie","stockings","threesome"],"tags":["amateur","nice-teen","group-action","posing","sexy-lingerie","white-stockings","black-stockings","upskirt","high-heels","fishnet-stockings","uniform"],"pornstars":["nao","yuria"],"duration":"15:26","quality":"3","year":"0","view":"36,355","viewday":"263","viewweek":"1658","viewmonth":"1657","like":"52","likeday":"0","likeweek":"1","likemonth":"1","published":"2016-02-23","dmca":"1","url":"movie\/wild--kinky-action-with-two-very-sexy-teens.708.html"},{"id":"705","name":"Ruri Haruka fucks twat with middle finger","image":"http:\/\/statics.javhihi.com\/images\/movies\/javhihi.com-ruri-haruka-fucks-twat-with-middle-finger.jpg","image_small":"http:\/\/statics.javhihi.com\/images\/movies\/javhihi.com-ruri-haruka-fucks-twat-with-middle-finger.small.jpg","categories":["fingering","lingerie","masturbation","stockings","toys"],"tags":["nice-teen","sexy-dress","sexy-lingerie","black-stockings","pink-pussy","masturbation","dildo","dildo-riding","sex-toys","solo-girl","uniform"],"pornstars":["ruri-haruka"],"duration":"25:23","quality":"3","year":"0","view":"13,073","viewday":"5","viewweek":"662","viewmonth":"662","like":"4","likeday":"0","likeweek":"0","likemonth":"0","published":"2016-02-23","dmca":"1","url":"movie\/ruri--haruka-fucks-twat-with-middle-finger.705.html"},{"id":"679","name":"Nene Azami with big jugs gets screwed","image":"http:\/\/statics.javhihi.com\/images\/movies\/javhihi.com-nene-azami-with-big-jugs-gets-screwed.jpg","image_small":"http:\/\/statics.javhihi.com\/images\/movies\/javhihi.com-nene-azami-with-big-jugs-gets-screwed.small.jpg","categories":["blowjob","cosplay","hardcore","schoolgirl","stockings","teen"],"tags":["nice-teen","school-uniform","busty","black-stockings","sexy-costume","fingering","pussy-licking","cock-sucking","tit-fuck","rear-fuck","hardcore-action","dick-riding","creamed-pussy","uniform","lick","pussy-lick"],"pornstars":["nene-azami"],"duration":"26:40","quality":"3","year":"0","view":"25,247","viewday":"211","viewweek":"1850","viewmonth":"1845","like":"36","likeday":"1","likeweek":"4","likemonth":"4","published":"2016-02-19","dmca":"1","url":"movie\/nene--azami-with-big-jugs-gets-screwed.679.html"},{"id":"677","name":"Eririka Katagiri with wet slit sucks cock","image":"http:\/\/statics.javhihi.com\/images\/movies\/javhihi.com-eririka-katagiri-with-wet-slit-sucks-cock.jpg","image_small":"http:\/\/statics.javhihi.com\/images\/movies\/javhihi.com-eririka-katagiri-with-wet-slit-sucks-cock.small.jpg","categories":["blowjob","group-sex","hardcore","stockings","teen","threesome"],"tags":["nice-teen","black-stockings","group-action","mmf","fingering","cock-sucking","doggy-style","hardcore-action","creamed-pussy","uniform"],"pornstars":["eririka-katagiri"],"duration":"29:54","quality":"3","year":"0","view":"23,379","viewday":"1","viewweek":"1605","viewmonth":"1605","like":"60","likeday":"0","likeweek":"1","likemonth":"1","published":"2016-02-19","dmca":"1","url":"movie\/eririka--katagiri-with-wet-slit-sucks-cock.677.html"},{"id":"671","name":"Stunning and glamorous babe in lingerie and fishnet stockings gagging and hard fucked","image":"http:\/\/statics.javhihi.com\/images\/movies\/javhihi.com-stunning-and-glamorous-babe-in-lingerie-and-fishnet-stockings-gagging-and-hard-fucked.jpg","image_small":"http:\/\/statics.javhihi.com\/images\/movies\/javhihi.com-stunning-and-glamorous-babe-in-lingerie-and-fishnet-stockings-gagging-and-hard-fucked.small.jpg","categories":["cosplay","group-sex","lingerie","squirting","stockings","threesome","toys"],"tags":["rabbit-suit","hot-milf","cock-sucking","hairy-pussy","vibrator","group-action","uniform"],"pornstars":["yuu-kusunoki"],"duration":"19:59","quality":"3","year":"0","view":"14,769","viewday":"126","viewweek":"745","viewmonth":"745","like":"17","likeday":"0","likeweek":"4","likemonth":"4","published":"2016-02-18","dmca":"1","url":"movie\/stunning--and-glamorous-babe-in-lingerie-and-fishnet-stockings-gagging-and-hard-fucked.671.html"},{"id":"636","name":"Up for a special hardcore fucking session with Emiri Takeuchi","image":"http:\/\/statics.javhihi.com\/images\/movies\/javhihi.com-up-for-a-special-hardcore-fucking-session-with-emiri-takeuchi.jpg","image_small":"http:\/\/statics.javhihi.com\/images\/movies\/javhihi.com-up-for-a-special-hardcore-fucking-session-with-emiri-takeuchi.small.jpg","categories":["blowjob","creampie","mini-skirt","stockings"],"tags":["cock-sucking","hairy-pussy","hardcore-action","fingering","sex-toys","doggy-style","dick-riding","toy-insertion","dildo","sexy-stockings","pussy-creampies","uniform","lick","pussy-lick"],"pornstars":["emiri-takeuchi"],"duration":"23:02","quality":"3","year":"0","view":"55,373","viewday":"223","viewweek":"1111","viewmonth":"1110","like":"171","likeday":"0","likeweek":"3","likemonth":"3","published":"2016-02-13","dmca":"1","url":"movie\/up--for-a-special-hardcore-fucking-session-with-emiri-takeuchi.636.html"},{"id":"632","name":"Rui Yazawa moans a lot during drilling","image":"http:\/\/statics.javhihi.com\/images\/movies\/javhihi.com-rui-yazawa-moans-a-lot-during-drilling.jpg","image_small":"http:\/\/statics.javhihi.com\/images\/movies\/javhihi.com-rui-yazawa-moans-a-lot-during-drilling.small.jpg","categories":["blowjob","creampie","hairy-pussy","mini-skirt","stockings","teen"],"tags":["cock-sucking","hairy-pussy","hardcore-action","fingering","doggy-style","nice-teen","creamed-pussy","short-skirt","white-stockings","pussy-creampies","teen-pussy","pussy","uniform"],"pornstars":["rui-yazawa"],"duration":"23:48","quality":"3","year":"0","view":"44,419","viewday":"422","viewweek":"1941","viewmonth":"1940","like":"89","likeday":"1","likeweek":"2","likemonth":"2","published":"2016-02-12","dmca":"1","url":"movie\/rui--yazawa-moans-a-lot-during-drilling.632.html"},{"id":"624","name":"Nao Kojima maid has slit strongly fucked","image":"http:\/\/statics.javhihi.com\/images\/movies\/javhihi.com-nao-kojima-maid-has-slit-strongly-fucked.jpg","image_small":"http:\/\/statics.javhihi.com\/images\/movies\/javhihi.com-nao-kojima-maid-has-slit-strongly-fucked.small.jpg","categories":["blowjob","hardcore","lingerie","maid","stockings","teen"],"tags":["nice-teen","sexy-maid","sexy-lingerie","black-stockings","pussy-licking","cameltoe","kissing","cock-sucking","69","cfnm","hardcore-action","dick-riding","doggy-style","creamed-pussy","uniform","lick"],"pornstars":["nao-kojima"],"duration":"37:37","quality":"3","year":"0","view":"39,666","viewday":"334","viewweek":"2186","viewmonth":"2186","like":"57","likeday":"0","likeweek":"1","likemonth":"1","published":"2016-02-11","dmca":"1","url":"movie\/nao--kojima-maid-has-slit-strongly-fucked.624.html"}],"total":182,"next_page_url":"movie\/stockings.html?sort=published&page=3","page":2,"total_page":8}