{"movies":[{"id":"1061","name":"Mirai Asian babe  puts vibrator on oiled clitoris","image":"http:\/\/statics.javhihi.com\/images\/movies\/javhihi.com-mirai-asian-babe-puts-vibrator-on-oiled-clitoris.jpg","image_small":"http:\/\/statics.javhihi.com\/images\/movies\/javhihi.com-mirai-asian-babe-puts-vibrator-on-oiled-clitoris.small.jpg","categories":["hairy-pussy","masturbation","teen"],"tags":["small-tits","solo-girl","nice-teen","long-nails","hairy-pussy","vibrator","oiled-body","masturbation","teen-pussy","tiny-tits","pussy","tits"],"pornstars":["mirai"],"duration":"7:49","quality":"3","year":"0","view":"17,195","viewday":"265","viewweek":"1755","viewmonth":"1752","like":"21","likeday":"0","likeweek":"0","likemonth":"0","published":"2016-04-19","dmca":"0","url":"movie\/mirai-asian-babe-puts-vibrator-on-oiled-clitoris.1061.html"},{"id":"1060","name":"Hina Maeda licks and strokes three tools","image":"http:\/\/statics.javhihi.com\/images\/movies\/javhihi.com-hina-maeda-licks-and-strokes-three-tools.jpg","image_small":"http:\/\/statics.javhihi.com\/images\/movies\/javhihi.com-hina-maeda-licks-and-strokes-three-tools.small.jpg","categories":["blowjob","cumshot","shaved-pussy","squirting","teen"],"tags":["nice-teen","pink-pussy","shaved-pussy","busty","masturbation","squirting","wet-pussy","sex-toys","dildo","toy-insertion","vibrator","cock-sucking","group-action","mmmf","cum-in-mouth","massive-cum","teen-pussy","pussy"],"pornstars":["hina-maeda"],"duration":"23:24","quality":"3","year":"0","view":"37,071","viewday":"0","viewweek":"4379","viewmonth":"4374","like":"55","likeday":"0","likeweek":"4","likemonth":"4","published":"2016-04-18","dmca":"0","url":"movie\/hina-maeda-licks-and-strokes-three-tools.1060.html"},{"id":"1048","name":"Sexy Nene Masaki Drilled Hard And Jizzed In","image":"http:\/\/statics.javhihi.com\/images\/movies\/javhihi.com-sexy-nene-masaki-drilled-hard-and-jizzed-in.jpg","image_small":"http:\/\/statics.javhihi.com\/images\/movies\/javhihi.com-sexy-nene-masaki-drilled-hard-and-jizzed-in.small.jpg","categories":["blowjob","fingering","hardcore","shaved-pussy","teen"],"tags":["nice-teen","pov","pink-pussy","shaved-pussy","fingering","foot-licking","cock-sucking","dick-riding","hardcore-action","doggy-style","creamed-pussy","teen-pussy","pussy"],"pornstars":["nene-masaki"],"duration":"31:43","quality":"3","year":"0","view":"19,523","viewday":"3","viewweek":"3608","viewmonth":"3607","like":"17","likeday":"0","likeweek":"0","likemonth":"0","published":"2016-04-17","dmca":"0","url":"movie\/sexy-nene-masaki-drilled-hard-and-jizzed-in.1048.html"},{"id":"1046","name":"Satomi Suzuki busty is fucked like crazy","image":"http:\/\/statics.javhihi.com\/images\/movies\/javhihi.com-satomi-suzuki-busty-is-fucked-like-crazy.jpg","image_small":"http:\/\/statics.javhihi.com\/images\/movies\/javhihi.com-satomi-suzuki-busty-is-fucked-like-crazy.small.jpg","categories":["big-tits","blowjob","hairy-pussy","hardcore","teen"],"tags":["nice-teen","busty","hairy-pussy","pussy-stimulation","fingering","cock-sucking","nice-ass","dick-riding","hardcore-action","doggy-style","teen-pussy","pussy","tits"],"pornstars":["satomi-suzuki"],"duration":"23:43","quality":"3","year":"0","view":"121,263","viewday":"3161","viewweek":"14959","viewmonth":"14948","like":"209","likeday":"3","likeweek":"24","likemonth":"24","published":"2016-04-16","dmca":"0","url":"movie\/satomi-suzuki-busty-is-fucked-like-crazy.1046.html"},{"id":"1042","name":"Sexy Ayumi Kobayashi gets Creampied During a Threesome","image":"http:\/\/statics.javhihi.com\/images\/movies\/javhihi.com-sexy-ayumi-kobayashi-gets-creampied-during-a-threesome.jpg","image_small":"http:\/\/statics.javhihi.com\/images\/movies\/javhihi.com-sexy-ayumi-kobayashi-gets-creampied-during-a-threesome.small.jpg","categories":["creampie","group-sex","hardcore","teen","threesome","toys"],"tags":["nice-teen","group-action","mmf","sex-toys","toy-insertion","pussy-stimulation","pussy-licking","fingering","dildo","vibrator","cock-sucking","hardcore-action","creamed-pussy","pussy-creampies","misc"],"pornstars":["ayumi-kobayashi"],"duration":"45:40","quality":"3","year":"0","view":"15,542","viewday":"144","viewweek":"1362","viewmonth":"1361","like":"26","likeday":"0","likeweek":"5","likemonth":"5","published":"2016-04-16","dmca":"0","url":"movie\/sexy-ayumi-kobayashi-gets-creampied-during-a-threesome.1042.html"},{"id":"1044","name":"Akina Hara licks and sucks two shlongs","image":"http:\/\/statics.javhihi.com\/images\/movies\/javhihi.com-akina-hara-licks-and-sucks-two-shlongs.jpg","image_small":"http:\/\/statics.javhihi.com\/images\/movies\/javhihi.com-akina-hara-licks-and-sucks-two-shlongs.small.jpg","categories":["blowjob","creampie","group-sex","hardcore","teen","threesome"],"tags":["nice-teen","hairy-pussy","transparent-lingerie","swimsuit","group-action","mmf","pussy-licking","fingering","cock-sucking","headfuck","ball-licking","hardcore-action","nice-ass","dick-riding","stand-fucking","rear-fuck","creamed-pussy","pussy-creampies"],"pornstars":["akina-hara"],"duration":"37:23","quality":"3","year":"0","view":"63,646","viewday":"1799","viewweek":"9696","viewmonth":"9685","like":"112","likeday":"0","likeweek":"25","likemonth":"25","published":"2016-04-16","dmca":"0","url":"movie\/akina-hara-licks-and-sucks-two-shlongs.1044.html"},{"id":"1037","name":"Sweet Asian Student Akina Hara Toyed and Jerked off On","image":"http:\/\/statics.javhihi.com\/images\/movies\/javhihi.com-sweet-asian-student-akina-hara-toyed-and-jerked-off-on.jpg","image_small":"http:\/\/statics.javhihi.com\/images\/movies\/javhihi.com-sweet-asian-student-akina-hara-toyed-and-jerked-off-on.small.jpg","categories":["cumshot","facial","hairy-pussy","schoolgirl","teen","toys"],"tags":["nice-teen","school-uniform","sex-toys","vibrator","hairy-pussy","pink-pussy","nice-ass","dildo","toy-insertion","classroom","cum-on-face","teen-pussy","pussy","uniform"],"pornstars":["akina-hara"],"duration":"25:08","quality":"3","year":"0","view":"16,292","viewday":"265","viewweek":"1791","viewmonth":"1791","like":"9","likeday":"0","likeweek":"0","likemonth":"0","published":"2016-04-15","dmca":"0","url":"movie\/sweet-asian-student-akina-hara-toyed-and-jerked-off-on.1037.html"},{"id":"1032","name":"Japanese Girl Nene Masaki Takes Three Guys at Once in JAV Foursome","image":"http:\/\/statics.javhihi.com\/images\/movies\/javhihi.com-japanese-girl-nene-masaki-takes-three-guys-at-once-in-jav-foursome.jpg","image_small":"http:\/\/statics.javhihi.com\/images\/movies\/javhihi.com-japanese-girl-nene-masaki-takes-three-guys-at-once-in-jav-foursome.small.jpg","categories":["anal","creampie","double-penetration","gang-bang","group-sex","shaved-pussy","teen"],"tags":["nice-teen","group-action","wild-gang","pink-pussy","shaved-pussy","close-up","fingering","anal-penetration","cock-sucking","busty","doggy-style","hardcore-action","double-penetration","creamed-ass","anal-creampie","teen-pussy","pussy"],"pornstars":["nene-masaki"],"duration":"40:45","quality":"3","year":"0","view":"88,553","viewday":"1400","viewweek":"8556","viewmonth":"8553","like":"133","likeday":"6","likeweek":"17","likemonth":"17","published":"2016-04-14","dmca":"0","url":"movie\/japanese-girl-nene-masaki-takes-three-guys-at-once-in-jav-foursome.1032.html"},{"id":"1024","name":"Adorable and attractive Asian babe Gook gagging and cum swallowing","image":"http:\/\/statics.javhihi.com\/images\/movies\/javhihi.com-adorable-and-attractive-asian-babe-gook-gagging-and-cum-swallowing.jpg","image_small":"http:\/\/statics.javhihi.com\/images\/movies\/javhihi.com-adorable-and-attractive-asian-babe-gook-gagging-and-cum-swallowing.small.jpg","categories":["blowjob","cumshot","facial","handjob","shaved-pussy","teen"],"tags":["nice-teen","nice-ass","pink-pussy","fingering","cameltoe","shaved-pussy","cock-sucking","tit-fuck","cum-on-face","teen-pussy","pussy"],"pornstars":["gook"],"duration":"20:29","quality":"3","year":"0","view":"16,300","viewday":"206","viewweek":"1441","viewmonth":"1440","like":"15","likeday":"0","likeweek":"5","likemonth":"5","published":"2016-04-13","dmca":"0","url":"movie\/adorable-and-attractive-asian-babe-gook-gagging-and-cum-swallowing.1024.html"},{"id":"1018","name":"Mai Asahina is fucked through stockings","image":"http:\/\/statics.javhihi.com\/images\/movies\/javhihi.com-mai-asahina-is-fucked-through-stockings.jpg","image_small":"http:\/\/statics.javhihi.com\/images\/movies\/javhihi.com-mai-asahina-is-fucked-through-stockings.small.jpg","categories":["creampie","hardcore","office-lady","stockings","teen"],"tags":["nice-teen","office-suit","sexy-pantyhose","cock-sucking","pussy-licking","pussy-stimulation","hardcore-action","rear-fuck","creamed-pussy","pussy-creampies","uniform","lick","pussy-lick"],"pornstars":["mai-asahina"],"duration":"25:18","quality":"3","year":"0","view":"30,013","viewday":"1","viewweek":"3027","viewmonth":"3025","like":"37","likeday":"1","likeweek":"1","likemonth":"1","published":"2016-04-12","dmca":"0","url":"movie\/mai-asahina-is-fucked-through-stockings.1018.html"},{"id":"1021","name":"Ryuu Narushima with big butt rides dong","image":"http:\/\/statics.javhihi.com\/images\/movies\/javhihi.com-ryuu-narushima-with-big-butt-rides-dong.jpg","image_small":"http:\/\/statics.javhihi.com\/images\/movies\/javhihi.com-ryuu-narushima-with-big-butt-rides-dong.small.jpg","categories":["big-tits","blowjob","hardcore","teen"],"tags":["nice-teen","nice-ass","sexy-dress","busty","fingering","close-up","pink-pussy","pussy-licking","kissing","body-licking","cock-sucking","dick-riding","hardcore-action","doggy-style","tits","lick","pussy-lick"],"pornstars":["ryuu-narushima"],"duration":"38:38","quality":"3","year":"0","view":"41,287","viewday":"552","viewweek":"3293","viewmonth":"3289","like":"51","likeday":"4","likeweek":"5","likemonth":"5","published":"2016-04-12","dmca":"0","url":"movie\/ryuu-narushima-with-big-butt-rides-dong.1021.html"},{"id":"1013","name":"Mai Asahina's Pussy Oozes Cum After A Threesome","image":"http:\/\/statics.javhihi.com\/images\/movies\/javhihi.com-mai-asahina-s-pussy-oozes-cum-after-a-threesome.jpg","image_small":"http:\/\/statics.javhihi.com\/images\/movies\/javhihi.com-mai-asahina-s-pussy-oozes-cum-after-a-threesome.small.jpg","categories":["creampie","footjob","group-sex","hardcore","teen","threesome"],"tags":["nice-teen","group-action","mmf","foot-licking","footjob","kissing","pink-pussy","fingering","cock-sucking","hardcore-action","dick-riding","creamed-pussy","pussy-creampies"],"pornstars":["mai-asahina"],"duration":"38:24","quality":"3","year":"0","view":"73,014","viewday":"1189","viewweek":"6132","viewmonth":"6126","like":"152","likeday":"2","likeweek":"9","likemonth":"9","published":"2016-04-11","dmca":"0","url":"movie\/mai-asahina-s-pussy-oozes-cum-after-a-threesome.1013.html"},{"id":"1014","name":"Mai Asahina has vibrators in hairy cooter","image":"http:\/\/statics.javhihi.com\/images\/movies\/javhihi.com-mai-asahina-has-vibrators-in-hairy-cooter.jpg","image_small":"http:\/\/statics.javhihi.com\/images\/movies\/javhihi.com-mai-asahina-has-vibrators-in-hairy-cooter.small.jpg","categories":["teen","toys"],"tags":["nice-teen","sexy-lingerie","sex-toys","pov","pink-pussy","fingering","speculum","vibrator","gaping-hole","toy-insertion","misc","teen-pussy","pussy"],"pornstars":["mai-asahina"],"duration":"18:25","quality":"3","year":"0","view":"12,080","viewday":"103","viewweek":"521","viewmonth":"520","like":"25","likeday":"0","likeweek":"0","likemonth":"0","published":"2016-04-11","dmca":"0","url":"movie\/mai-asahina-has-vibrators-in-hairy-cooter.1014.html"},{"id":"1010","name":"Innocent Yuki Minami Gets her Hairy Snatch Pounded by a Big Cock","image":"http:\/\/statics.javhihi.com\/images\/movies\/javhihi.com-innocent-yuki-minami-gets-her-hairy-snatch-pounded-by-a-big-cock.jpg","image_small":"http:\/\/statics.javhihi.com\/images\/movies\/javhihi.com-innocent-yuki-minami-gets-her-hairy-snatch-pounded-by-a-big-cock.small.jpg","categories":["big-tits","blowjob","hardcore","maid","teen","tit-fuck"],"tags":["nice-teen","sexy-maid","hand-work","pov","body-licking","cock-sucking","tit-fuck","pink-pussy","fingering","vibrator","busty","hardcore-action","doggy-style","masturbation","tits","uniform"],"pornstars":["yuki-minami"],"duration":"34:08","quality":"3","year":"0","view":"207,179","viewday":"2304","viewweek":"16879","viewmonth":"16851","like":"224","likeday":"4","likeweek":"15","likemonth":"15","published":"2016-04-10","dmca":"0","url":"movie\/innocent-yuki-minami-gets-her-hairy-snatch-pounded-by-a-big-cock.1010.html"},{"id":"1009","name":"Asari Shirahama in a sensual and steamy hardcore action","image":"http:\/\/statics.javhihi.com\/images\/movies\/javhihi.com-asari-shirahama-in-a-sensual-and-steamy-hardcore-action.jpg","image_small":"http:\/\/statics.javhihi.com\/images\/movies\/javhihi.com-asari-shirahama-in-a-sensual-and-steamy-hardcore-action.small.jpg","categories":["blowjob","creampie","hairy-pussy","hardcore","teen"],"tags":["nice-teen","pink-pussy","hairy-pussy","fingering","sex-toys","vibrator","cock-sucking","shower","small-tits","hardcore-action","dick-riding","doggy-style","creamed-pussy","pussy-creampies","teen-pussy","pussy"],"pornstars":["asari-shirahama"],"duration":"32:16","quality":"3","year":"0","view":"18,319","viewday":"220","viewweek":"1210","viewmonth":"1210","like":"22","likeday":"0","likeweek":"4","likemonth":"4","published":"2016-04-10","dmca":"0","url":"movie\/asari-shirahama-in-a-sensual-and-steamy-hardcore-action.1009.html"},{"id":"1011","name":"Noriko Kago gets fondled and fucked in every way!","image":"http:\/\/statics.javhihi.com\/images\/movies\/javhihi.com-noriko-kago-gets-fondled-and-fucked-in-every-way.jpg","image_small":"http:\/\/statics.javhihi.com\/images\/movies\/javhihi.com-noriko-kago-gets-fondled-and-fucked-in-every-way.small.jpg","categories":["creampie","fingering","hairy-pussy","hardcore","teen"],"tags":["nice-teen","cock-sucking","amateur","hairy-pussy","pink-pussy","nice-ass","fingering","sex-toys","vibrator","ass-licking","hardcore-action","doggy-style","creamed-pussy","pussy-creampies","teen-pussy","pussy"],"pornstars":["noriko-kago"],"duration":"42:25","quality":"3","year":"0","view":"55,085","viewday":"847","viewweek":"3721","viewmonth":"3718","like":"118","likeday":"10","likeweek":"17","likemonth":"17","published":"2016-04-10","dmca":"0","url":"movie\/noriko-kago-gets-fondled-and-fucked-in-every-way.1011.html"},{"id":"1000","name":"Koyuki Ono is strongly fucked in hot box","image":"http:\/\/statics.javhihi.com\/images\/movies\/javhihi.com-koyuki-ono-is-strongly-fucked-in-hot-box.jpg","image_small":"http:\/\/statics.javhihi.com\/images\/movies\/javhihi.com-koyuki-ono-is-strongly-fucked-in-hot-box.small.jpg","categories":["creampie","fingering","group-sex","hardcore","teen","threesome"],"tags":["nice-teen","group-action","mmf","pink-pussy","fingering","nice-ass","pussy-stimulation","cock-sucking","double-blowjob","rear-fuck","fuck-on-hands","dick-riding","hardcore-action","creamed-pussy","doggy-style","pussy-creampies"],"pornstars":["koyuki-ono"],"duration":"38:17","quality":"3","year":"0","view":"27,041","viewday":"2","viewweek":"2817","viewmonth":"2816","like":"38","likeday":"0","likeweek":"4","likemonth":"4","published":"2016-04-09","dmca":"0","url":"movie\/koyuki-ono-is-strongly-fucked-in-hot-box.1000.html"},{"id":"1002","name":"Sana Anzyu has chopper in real drilling","image":"http:\/\/statics.javhihi.com\/images\/movies\/javhihi.com-sana-anzyu-has-chopper-in-real-drilling.jpg","image_small":"http:\/\/statics.javhihi.com\/images\/movies\/javhihi.com-sana-anzyu-has-chopper-in-real-drilling.small.jpg","categories":["blowjob","creampie","fingering","hardcore","teen"],"tags":["nice-teen","fingering","nice-ass","cock-sucking","hardcore-action","dick-riding","rear-fuck","creamed-pussy","pussy-creampies"],"pornstars":["sana-anzyu"],"duration":"26:06","quality":"3","year":"0","view":"22,453","viewday":"0","viewweek":"1945","viewmonth":"1944","like":"32","likeday":"0","likeweek":"7","likemonth":"7","published":"2016-04-09","dmca":"0","url":"movie\/sana-anzyu-has-chopper-in-real-drilling.1002.html"},{"id":"997","name":"Japanese Schoolgirl Makoto Kurosaki Sucks Dick in POV JAV Movie","image":"http:\/\/statics.javhihi.com\/images\/movies\/javhihi.com-japanese-schoolgirl-makoto-kurosaki-sucks-dick-in-pov-jav-movie.jpg","image_small":"http:\/\/statics.javhihi.com\/images\/movies\/javhihi.com-japanese-schoolgirl-makoto-kurosaki-sucks-dick-in-pov-jav-movie.small.jpg","categories":["blowjob","fingering","hairy-pussy","pov","schoolgirl","teen"],"tags":["cock-sucking","nice-teen","cum-in-mouth","school-uniform","hairy-pussy","fingering","vibrator","teen-pussy","pussy","uniform"],"pornstars":["makoto-kurosaki"],"duration":"35:14","quality":"1","year":"0","view":"106,321","viewday":"1597","viewweek":"8863","viewmonth":"8856","like":"209","likeday":"4","likeweek":"28","likemonth":"28","published":"2016-04-08","dmca":"0","url":"movie\/japanese-schoolgirl-makoto-kurosaki-sucks-dick-in-pov-jav-movie.997.html"},{"id":"994","name":"Asuka Ayanami screams from strong fuck","image":"http:\/\/statics.javhihi.com\/images\/movies\/javhihi.com-asuka-ayanami-screams-from-strong-fuck.jpg","image_small":"http:\/\/statics.javhihi.com\/images\/movies\/javhihi.com-asuka-ayanami-screams-from-strong-fuck.small.jpg","categories":["creampie","hairy-pussy","hardcore","teen"],"tags":["cock-sucking","nice-teen","hairy-pussy","hardcore-action","fingering","dick-riding","creamed-pussy","pussy-licking","pussy-creampies","pussy","lick","pussy-lick"],"pornstars":["asuka-ayanami"],"duration":"24:31","quality":"3","year":"0","view":"23,314","viewday":"0","viewweek":"1886","viewmonth":"1884","like":"39","likeday":"0","likeweek":"2","likemonth":"2","published":"2016-04-08","dmca":"0","url":"movie\/asuka-ayanami-screams-from-strong-fuck.994.html"},{"id":"985","name":"Rina Yuuki has tits fondled in fucking","image":"http:\/\/statics.javhihi.com\/images\/movies\/javhihi.com-rina-yuuki-has-tits-fondled-in-fucking.jpg","image_small":"http:\/\/statics.javhihi.com\/images\/movies\/javhihi.com-rina-yuuki-has-tits-fondled-in-fucking.small.jpg","categories":["blowjob","creampie","hardcore","teen"],"tags":["hairy-pussy","hardcore-action","pussy-licking","nice-teen","dick-riding","creamed-pussy","pink-pussy","pussy-creampies","lick","pussy-lick"],"pornstars":["rina-yuuki"],"duration":"23:50","quality":"3","year":"0","view":"19,625","viewday":"104","viewweek":"670","viewmonth":"669","like":"17","likeday":"0","likeweek":"0","likemonth":"0","published":"2016-04-06","dmca":"0","url":"movie\/rina-yuuki-has-tits-fondled-in-fucking.985.html"},{"id":"967","name":"A Messy Creampie Is Sayaka Fukuyama's Reward","image":"http:\/\/statics.javhihi.com\/images\/movies\/javhihi.com-a-messy-creampie-is-sayaka-fukuyama-s-reward.jpg","image_small":"http:\/\/statics.javhihi.com\/images\/movies\/javhihi.com-a-messy-creampie-is-sayaka-fukuyama-s-reward.small.jpg","categories":["big-tits","blowjob","group-sex","hardcore","teen","threesome"],"tags":["nice-teen","nice-ass","wet-body","pov","busty","tit-licking","pussy-licking","fingering","gaping-hole","cock-sucking","double-blowjob","doggy-style","rear-fuck","hardcore-action","creamed-pussy","tits"],"pornstars":["sayaka-fukuyama"],"duration":"39:09","quality":"3","year":"0","view":"74,768","viewday":"283","viewweek":"2404","viewmonth":"2402","like":"156","likeday":"0","likeweek":"2","likemonth":"2","published":"2016-04-03","dmca":"0","url":"movie\/a-messy-creampie-is-sayaka-fukuyama-s-reward.967.html"},{"id":"948","name":"Cute and pretty Asian babe Bali gagging and cum swallowing","image":"http:\/\/statics.javhihi.com\/images\/movies\/javhihi.com-cute-and-pretty-asian-babe-bali-gagging-and-cum-swallowing.jpg","image_small":"http:\/\/statics.javhihi.com\/images\/movies\/javhihi.com-cute-and-pretty-asian-babe-bali-gagging-and-cum-swallowing.small.jpg","categories":["big-tits","blowjob","cumshot","shaved-pussy","teen","tit-fuck"],"tags":["nice-teen","busty","pink-pussy","shaved-pussy","posing","nice-ass","cock-sucking","tit-fuck","cum-on-tits","teen-pussy","pussy","tits"],"pornstars":["bali"],"duration":"20:09","quality":"3","year":"0","view":"44,784","viewday":"350","viewweek":"1948","viewmonth":"1948","like":"58","likeday":"1","likeweek":"2","likemonth":"2","published":"2016-03-31","dmca":"0","url":"movie\/cute-and-pretty-asian-babe-bali-gagging-and-cum-swallowing.948.html"},{"id":"941","name":"Mai Shirosaki Fucks And Gets Her Pussy Creamed","image":"http:\/\/statics.javhihi.com\/images\/movies\/javhihi.com-mai-shirosaki-fucks-and-gets-her-pussy-creamed.jpg","image_small":"http:\/\/statics.javhihi.com\/images\/movies\/javhihi.com-mai-shirosaki-fucks-and-gets-her-pussy-creamed.small.jpg","categories":["blowjob","creampie","hardcore","teen"],"tags":["nice-teen","kissing","small-tits","tit-licking","fingering","cock-sucking","hardcore-action","dick-riding","doggy-style","creamed-pussy","cum-eating","creampie-eating","pussy-creampies","tiny-tits","tits"],"pornstars":["mai-shirosaki"],"duration":"36:59","quality":"3","year":"0","view":"44,507","viewday":"323","viewweek":"1840","viewmonth":"1839","like":"64","likeday":"0","likeweek":"2","likemonth":"2","published":"2016-03-30","dmca":"0","url":"movie\/mai-shirosaki-fucks-and-gets-her-pussy-creamed.941.html"}],"total":428,"next_page_url":"movie\/teen.html?sort=published&page=3","page":2,"total_page":18}