{"movies":[{"id":"1153","name":"Kurara Iijima sucks dick and is fingered","image":"http:\/\/statics.javhihi.com\/images\/movies\/javhihi.com-kurara-iijima-sucks-dick-and-is-fingered.jpg","image_small":"http:\/\/statics.javhihi.com\/images\/movies\/javhihi.com-kurara-iijima-sucks-dick-and-is-fingered.small.jpg","categories":["cosplay","creampie","group-sex","lingerie","threesome"],"tags":["nice-teen","sexy-dress","sexy-lingerie","group-action","tit-licking","pussy-licking","nice-ass","cock-sucking","doggy-style","hardcore-action","dick-riding","creamed-pussy","fingering","pussy-creampies","uniform","lick","pussy-lick"],"pornstars":["kurara-iijima"],"duration":"42:19","quality":"3","year":"0","view":"7,761","viewday":"4","viewweek":"7761","viewmonth":"7761","like":"26","likeday":"0","likeweek":"27","likemonth":"27","published":"2016-05-03","dmca":"0","url":"movie\/kurara-iijima-sucks-dick-and-is-fingered.1153.html"},{"id":"773","name":"Real Japanese Girl Gets Fucked Hardcore in XXX JAV Scene","image":"http:\/\/statics.javhihi.com\/images\/movies\/javhihi.com-real-japanese-girl-gets-fucked-hard-in-xxx-jav-scene.jpg","image_small":"http:\/\/statics.javhihi.com\/images\/movies\/javhihi.com-real-japanese-girl-gets-fucked-hard-in-xxx-jav-scene.small.jpg","categories":["blowjob","fingering","hardcore","teen"],"tags":["nice-teen","nice-ass","pussy-licking","fingering","cock-sucking","deep-throat","headfuck","rear-fuck","hardcore-action","lick","pussy-lick"],"pornstars":["sana-anzyu"],"duration":"20:43","quality":"3","year":"0","view":"354,649","viewday":"4264","viewweek":"18083","viewmonth":"18072","like":"610","likeday":"3","likeweek":"27","likemonth":"27","published":"2015-07-31","dmca":"0","url":"movie\/real-japanese-girl-gets-fucked-hardcore-in-xxx-jav-scene.773.html"},{"id":"1142","name":"Cute Yuu Haruka nasty vibrator dildo insertion","image":"http:\/\/statics.javhihi.com\/images\/movies\/javhihi.com-cute-yuu-haruka-nasty-vibrator-dildo-insertion.jpg","image_small":"http:\/\/statics.javhihi.com\/images\/movies\/javhihi.com-cute-yuu-haruka-nasty-vibrator-dildo-insertion.small.jpg","categories":["amateur","big-tits","hardcore","milf","toys"],"tags":["mom","hot-milf","amateur","busty","sex-toys","solo-girl","vibrator","dildo","toy-insertion","tits"],"pornstars":["yuu-haruka"],"duration":"15:24","quality":"3","year":"0","view":"13,884","viewday":"516","viewweek":"13870","viewmonth":"13847","like":"22","likeday":"1","likeweek":"26","likemonth":"26","published":"2016-05-01","dmca":"0","url":"movie\/cute-yuu-haruka-nasty-vibrator-dildo-insertion.1142.html"},{"id":"1084","name":"Yuu Sakura in a hot, horny and hardcore action","image":"http:\/\/statics.javhihi.com\/images\/movies\/javhihi.com-yuu-sakura-in-a-hot-horny-and-hardcore-action.jpg","image_small":"http:\/\/statics.javhihi.com\/images\/movies\/javhihi.com-yuu-sakura-in-a-hot-horny-and-hardcore-action.small.jpg","categories":["blowjob","creampie","group-sex","threesome","toys"],"tags":["cock-sucking","hot-milf","hairy-pussy","hardcore-action","doggy-style","toy-insertion","vibrator","group-action","creamed-pussy","pussy-creampies"],"pornstars":["yuu-sakura"],"duration":"28:17","quality":"3","year":"0","view":"96,900","viewday":"13","viewweek":"19513","viewmonth":"19500","like":"174","likeday":"0","likeweek":"26","likemonth":"26","published":"2016-04-21","dmca":"0","url":"movie\/yuu-sakura-in-a-hot-horny-and-hardcore-action.1084.html"},{"id":"1083","name":"Toys Fucking Hina Maeda's Pussy Makes Her Squirt","image":"http:\/\/statics.javhihi.com\/images\/movies\/javhihi.com-toys-fucking-hina-maeda-s-pussy-makes-her-squirt.jpg","image_small":"http:\/\/statics.javhihi.com\/images\/movies\/javhihi.com-toys-fucking-hina-maeda-s-pussy-makes-her-squirt.small.jpg","categories":["amateur","big-tits","shaved-pussy","teen","toys"],"tags":["nice-teen","amateur","busty","shaved-pussy","pink-pussy","dildo","sex-toys","toy-insertion","teen-pussy","pussy","tits"],"pornstars":["hina-maeda"],"duration":"20:30","quality":"3","year":"0","view":"51,979","viewday":"1557","viewweek":"8132","viewmonth":"8122","like":"137","likeday":"3","likeweek":"26","likemonth":"26","published":"2016-04-21","dmca":"0","url":"movie\/toys-fucking-hina-maeda-s-pussy-makes-her-squirt.1083.html"},{"id":"1145","name":"Busty MILF Ruri Hayami's Hairy Pussy Creampied","image":"http:\/\/statics.javhihi.com\/images\/movies\/javhihi.com-busty-milf-ruri-hayami-s-hairy-pussy-creampied.jpg","image_small":"http:\/\/statics.javhihi.com\/images\/movies\/javhihi.com-busty-milf-ruri-hayami-s-hairy-pussy-creampied.small.jpg","categories":["blowjob","creampie","hardcore"],"tags":["hot-milf","busty","kissing","sexy-lingerie","fingering","cock-sucking","pussy-licking","69","nice-ass","hardcore-action","dick-riding","deep-penetration","creamed-pussy","pussy-creampies","lick","pussy-lick"],"pornstars":["ruri-hayami"],"duration":"29:34","quality":"3","year":"0","view":"11,150","viewday":"1145","viewweek":"11150","viewmonth":"11150","like":"18","likeday":"1","likeweek":"25","likemonth":"25","published":"2016-05-02","dmca":"0","url":"movie\/busty-milf-ruri-hayami-s-hairy-pussy-creampied.1145.html"},{"id":"1044","name":"Akina Hara licks and sucks two shlongs","image":"http:\/\/statics.javhihi.com\/images\/movies\/javhihi.com-akina-hara-licks-and-sucks-two-shlongs.jpg","image_small":"http:\/\/statics.javhihi.com\/images\/movies\/javhihi.com-akina-hara-licks-and-sucks-two-shlongs.small.jpg","categories":["blowjob","creampie","group-sex","hardcore","teen","threesome"],"tags":["nice-teen","hairy-pussy","transparent-lingerie","swimsuit","group-action","mmf","pussy-licking","fingering","cock-sucking","headfuck","ball-licking","hardcore-action","nice-ass","dick-riding","stand-fucking","rear-fuck","creamed-pussy","pussy-creampies"],"pornstars":["akina-hara"],"duration":"37:23","quality":"3","year":"0","view":"63,646","viewday":"1799","viewweek":"9696","viewmonth":"9685","like":"112","likeday":"0","likeweek":"25","likemonth":"25","published":"2016-04-16","dmca":"0","url":"movie\/akina-hara-licks-and-sucks-two-shlongs.1044.html"},{"id":"2293","name":"Asian blow job to get young Koyuki Ono started ","image":"http:\/\/statics.javhihi.com\/images\/movies\/javhihi.com-asian-blow-job-to-get-young-koyuki-ono-started.jpg","image_small":"http:\/\/statics.javhihi.com\/images\/movies\/javhihi.com-asian-blow-job-to-get-young-koyuki-ono-started.small.jpg","categories":["blowjob","creampie","hardcore","teen"],"tags":["nice-teen","cock-sucking","nice-ass","kissing","fingering","hardcore-action","deep-penetration","creamed-pussy"],"pornstars":["koyuki-ono"],"duration":"26:48","quality":"3","year":"0","view":"49,215","viewday":"2376","viewweek":"27070","viewmonth":"27070","like":"40","likeday":"0","likeweek":"25","likemonth":"25","published":"2015-07-31","dmca":"0","url":"movie\/asian-blow-job-to-get-young-koyuki-ono-started.2293.html"},{"id":"1151","name":"Kyouka Mizusawa has mouth and cunt fucked","image":"http:\/\/statics.javhihi.com\/images\/movies\/javhihi.com-kyouka-mizusawa-has-mouth-and-cunt-fucked.jpg","image_small":"http:\/\/statics.javhihi.com\/images\/movies\/javhihi.com-kyouka-mizusawa-has-mouth-and-cunt-fucked.small.jpg","categories":["blowjob","creampie","group-sex","hardcore","teen","threesome"],"tags":["nice-teen","group-action","kissing","busty","hairy-pussy","pussy-licking","tit-licking","nice-ass","fingering","cock-sucking","double-blowjob","hardcore-action","deep-penetration","creamed-pussy","pussy-creampies"],"pornstars":["kyouka-mizusawa"],"duration":"42:51","quality":"3","year":"0","view":"15,642","viewday":"4","viewweek":"15642","viewmonth":"15642","like":"23","likeday":"0","likeweek":"24","likemonth":"24","published":"2016-05-03","dmca":"0","url":"movie\/kyouka-mizusawa-has-mouth-and-cunt-fucked.1151.html"},{"id":"1107","name":"Two Guys Fuck Sana Anju's Tight Holes In Class","image":"http:\/\/statics.javhihi.com\/images\/movies\/javhihi.com-two-guys-fuck-sana-anju-s-tight-holes-in-class.jpg","image_small":"http:\/\/statics.javhihi.com\/images\/movies\/javhihi.com-two-guys-fuck-sana-anju-s-tight-holes-in-class.small.jpg","categories":["anal","creampie","group-sex","threesome","toys"],"tags":["nice-teen","school-uniform","group-action","mmf","pink-pussy","fingering","ass-insertion","anal-penetration","sex-toys","vibrator","toy-insertion","nice-ass","cock-sucking","rear-fuck","stand-fucking","doggy-style","creamed-pussy","creamed-ass","anal-creampie","pussy-creampies","misc"],"pornstars":["sana-anzyu"],"duration":"49:14","quality":"3","year":"0","view":"40,204","viewday":"18","viewweek":"10158","viewmonth":"10152","like":"88","likeday":"0","likeweek":"24","likemonth":"24","published":"2016-04-25","dmca":"0","url":"movie\/two-guys-fuck-sana-anju-s-tight-holes-in-class.1107.html"},{"id":"1046","name":"Satomi Suzuki busty is fucked like crazy","image":"http:\/\/statics.javhihi.com\/images\/movies\/javhihi.com-satomi-suzuki-busty-is-fucked-like-crazy.jpg","image_small":"http:\/\/statics.javhihi.com\/images\/movies\/javhihi.com-satomi-suzuki-busty-is-fucked-like-crazy.small.jpg","categories":["big-tits","blowjob","hairy-pussy","hardcore","teen"],"tags":["nice-teen","busty","hairy-pussy","pussy-stimulation","fingering","cock-sucking","nice-ass","dick-riding","hardcore-action","doggy-style","teen-pussy","pussy","tits"],"pornstars":["satomi-suzuki"],"duration":"23:43","quality":"3","year":"0","view":"121,263","viewday":"3161","viewweek":"14959","viewmonth":"14948","like":"209","likeday":"3","likeweek":"24","likemonth":"24","published":"2016-04-16","dmca":"0","url":"movie\/satomi-suzuki-busty-is-fucked-like-crazy.1046.html"},{"id":"855","name":"Maria Ozawa's Threesome With A Messy Creampie","image":"http:\/\/statics.javhihi.com\/images\/movies\/javhihi.com-maria-ozawa-s-threesome-ends-with-a-messy-creampie.jpg","image_small":"http:\/\/statics.javhihi.com\/images\/movies\/javhihi.com-maria-ozawa-s-threesome-ends-with-a-messy-creampie.small.jpg","categories":["big-tits","creampie","group-sex","stockings","threesome"],"tags":["nice-teen","busty","sexy-stockings","high-heels","tattoo","group-action","mmf","pink-pussy","pussy-licking","nice-ass","cock-sucking","dick-riding","hardcore-action","creamed-pussy","pussy-creampies","tits","uniform"],"pornstars":["maria-ozawa"],"duration":"33:50","quality":"3","year":"0","view":"289,685","viewday":"1959","viewweek":"11169","viewmonth":"11160","like":"540","likeday":"6","likeweek":"24","likemonth":"24","published":"2015-07-31","dmca":"0","url":"movie\/maria-ozawa-s-threesome-with-a-messy-creampie.855.html"},{"id":"158","name":"Satomi Suzuki licks 2 erect penises","image":"http:\/\/statics.javhihi.com\/images\/movies\/javhihi.com-satomi-suzuki-licks-two-erect-penises.jpg","image_small":"http:\/\/statics.javhihi.com\/images\/movies\/javhihi.com-satomi-suzuki-licks-two-erect-penises.small.jpg","categories":["blowjob","creampie","group-sex","hardcore","teen","threesome"],"tags":["nice-teen","group-action","mmf","pussy-licking","busty","69","cock-sucking","fingering","hairy-pussy","tit-fuck","hardcore-action","doggy-style","rear-fuck","dick-riding","creamed-pussy","pussy-creampies"],"pornstars":["satomi-suzuki"],"duration":"42:23","quality":"3","year":"0","view":"175,318","viewday":"4","viewweek":"14145","viewmonth":"14126","like":"291","likeday":"0","likeweek":"23","likemonth":"23","published":"2015-11-27","dmca":"0","url":"movie\/satomi-suzuki-licks-2-erect-penises.158.html"},{"id":"1908","name":"Ameri Ichinose gives a asian blowjob and gets rammed in bondage","image":"http:\/\/statics.javhihi.com\/images\/movies\/javhihi.com-ameri-ichinose-gives-a-japanese-blow-job-and-gets-rammed-in-bondage.jpg","image_small":"http:\/\/statics.javhihi.com\/images\/movies\/javhihi.com-ameri-ichinose-gives-a-japanese-blow-job-and-gets-rammed-in-bondage.small.jpg","categories":["blowjob","hardcore","lingerie","milf"],"tags":["mom","bondage","pussy-licking","fingering","ball-licking","dick-riding"],"pornstars":["ameri-ichinose"],"duration":"26:18","quality":"3","year":"0","view":"328,716","viewday":"1450","viewweek":"7350","viewmonth":"7343","like":"325","likeday":"14","likeweek":"22","likemonth":"22","published":"2015-10-01","dmca":"0","url":"movie\/ameri-ichinose-gives-a-asian-blowjob-and-gets-rammed-in-bondage.1908.html"},{"id":"1144","name":"Big Titted Hitomi Araki Gives A POV Blowjob","image":"http:\/\/statics.javhihi.com\/images\/movies\/javhihi.com-big-titted-hitomi-araki-gives-a-pov-blowjob.jpg","image_small":"http:\/\/statics.javhihi.com\/images\/movies\/javhihi.com-big-titted-hitomi-araki-gives-a-pov-blowjob.small.jpg","categories":["big-tits","blowjob","cumshot","hardcore","milf","pov","tit-fuck"],"tags":["mom","hot-milf","sexy-lingerie","busty","tit-licking","cock-sucking","tit-fuck","pov","cum-in-mouth","tits"],"pornstars":["araki-hitomi"],"duration":"17:04","quality":"3","year":"0","view":"12,038","viewday":"618","viewweek":"12029","viewmonth":"12009","like":"15","likeday":"0","likeweek":"21","likemonth":"21","published":"2016-05-01","dmca":"0","url":"movie\/big-titted-hitomi-araki-gives-a-pov-blowjob.1144.html"},{"id":"202","name":"Maria Ozawa is receiving seriously hardcore fuck treatment","image":"http:\/\/statics.javhihi.com\/images\/movies\/javhihi.com-bound-maria-ozawa-is-receiving-seriously-hardcore-treatment.jpg","image_small":"http:\/\/statics.javhihi.com\/images\/movies\/javhihi.com-bound-maria-ozawa-is-receiving-seriously-hardcore-treatment.small.jpg","categories":["creampie","group-sex","hardcore","lingerie","teen"],"tags":["leather-lingerie","busty","tit-squeezing","hairy-pussy","pink-pussy","fingering","sex-toys","vibrator","oiled-body","nice-ass","cock-sucking","hardcore-action","doggy-style","double-blowjob","dick-riding","creamed-pussy","pussy-creampies","uniform"],"pornstars":["maria-ozawa"],"duration":"39:42","quality":"3","year":"0","view":"244,041","viewday":"2160","viewweek":"10900","viewmonth":"10895","like":"486","likeday":"0","likeweek":"21","likemonth":"21","published":"2015-12-04","dmca":"0","url":"movie\/maria-ozawa-is-receiving-seriously-hardcore-fuck-treatment.202.html"},{"id":"2439","name":"Cute Milf Yui Kasuga loves to show off her sexy stockings","image":"http:\/\/statics.javhihi.com\/images\/movies\/javhihi.com-cute-milf-yui-kasuga-loves-to-show-off-her-sexy-stockings.jpg","image_small":"http:\/\/statics.javhihi.com\/images\/movies\/javhihi.com-cute-milf-yui-kasuga-loves-to-show-off-her-sexy-stockings.small.jpg","categories":["creampie","hardcore","pov","stockings"],"tags":["doggy-style","amateur","dick-riding","fingering","cock-sucking","sexy-pantyhose","hot-milf"],"pornstars":["yui-kasuga"],"duration":"30:45","quality":"3","year":"0","view":"75,470","viewday":"531","viewweek":"2890","viewmonth":"2887","like":"67","likeday":"16","likeweek":"21","likemonth":"21","published":"2015-07-31","dmca":"1","url":"movie\/cute--milf-yui-kasuga-loves-to-show-off-her-sexy-stockings.2439.html"},{"id":"1156","name":"Gorgeous Japanese Teen Suzu Minamoto Vibrates to Orgasm","image":"http:\/\/statics.javhihi.com\/images\/movies\/javhihi.com-gorgeous-japanese-teen-suzu-minamoto-vibrates-to-orgasm.jpg","image_small":"http:\/\/statics.javhihi.com\/images\/movies\/javhihi.com-gorgeous-japanese-teen-suzu-minamoto-vibrates-to-orgasm.small.jpg","categories":["amateur","hairy-pussy","masturbation","teen","toys"],"tags":["solo-girl","nice-teen","hairy-pussy","vibrator","toy-insertion","amateur","teen-pussy","pussy"],"pornstars":["suzu-minamoto"],"duration":"9:33","quality":"3","year":"0","view":"9,672","viewday":"2","viewweek":"9672","viewmonth":"9672","like":"14","likeday":"0","likeweek":"20","likemonth":"20","published":"2016-05-03","dmca":"0","url":"movie\/gorgeous-japanese-teen-suzu-minamoto-vibrates-to-orgasm.1156.html"},{"id":"1146","name":"Hot fuck babe in lingerie rubbing and dildo plugging her snatch","image":"http:\/\/statics.javhihi.com\/images\/movies\/javhihi.com-hot-fuck-babe-in-lingerie-rubbing-and-dildo-plugging-her-snatch.jpg","image_small":"http:\/\/statics.javhihi.com\/images\/movies\/javhihi.com-hot-fuck-babe-in-lingerie-rubbing-and-dildo-plugging-her-snatch.small.jpg","categories":["amateur","hardcore","lingerie","milf","toys"],"tags":["mom","hot-milf","amateur","sexy-lingerie","masturbation","sex-toys","dildo","toy-insertion","high-heels","uniform"],"pornstars":["ruhime-maiori"],"duration":"10:02","quality":"3","year":"0","view":"8,614","viewday":"12","viewweek":"8614","viewmonth":"8614","like":"18","likeday":"0","likeweek":"20","likemonth":"20","published":"2016-05-02","dmca":"0","url":"movie\/hot-fuck-babe-in-lingerie-rubbing-and-dildo-plugging-her-snatch.1146.html"},{"id":"1038","name":"Pretty JAV Star Nana Oshikiri Fucked Doggy Style and Creamed","image":"http:\/\/statics.javhihi.com\/images\/movies\/javhihi.com-pretty-jav-star-nana-oshikiri-fucked-doggy-style-and-creamed.jpg","image_small":"http:\/\/statics.javhihi.com\/images\/movies\/javhihi.com-pretty-jav-star-nana-oshikiri-fucked-doggy-style-and-creamed.small.jpg","categories":["big-tits","hairy-pussy","hardcore"],"tags":["busty","sexy-lingerie","pink-pussy","hairy-pussy","tit-licking","pussy-licking","fingering","cock-sucking","69","dick-riding","hardcore-action","doggy-style","creamed-pussy","pussy","tits","lick","pussy-lick"],"pornstars":["nana-oshikiri"],"duration":"30:04","quality":"3","year":"0","view":"61,989","viewday":"1277","viewweek":"7758","viewmonth":"7753","like":"127","likeday":"1","likeweek":"20","likemonth":"19","published":"2016-04-15","dmca":"0","url":"movie\/pretty-jav-star-nana-oshikiri-fucked-doggy-style-and-creamed.1038.html"},{"id":"196","name":"Give Maria Ozawa a good licking and shell do everything","image":"http:\/\/statics.javhihi.com\/images\/movies\/javhihi.com-give-maria-ozawa-a-good-licking-and-shell-do-everything.jpg","image_small":"http:\/\/statics.javhihi.com\/images\/movies\/javhihi.com-give-maria-ozawa-a-good-licking-and-shell-do-everything.small.jpg","categories":["bikini","blowjob","creampie","hardcore","lingerie","teen"],"tags":["busty","sexy-lingerie","tit-squeezing","tit-licking","close-up","pussy-licking","fingering","kissing","cock-sucking","hardcore-action","dick-riding","hairy-pussy","nice-ass","creamed-pussy","pussy-creampies","uniform"],"pornstars":["maria-ozawa"],"duration":"28:58","quality":"3","year":"0","view":"217,706","viewday":"985","viewweek":"6152","viewmonth":"6151","like":"323","likeday":"3","likeweek":"20","likemonth":"20","published":"2015-12-03","dmca":"1","url":"movie\/give--maria-ozawa-a-good-licking-and-shell-do-everything.196.html"},{"id":"1168","name":"Marika is so erotic licking hard penis","image":"http:\/\/statics.javhihi.com\/images\/movies\/javhihi.com-marika-is-so-erotic-licking-hard-penis.jpg","image_small":"http:\/\/statics.javhihi.com\/images\/movies\/javhihi.com-marika-is-so-erotic-licking-hard-penis.small.jpg","categories":["blowjob","cumshot","handjob","pov","teen"],"tags":["nice-teen","pov","kimono","cock-sucking","hand-work","nice-ass","cum-in-mouth","teen-pussy","pussy"],"pornstars":["marika"],"duration":"12:51","quality":"3","year":"0","view":"10,489","viewday":"0","viewweek":"10489","viewmonth":"10489","like":"15","likeday":"0","likeweek":"17","likemonth":"17","published":"2016-05-05","dmca":"0","url":"movie\/marika-is-so-erotic-licking-hard-penis.1168.html"},{"id":"1164","name":"Yume Sazanami nurse sucks strong penis","image":"http:\/\/statics.javhihi.com\/images\/movies\/javhihi.com-yume-sazanami-nurse-sucks-strong-penis.jpg","image_small":"http:\/\/statics.javhihi.com\/images\/movies\/javhihi.com-yume-sazanami-nurse-sucks-strong-penis.small.jpg","categories":["cumshot","hardcore","lingerie","milf","nurse","tit-fuck"],"tags":["mom","hot-milf","wild-nurse","sexy-lingerie","huge-boobs","cock-sucking","pov","tit-fuck","cum-on-tits","shower","soaping","huge-tits","tits","uniform"],"pornstars":["yume-sazanami"],"duration":"18:25","quality":"3","year":"0","view":"10,132","viewday":"1","viewweek":"10132","viewmonth":"10132","like":"16","likeday":"0","likeweek":"17","likemonth":"17","published":"2016-05-05","dmca":"0","url":"movie\/yume-sazanami-nurse-sucks-strong-penis.1164.html"},{"id":"1032","name":"Japanese Girl Nene Masaki Takes Three Guys at Once in JAV Foursome","image":"http:\/\/statics.javhihi.com\/images\/movies\/javhihi.com-japanese-girl-nene-masaki-takes-three-guys-at-once-in-jav-foursome.jpg","image_small":"http:\/\/statics.javhihi.com\/images\/movies\/javhihi.com-japanese-girl-nene-masaki-takes-three-guys-at-once-in-jav-foursome.small.jpg","categories":["anal","creampie","double-penetration","gang-bang","group-sex","shaved-pussy","teen"],"tags":["nice-teen","group-action","wild-gang","pink-pussy","shaved-pussy","close-up","fingering","anal-penetration","cock-sucking","busty","doggy-style","hardcore-action","double-penetration","creamed-ass","anal-creampie","teen-pussy","pussy"],"pornstars":["nene-masaki"],"duration":"40:45","quality":"3","year":"0","view":"88,553","viewday":"1400","viewweek":"8556","viewmonth":"8553","like":"133","likeday":"6","likeweek":"17","likemonth":"17","published":"2016-04-14","dmca":"0","url":"movie\/japanese-girl-nene-masaki-takes-three-guys-at-once-in-jav-foursome.1032.html"}],"total":1939,"next_page_url":"movie?sort=likeweek&page=3","page":2,"total_page":81}