{"movies":[{"id":"121","name":"Ramu Nagatsuki has strong fucking hard of her twat","image":"http:\/\/statics.javhihi.com\/images\/movies\/javhihi.com-ramu-nagatsuki-has-strong-fucking-of-her-twat.jpg","image_small":"http:\/\/statics.javhihi.com\/images\/movies\/javhihi.com-ramu-nagatsuki-has-strong-fucking-of-her-twat.small.jpg","categories":["blowjob","creampie","hairy-pussy","hardcore","teen"],"tags":["nice-teen","long-hair","sexy-lingerie","busty","tit-licking","tit-squeezing","hairy-pussy","pussy-licking","cock-sucking","pov","hand-work","hardcore-action","doggy-style","dick-riding","creamed-pussy","pussy-creampies","teen-pussy","pussy"],"pornstars":["ramu-nagatsuki"],"duration":"33:40","quality":"3","year":"0","view":"137,167","viewday":"710","viewweek":"3519","viewmonth":"3513","like":"309","likeday":"1","likeweek":"9","likemonth":"9","published":"2015-11-21","dmca":"0","url":"movie\/ramu-nagatsuki-has-strong-fucking-hard-of-her-twat.121.html"},{"id":"318","name":"Shizuku Morino gets a very nice creamed pussy","image":"http:\/\/statics.javhihi.com\/images\/movies\/javhihi.com-shizuku-morino-gets-a-very-nice-creamed-pussy.jpg","image_small":"http:\/\/statics.javhihi.com\/images\/movies\/javhihi.com-shizuku-morino-gets-a-very-nice-creamed-pussy.small.jpg","categories":["big-tits","hardcore","schoolgirl","teen","tit-fuck"],"tags":["nice-teen","school-uniform","busty","tit-squeezing","pink-pussy","fingering","cock-sucking","ball-licking","vibrator","sex-toys","tit-fuck","hardcore-action","dick-riding","doggy-style","creamed-pussy","teen-pussy","pussy","tits","uniform"],"pornstars":["shizuku-morino"],"duration":"57:10","quality":"3","year":"0","view":"185,958","viewday":"858","viewweek":"5254","viewmonth":"5247","like":"307","likeday":"0","likeweek":"4","likemonth":"4","published":"2015-12-24","dmca":"1","url":"movie\/shizuku--morino-gets-a-very-nice-creamed-pussy.318.html"},{"id":"158","name":"Satomi Suzuki licks 2 erect penises","image":"http:\/\/statics.javhihi.com\/images\/movies\/javhihi.com-satomi-suzuki-licks-two-erect-penises.jpg","image_small":"http:\/\/statics.javhihi.com\/images\/movies\/javhihi.com-satomi-suzuki-licks-two-erect-penises.small.jpg","categories":["blowjob","creampie","group-sex","hardcore","teen","threesome"],"tags":["nice-teen","group-action","mmf","pussy-licking","busty","69","cock-sucking","fingering","hairy-pussy","tit-fuck","hardcore-action","doggy-style","rear-fuck","dick-riding","creamed-pussy","pussy-creampies"],"pornstars":["satomi-suzuki"],"duration":"42:23","quality":"3","year":"0","view":"175,318","viewday":"4","viewweek":"14145","viewmonth":"14126","like":"291","likeday":"0","likeweek":"23","likemonth":"23","published":"2015-11-27","dmca":"0","url":"movie\/satomi-suzuki-licks-2-erect-penises.158.html"},{"id":"2336","name":"Yui Hatano gives an asian blowjob and gives up her pussy in a group sex","image":"http:\/\/statics.javhihi.com\/images\/movies\/javhihi.com-yui-hatano-gives-an-asian-blowjob-and-gives-up-her-pussy-in-a-threesome.jpg","image_small":"http:\/\/statics.javhihi.com\/images\/movies\/javhihi.com-yui-hatano-gives-an-asian-blowjob-and-gives-up-her-pussy-in-a-threesome.small.jpg","categories":["blowjob","creampie","cumshot","milf","threesome"],"tags":["mom","sexy-lingerie","pussy-licking","headfuck","mmf","dick-riding","rear-fuck","cum-in-mouth","creamed-pussy"],"pornstars":["yui-hatano"],"duration":"27:55","quality":"3","year":"0","view":"300,016","viewday":"1362","viewweek":"7931","viewmonth":"7929","like":"284","likeday":"0","likeweek":"7","likemonth":"7","published":"2015-07-31","dmca":"0","url":"movie\/yui-hatano-gives-an-asian-blowjob-and-gives-up-her-pussy-in-a-group-sex.2336.html"},{"id":"1815","name":"Maomi Nagasawa's asian blowjob leads to hard sex","image":"http:\/\/statics.javhihi.com\/images\/movies\/javhihi.com-maomi-nagasawa-s-asian-blow-job-leads-to-hard-sex.jpg","image_small":"http:\/\/statics.javhihi.com\/images\/movies\/javhihi.com-maomi-nagasawa-s-asian-blow-job-leads-to-hard-sex.small.jpg","categories":["blowjob","creampie","group-sex","hardcore","lingerie"],"tags":["hot-milf","sexy-lingerie","group-action","nice-ass","fingering","cock-sucking","hand-work","hardcore-action","dick-riding","doggy-style","creamed-pussy"],"pornstars":["maomi-nagasawa"],"duration":"34:30","quality":"3","year":"0","view":"169,244","viewday":"723","viewweek":"4034","viewmonth":"4029","like":"283","likeday":"1","likeweek":"4","likemonth":"4","published":"2015-09-05","dmca":"0","url":"movie\/maomi-nagasawa-s-asian-blowjob-leads-to-hard-sex.1815.html"},{"id":"162","name":"Suzuki Satomi gives full service to a cock with her body","image":"http:\/\/statics.javhihi.com\/images\/movies\/javhihi.com-suzuki-satomi-gives-full-service-to-a-cock-with-her-body.jpg","image_small":"http:\/\/statics.javhihi.com\/images\/movies\/javhihi.com-suzuki-satomi-gives-full-service-to-a-cock-with-her-body.small.jpg","categories":["big-tits","creampie","footjob","hardcore","teen","tit-fuck"],"tags":["hot-milf","sexy-lingerie","busty","cock-sucking","tit-fuck","footjob","nice-ass","petting","hardcore-action","pov","dick-riding","hairy-pussy","creamed-pussy","pussy-creampies","tits"],"pornstars":["satomi-suzuki"],"duration":"23:05","quality":"3","year":"0","view":"126,629","viewday":"602","viewweek":"3460","viewmonth":"3456","like":"279","likeday":"1","likeweek":"5","likemonth":"5","published":"2015-11-28","dmca":"1","url":"movie\/suzuki--satomi-gives-full-service-to-a-cock-with-her-body.162.html"},{"id":"874","name":"Yui Hatano screams in deep rough fucking","image":"http:\/\/statics.javhihi.com\/images\/movies\/javhihi.com-yui-hatano-screams-in-deep-rough-fucking.jpg","image_small":"http:\/\/statics.javhihi.com\/images\/movies\/javhihi.com-yui-hatano-screams-in-deep-rough-fucking.small.jpg","categories":["blowjob","hardcore","stockings","teen"],"tags":["nice-teen","sexy-stockings","pussy-stimulation","busty","pussy-licking","fingering","body-licking","cock-sucking","hardcore-action","rear-fuck","uniform","lick","pussy-lick"],"pornstars":["yui-hatano"],"duration":"32:16","quality":"3","year":"0","view":"276,134","viewday":"994","viewweek":"7587","viewmonth":"7578","like":"279","likeday":"1","likeweek":"8","likemonth":"8","published":"2015-07-31","dmca":"1","url":"movie\/yui--hatano-screams-in-deep-rough-fucking.874.html"},{"id":"1738","name":"Sexy Girl From Asia Nozomi Ayuchi in Hardcore Threesome Video","image":"http:\/\/statics.javhihi.com\/images\/movies\/javhihi.com-sexy-girl-from-asia-nozomi-ayuchi-in-hardcore-threesome.jpg","image_small":"http:\/\/statics.javhihi.com\/images\/movies\/javhihi.com-sexy-girl-from-asia-nozomi-ayuchi-in-hardcore-threesome.small.jpg","categories":["blowjob","creampie","group-sex","teen"],"tags":["threesome","nice-teen","tit-licking","hairy-pussy","pussy-licking","fingering","double-blowjob","hand-work","dick-riding","deep-penetration","creamed-pussy"],"pornstars":["nozomi-aiuchi"],"duration":"36:14","quality":"3","year":"0","view":"121,216","viewday":"407","viewweek":"1982","viewmonth":"1982","like":"263","likeday":"2","likeweek":"3","likemonth":"3","published":"2015-08-24","dmca":"0","url":"movie\/sexy-girl-from-asia-nozomi-ayuchi-in-hardcore-threesome-video.1738.html"},{"id":"1954","name":"Ameri Ichinose gets ravished in japanese gang bang","image":"http:\/\/statics.javhihi.com\/images\/movies\/javhihi.com-ameri-ichinose-gets-ravished-in-asian-gang-bang.jpg","image_small":"http:\/\/statics.javhihi.com\/images\/movies\/javhihi.com-ameri-ichinose-gets-ravished-in-asian-gang-bang.small.jpg","categories":["blowjob","fingering","milf","squirting","threesome"],"tags":["mom","mmf","doggy-style","stand-fucking","creamed-pussy","hardcore-action"],"pornstars":["ameri-ichinose"],"duration":"33:36","quality":"3","year":"0","view":"713,892","viewday":"1693","viewweek":"8769","viewmonth":"8755","like":"256","likeday":"5","likeweek":"15","likemonth":"15","published":"2015-10-16","dmca":"0","url":"movie\/ameri-ichinose-gets-ravished-in-japanese-gang-bang.1954.html"},{"id":"955","name":"Japanese Pornstar Akari Asagiri Squirts From Finger Fucking","image":"http:\/\/statics.javhihi.com\/images\/movies\/javhihi.com-japanese-pornstar-akari-asagiri-squirts-from-finger-fucking.jpg","image_small":"http:\/\/statics.javhihi.com\/images\/movies\/javhihi.com-japanese-pornstar-akari-asagiri-squirts-from-finger-fucking.small.jpg","categories":["amateur","big-tits","blowjob","hardcore"],"tags":["hot-milf","housewife","pov","amateur","busty","cock-sucking","pussy-licking","hardcore-action","dick-riding","doggy-style","nice-ass","creamed-pussy","tits"],"pornstars":["akari-asagiri"],"duration":"26:19","quality":"3","year":"0","view":"269,041","viewday":"1193","viewweek":"5118","viewmonth":"5115","like":"247","likeday":"2","likeweek":"4","likemonth":"4","published":"2016-04-01","dmca":"0","url":"movie\/japanese-pornstar-akari-asagiri-squirts-from-finger-fucking.955.html"},{"id":"1805","name":"Ameri Ichinose pounded in stockings after an asian blowjob","image":"http:\/\/statics.javhihi.com\/images\/movies\/javhihi.com-ameri-ichinose-pounded-in-stockings-after-an-asian-blow-job.jpg","image_small":"http:\/\/statics.javhihi.com\/images\/movies\/javhihi.com-ameri-ichinose-pounded-in-stockings-after-an-asian-blow-job.small.jpg","categories":["blowjob","creampie","hardcore","milf","stockings"],"tags":["mom","sexy-dress","fishnet-stockings","fingering","rear-fuck","dick-riding"],"pornstars":["ameri-ichinose"],"duration":"31:53","quality":"3","year":"0","view":"760,615","viewday":"1919","viewweek":"7197","viewmonth":"7190","like":"247","likeday":"0","likeweek":"4","likemonth":"4","published":"2015-09-01","dmca":"0","url":"movie\/ameri-ichinose-pounded-in-stockings-after-an-asian-blowjob.1805.html"},{"id":"187","name":"Karen has vagina screwed more and more","image":"http:\/\/statics.javhihi.com\/images\/movies\/javhihi.com-karen-has-vagina-screwed-more-and-more.jpg","image_small":"http:\/\/statics.javhihi.com\/images\/movies\/javhihi.com-karen-has-vagina-screwed-more-and-more.small.jpg","categories":["anal","creampie","double-penetration","group-sex","threesome"],"tags":["kimono","nice-teen","group-action","mmf","pink-pussy","close-up","fingering","nice-ass","cock-sucking","headfuck","double-blowjob","hardcore-action","doggy-style","dick-riding","deep-penetration","creamed-ass","creamed-pussy","anal-creampie","pussy-creampies","uniform"],"pornstars":["karen"],"duration":"36:11","quality":"3","year":"0","view":"137,045","viewday":"2","viewweek":"8953","viewmonth":"8935","like":"245","likeday":"0","likeweek":"10","likemonth":"10","published":"2015-12-02","dmca":"1","url":"movie\/karen--has-vagina-screwed-more-and-more.187.html"},{"id":"2487","name":"Yui Hatano earns a creampie after giving an asian blowjob","image":"http:\/\/statics.javhihi.com\/images\/movies\/javhihi.com-yui-hatano-earns-a-creampie-after-giving-an-asian-blowjob.jpg","image_small":"http:\/\/statics.javhihi.com\/images\/movies\/javhihi.com-yui-hatano-earns-a-creampie-after-giving-an-asian-blowjob.small.jpg","categories":["blowjob","creampie","handjob","hardcore","milf"],"tags":["mom","tit-licking","fingering","position-69","creamed-pussy"],"pornstars":["yui-hatano"],"duration":"26:57","quality":"3","year":"0","view":"185,848","viewday":"1237","viewweek":"6679","viewmonth":"6673","like":"240","likeday":"1","likeweek":"9","likemonth":"9","published":"2015-07-31","dmca":"1","url":"movie\/yui--hatano-earns-a-creampie-after-giving-an-asian-blowjob.2487.html"},{"id":"553","name":"Wild Araki Hitomi gives the best head ever","image":"http:\/\/statics.javhihi.com\/images\/movies\/javhihi.com-wild-araki-hitomi-gives-the-best-head-ever.jpg","image_small":"http:\/\/statics.javhihi.com\/images\/movies\/javhihi.com-wild-araki-hitomi-gives-the-best-head-ever.small.jpg","categories":["big-tits","creampie","group-sex","hardcore","threesome","tit-fuck"],"tags":["hot-mature","amateur","group-action","mmf","tit-licking","fingering","pussy-licking","pink-pussy","cock-sucking","tit-fuck","hand-work","doggy-style","hardcore-action","dick-riding","creamed-pussy","pussy-creampies","tits"],"pornstars":["araki-hitomi"],"duration":"36:09","quality":"3","year":"0","view":"106,881","viewday":"993","viewweek":"5842","viewmonth":"5837","like":"234","likeday":"1","likeweek":"1","likemonth":"1","published":"2016-01-30","dmca":"1","url":"movie\/wild--araki-hitomi-gives-the-best-head-ever.553.html"},{"id":"851","name":"Nasty and pervert dark haired babe Minako Uchida stripping off and get fondled by a naughty guy","image":"http:\/\/statics.javhihi.com\/images\/movies\/javhihi.com-nasty-and-pervert-dark-haired-babe-minako-uchida-stripping-off-and-get-fondled-by-a-naughty-guy.jpg","image_small":"http:\/\/statics.javhihi.com\/images\/movies\/javhihi.com-nasty-and-pervert-dark-haired-babe-minako-uchida-stripping-off-and-get-fondled-by-a-naughty-guy.small.jpg","categories":["hairy-pussy","hardcore","milf","toys"],"tags":["mom","hot-milf","busty","hairy-pussy","pussy-licking","tit-licking","fingering","toy-insertion","tit-squeezing","pussy","lick","pussy-lick"],"pornstars":["minako-uchida"],"duration":"17:56","quality":"3","year":"0","view":"124,426","viewday":"387","viewweek":"2420","viewmonth":"2416","like":"232","likeday":"1","likeweek":"6","likemonth":"6","published":"2016-03-17","dmca":"0","url":"movie\/nasty-and-pervert-dark-haired-babe-minako-uchida-stripping-off-and-get-fondled-by-a-naughty-guy.851.html"},{"id":"2622","name":"Satomi Suzuki's Tight MILF Pussy Creampied In POV-Style","image":"http:\/\/statics.javhihi.com\/images\/movies\/javhihi.com-satomi-suzuki-s-tight-milf-pussy-creampied-in-pov.jpg","image_small":"http:\/\/statics.javhihi.com\/images\/movies\/javhihi.com-satomi-suzuki-s-tight-milf-pussy-creampied-in-pov.small.jpg","categories":["big-tits","blowjob","creampie","hardcore","pov","tit-fuck"],"tags":["hot-milf","busty","tit-licking","hairy-pussy","fingering","pussy-licking","nice-ass","cock-sucking","tit-fuck","hardcore-action","dick-riding","doggy-style","deep-penetration","creamed-pussy","pussy-creampies","tits"],"pornstars":["satomi-suzuki"],"duration":"36:40","quality":"3","year":"0","view":"247,497","viewday":"1657","viewweek":"8550","viewmonth":"8546","like":"229","likeday":"0","likeweek":"9","likemonth":"9","published":"2015-10-18","dmca":"0","url":"movie\/satomi-suzuki-s-tight-milf-pussy-creampied-in-pov-style.2622.html"},{"id":"85","name":"Classy Japanese babe Ibuki got some other office skills","image":"http:\/\/statics.javhihi.com\/images\/movies\/javhihi.com-classy-japanese-babe-ibuki-got-some-other-office-skills.jpg","image_small":"http:\/\/statics.javhihi.com\/images\/movies\/javhihi.com-classy-japanese-babe-ibuki-got-some-other-office-skills.small.jpg","categories":["blowjob","cumshot","facial","office-lady"],"tags":["hot-milf","office-suit","glasses","cock-sucking","headfuck","deep-throat","cum-on-face","uniform"],"pornstars":["ibuki"],"duration":"16:00","quality":"3","year":"0","view":"100,674","viewday":"652","viewweek":"2982","viewmonth":"2980","like":"227","likeday":"0","likeweek":"4","likemonth":"4","published":"2015-07-31","dmca":"1","url":"movie\/classy--japanese-babe-ibuki-got-some-other-office-skills.85.html"},{"id":"1010","name":"Innocent Yuki Minami Gets her Hairy Snatch Pounded by a Big Cock","image":"http:\/\/statics.javhihi.com\/images\/movies\/javhihi.com-innocent-yuki-minami-gets-her-hairy-snatch-pounded-by-a-big-cock.jpg","image_small":"http:\/\/statics.javhihi.com\/images\/movies\/javhihi.com-innocent-yuki-minami-gets-her-hairy-snatch-pounded-by-a-big-cock.small.jpg","categories":["big-tits","blowjob","hardcore","maid","teen","tit-fuck"],"tags":["nice-teen","sexy-maid","hand-work","pov","body-licking","cock-sucking","tit-fuck","pink-pussy","fingering","vibrator","busty","hardcore-action","doggy-style","masturbation","tits","uniform"],"pornstars":["yuki-minami"],"duration":"34:08","quality":"3","year":"0","view":"207,179","viewday":"2304","viewweek":"16879","viewmonth":"16851","like":"224","likeday":"4","likeweek":"15","likemonth":"15","published":"2016-04-10","dmca":"0","url":"movie\/innocent-yuki-minami-gets-her-hairy-snatch-pounded-by-a-big-cock.1010.html"},{"id":"530","name":"Ageha Kinashita enjoys hot hardcore action","image":"http:\/\/statics.javhihi.com\/images\/movies\/javhihi.com-ageha-kinashita-enjoys-hot-hardcore-action.jpg","image_small":"http:\/\/statics.javhihi.com\/images\/movies\/javhihi.com-ageha-kinashita-enjoys-hot-hardcore-action.small.jpg","categories":["blowjob","creampie","hardcore","teen"],"tags":["nice-teen","small-tits","pink-pussy","pussy-stimulation","pussy-licking","fingering","cock-sucking","ball-licking","hardcore-action","dick-riding","stand-fucking","rear-fuck","creamed-pussy","cum-on-tits","pussy-creampies","lick","pussy-lick"],"pornstars":["ageha-kinashita"],"duration":"36:45","quality":"3","year":"0","view":"116,153","viewday":"2","viewweek":"6042","viewmonth":"6028","like":"215","likeday":"0","likeweek":"7","likemonth":"7","published":"2016-01-27","dmca":"1","url":"movie\/ageha--kinashita-enjoys-hot-hardcore-action.530.html"},{"id":"1046","name":"Satomi Suzuki busty is fucked like crazy","image":"http:\/\/statics.javhihi.com\/images\/movies\/javhihi.com-satomi-suzuki-busty-is-fucked-like-crazy.jpg","image_small":"http:\/\/statics.javhihi.com\/images\/movies\/javhihi.com-satomi-suzuki-busty-is-fucked-like-crazy.small.jpg","categories":["big-tits","blowjob","hairy-pussy","hardcore","teen"],"tags":["nice-teen","busty","hairy-pussy","pussy-stimulation","fingering","cock-sucking","nice-ass","dick-riding","hardcore-action","doggy-style","teen-pussy","pussy","tits"],"pornstars":["satomi-suzuki"],"duration":"23:43","quality":"3","year":"0","view":"121,263","viewday":"3161","viewweek":"14959","viewmonth":"14948","like":"209","likeday":"3","likeweek":"24","likemonth":"24","published":"2016-04-16","dmca":"0","url":"movie\/satomi-suzuki-busty-is-fucked-like-crazy.1046.html"},{"id":"997","name":"Japanese Schoolgirl Makoto Kurosaki Sucks Dick in POV JAV Movie","image":"http:\/\/statics.javhihi.com\/images\/movies\/javhihi.com-japanese-schoolgirl-makoto-kurosaki-sucks-dick-in-pov-jav-movie.jpg","image_small":"http:\/\/statics.javhihi.com\/images\/movies\/javhihi.com-japanese-schoolgirl-makoto-kurosaki-sucks-dick-in-pov-jav-movie.small.jpg","categories":["blowjob","fingering","hairy-pussy","pov","schoolgirl","teen"],"tags":["cock-sucking","nice-teen","cum-in-mouth","school-uniform","hairy-pussy","fingering","vibrator","teen-pussy","pussy","uniform"],"pornstars":["makoto-kurosaki"],"duration":"35:14","quality":"1","year":"0","view":"106,321","viewday":"1597","viewweek":"8863","viewmonth":"8856","like":"209","likeday":"4","likeweek":"28","likemonth":"28","published":"2016-04-08","dmca":"0","url":"movie\/japanese-schoolgirl-makoto-kurosaki-sucks-dick-in-pov-jav-movie.997.html"},{"id":"797","name":"A Creamed Pussy Is Miku Airi's Reward In GroupSex","image":"http:\/\/statics.javhihi.com\/images\/movies\/javhihi.com-a-creamed-pussy-is-miku-airi-s-reward-in-group-sex.jpg","image_small":"http:\/\/statics.javhihi.com\/images\/movies\/javhihi.com-a-creamed-pussy-is-miku-airi-s-reward-in-group-sex.small.jpg","categories":["cumshot","facial","fingering","gang-bang","group-sex","hardcore","teen"],"tags":["nice-teen","group-action","wild-gang","pink-pussy","fingering","pussy-licking","cock-sucking","doggy-style","hardcore-action","dick-riding","cum-in-mouth","cum-on-face","creamed-pussy"],"pornstars":["miku-airi"],"duration":"45:13","quality":"3","year":"0","view":"131,542","viewday":"1","viewweek":"3172","viewmonth":"3168","like":"208","likeday":"0","likeweek":"5","likemonth":"5","published":"2015-07-31","dmca":"0","url":"movie\/a-creamed-pussy-is-miku-airi-s-reward-in-groupsex.797.html"},{"id":"13","name":"Yuu Mahiru gets 1 hot double teaming","image":"http:\/\/statics.javhihi.com\/images\/movies\/javhihi.com-yuu-mahiru-gets-one-hot-double-teaming.jpg","image_small":"http:\/\/statics.javhihi.com\/images\/movies\/javhihi.com-yuu-mahiru-gets-one-hot-double-teaming.small.jpg","categories":["anal","bondage","double-penetration","group-sex","hardcore","teen","threesome"],"tags":["nice-teen","gag","group-action","mmf","pink-lingerie","pink-pussy","gaping-hole","fingering","sex-toys","dildo","toy-insertion","ass-insertion","cock-sucking","headfuck","deep-throat","hardcore-action","doggy-style","nice-ass","dick-riding","double-penetration","anal-penetration","creamed-ass"],"pornstars":["yuu-mahiru"],"duration":"32:27","quality":"3","year":"0","view":"162,880","viewday":"1048","viewweek":"5515","viewmonth":"5511","like":"205","likeday":"3","likeweek":"6","likemonth":"6","published":"2015-11-04","dmca":"0","url":"movie\/yuu-mahiru-gets-1-hot-double-teaming.13.html"},{"id":"516","name":"JAV Cutie Riona Suzune Shaved Pussy Licked & Fucked in a Warehouse","image":"http:\/\/statics.javhihi.com\/images\/movies\/javhihi.com-jav-cutie-riona-suzune-shaved-pussy-licked-fucked-in-a-warehouse.jpg","image_small":"http:\/\/statics.javhihi.com\/images\/movies\/javhihi.com-jav-cutie-riona-suzune-shaved-pussy-licked-fucked-in-a-warehouse.small.jpg","categories":["blowjob","hardcore","shaved-pussy","stockings"],"tags":["hot-milf","sexy-pantyhose","housewife","nice-ass","busty","fingering","doggy-style","hardcore-action","shaved-pussy","rear-fuck","cock-sucking","dick-riding","creamed-pussy","pussy","uniform"],"pornstars":["riona-suzune"],"duration":"25:56","quality":"3","year":"0","view":"107,146","viewday":"535","viewweek":"3060","viewmonth":"3055","like":"202","likeday":"0","likeweek":"2","likemonth":"2","published":"2016-01-24","dmca":"1","url":"movie\/jav--cutie-riona-suzune-shaved-pussy-licked-fucked-in-a-warehouse.516.html"}],"total":1939,"next_page_url":"movie?sort=like&page=3","page":2,"total_page":81}