{"movies":[{"id":"1306","name":"Yuna Hirose busty is aroused big time","image":"http:\/\/statics.javhihi.com\/images\/movies\/javhihi.com-yuna-hirose-busty-is-aroused-big-time.jpg","image_small":"http:\/\/statics.javhihi.com\/images\/movies\/javhihi.com-yuna-hirose-busty-is-aroused-big-time.small.jpg","categories":["big-tits","creampie","hardcore"],"tags":["cock-sucking","hot-milf","busty","nice-ass","pink-pussy","pussy-licking","ass-licking","fingering","sex-toys","vibrator","69","doggy-style","hardcore-action","dick-riding","creamed-pussy","pussy-creampies","tits","lick","ass-lick","pussy-lick"],"pornstars":["yuna-hirose"],"duration":"27:00","quality":"3","year":"0","view":"10,292","viewday":"319","viewweek":"4432","viewmonth":"307","like":"23","likeday":"0","likeweek":"8","likemonth":"0","published":"2016-05-28","dmca":"0","url":"movie\/yuna-hirose-busty-is-aroused-big-time.1306.html"},{"id":"1307","name":"Manami Komukai sucks dick in the bathtub","image":"http:\/\/statics.javhihi.com\/images\/movies\/javhihi.com-manami-komukai-sucks-dick-in-the-bathtub.jpg","image_small":"http:\/\/statics.javhihi.com\/images\/movies\/javhihi.com-manami-komukai-sucks-dick-in-the-bathtub.small.jpg","categories":["big-tits","blowjob","lingerie","masturbation","tit-fuck"],"tags":["hot-milf","shower","masturbation","sexy-lingerie","wet-clothes","busty","sex-toys","vibrator","hairy-pussy","soaping","cock-sucking","tit-fuck","cum-in-mouth","wet-clothing","tits","uniform"],"pornstars":["manami-komukai"],"duration":"18:23","quality":"3","year":"0","view":"21,092","viewday":"727","viewweek":"11556","viewmonth":"703","like":"61","likeday":"0","likeweek":"27","likemonth":"0","published":"2016-05-28","dmca":"0","url":"movie\/manami-komukai-sucks-dick-in-the-bathtub.1307.html"},{"id":"1310","name":"Sayaka Tsuzi holds tits as gets vibrator","image":"http:\/\/statics.javhihi.com\/images\/movies\/javhihi.com-sayaka-tsuzi-holds-tits-as-gets-vibrator.jpg","image_small":"http:\/\/statics.javhihi.com\/images\/movies\/javhihi.com-sayaka-tsuzi-holds-tits-as-gets-vibrator.small.jpg","categories":["anal","creampie","hardcore","toys"],"tags":["hot-milf","busty","sex-toys","vibrator","fingering","dildo","ass-insertion","ball-licking","cock-sucking","dick-riding","hardcore-action","group-action","mmf","doggy-style","anal-penetration","creamed-ass","creamed-pussy","anal-creampie","pussy-creampies"],"pornstars":["sayaka-tsuzi"],"duration":"40:34","quality":"3","year":"0","view":"18,639","viewday":"437","viewweek":"9737","viewmonth":"425","like":"31","likeday":"1","likeweek":"20","likemonth":"1","published":"2016-05-28","dmca":"0","url":"movie\/sayaka-tsuzi-holds-tits-as-gets-vibrator.1310.html"},{"id":"1308","name":"Nozomi Koizumi strokes and sucks woodies","image":"http:\/\/statics.javhihi.com\/images\/movies\/javhihi.com-nozomi-koizumi-strokes-and-sucks-woodies.jpg","image_small":"http:\/\/statics.javhihi.com\/images\/movies\/javhihi.com-nozomi-koizumi-strokes-and-sucks-woodies.small.jpg","categories":["blowjob","cumshot","facial","group-sex","teen"],"tags":["nice-teen","sexy-lingerie","vibrator","nice-ass","group-action","double-blowjob","pink-pussy","cum-on-face","foursome","teen-pussy","pussy"],"pornstars":["nozomi-koizumi"],"duration":"27:19","quality":"3","year":"0","view":"16,868","viewday":"445","viewweek":"9106","viewmonth":"434","like":"26","likeday":"1","likeweek":"15","likemonth":"1","published":"2016-05-28","dmca":"0","url":"movie\/nozomi-koizumi-strokes-and-sucks-woodies.1308.html"},{"id":"1309","name":"Mayuka Akimoto gives him young asian sex with her mouth","image":"http:\/\/statics.javhihi.com\/images\/movies\/javhihi.com-mayuka-akimoto-gives-him-young-asian-sex-with-her-mouth.jpg","image_small":"http:\/\/statics.javhihi.com\/images\/movies\/javhihi.com-mayuka-akimoto-gives-him-young-asian-sex-with-her-mouth.small.jpg","categories":["amateur","blowjob","cumshot","lingerie"],"tags":["nice-teen","transparent-lingerie","pov","amateur","nice-ass","hand-work","cock-sucking","cum-in-mouth","uniform"],"pornstars":["mayuka-akimoto"],"duration":"20:07","quality":"3","year":"0","view":"19,144","viewday":"468","viewweek":"10851","viewmonth":"454","like":"29","likeday":"2","likeweek":"17","likemonth":"2","published":"2016-05-28","dmca":"0","url":"movie\/mayuka-akimoto-gives-him-young-asian-sex-with-her-mouth.1309.html"},{"id":"1305","name":"Sweet Saki Aoyama oiled fingers her fish taco","image":"http:\/\/statics.javhihi.com\/images\/movies\/javhihi.com-sweet-saki-aoyama-oiled-fingers-her-fish-taco.jpg","image_small":"http:\/\/statics.javhihi.com\/images\/movies\/javhihi.com-sweet-saki-aoyama-oiled-fingers-her-fish-taco.small.jpg","categories":["big-tits","hardcore","masturbation","milf"],"tags":["mom","hot-milf","busty","swimsuit","nice-ass","oiled-body","solo-girl","masturbation","tits"],"pornstars":["saki-aoyama"],"duration":"15:03","quality":"3","year":"0","view":"9,800","viewday":"364","viewweek":"4991","viewmonth":"357","like":"17","likeday":"1","likeweek":"12","likemonth":"1","published":"2016-05-28","dmca":"0","url":"movie\/sweet-saki-aoyama-oiled-fingers-her-fish-taco.1305.html"},{"id":"1301","name":"Miharu Kai gets vibrator and is fingered","image":"http:\/\/statics.javhihi.com\/images\/movies\/javhihi.com-miharu-kai-gets-vibrator-and-is-fingered.jpg","image_small":"http:\/\/statics.javhihi.com\/images\/movies\/javhihi.com-miharu-kai-gets-vibrator-and-is-fingered.small.jpg","categories":["big-tits","bondage","hardcore","milf","toys"],"tags":["mom","hot-milf","mini-bikini","big-tits","tit-squeezing","pussy-licking","toy-insertion","vibrator","fingering","tits"],"pornstars":["miharu-kai"],"duration":"13:36","quality":"3","year":"0","view":"10,532","viewday":"261","viewweek":"3141","viewmonth":"252","like":"19","likeday":"1","likeweek":"5","likemonth":"1","published":"2016-05-27","dmca":"0","url":"movie\/miharu-kai-gets-vibrator-and-is-fingered.1301.html"},{"id":"1298","name":"Cute Haruka Oosawa pounded by buzzing sex toys","image":"http:\/\/statics.javhihi.com\/images\/movies\/javhihi.com-cute-haruka-oosawa-pounded-by-buzzing-sex-toys.jpg","image_small":"http:\/\/statics.javhihi.com\/images\/movies\/javhihi.com-cute-haruka-oosawa-pounded-by-buzzing-sex-toys.small.jpg","categories":["big-tits","bikini","bondage","lingerie","toys"],"tags":["nice-teen","busty","sexy-lingerie","mini-bikini","handcuffs","sex-toys","vibrator","dildo","high-heels","toy-insertion","nice-ass","fingering","tits","uniform"],"pornstars":["haruka-oosawa"],"duration":"11:03","quality":"3","year":"0","view":"6,314","viewday":"191","viewweek":"2120","viewmonth":"190","like":"11","likeday":"0","likeweek":"5","likemonth":"0","published":"2016-05-27","dmca":"0","url":"movie\/cute-haruka-oosawa-pounded-by-buzzing-sex-toys.1298.html"},{"id":"1299","name":"Sexy Maya loves having her hot ass filled with dick meat!","image":"http:\/\/statics.javhihi.com\/images\/movies\/javhihi.com-sexy-maya-loves-having-her-hot-ass-filled-with-dick-meat.jpg","image_small":"http:\/\/statics.javhihi.com\/images\/movies\/javhihi.com-sexy-maya-loves-having-her-hot-ass-filled-with-dick-meat.small.jpg","categories":["anal","double-penetration","fingering","group-sex","schoolgirl","threesome"],"tags":["nice-teen","school-uniform","nice-ass","fingering","anal-penetration","pink-pussy","sex-toys","dildo","toy-insertion","cock-sucking","hardcore-action","double-penetration","doggy-style","dick-riding","creamed-pussy","uniform"],"pornstars":["maya"],"duration":"52:32","quality":"3","year":"0","view":"12,678","viewday":"377","viewweek":"4658","viewmonth":"366","like":"33","likeday":"0","likeweek":"13","likemonth":"0","published":"2016-05-27","dmca":"0","url":"movie\/sexy-maya-loves-having-her-hot-ass-filled-with-dick-meat.1299.html"},{"id":"1302","name":"Maomi Nakazawa is deeply pumped in crack","image":"http:\/\/statics.javhihi.com\/images\/movies\/javhihi.com-maomi-nakazawa-is-deeply-pumped-in-crack.jpg","image_small":"http:\/\/statics.javhihi.com\/images\/movies\/javhihi.com-maomi-nakazawa-is-deeply-pumped-in-crack.small.jpg","categories":["blowjob","creampie","fingering","hardcore","teen"],"tags":["upskirt","nice-ass","nice-teen","sexy-lingerie","busty","tit-licking","kissing","fingering","cock-sucking","hardcore-action","dick-riding","creamed-pussy","pussy-creampies"],"pornstars":["maomi-nakazawa"],"duration":"36:30","quality":"3","year":"0","view":"15,984","viewday":"320","viewweek":"3930","viewmonth":"318","like":"58","likeday":"0","likeweek":"11","likemonth":"0","published":"2016-05-27","dmca":"0","url":"movie\/maomi-nakazawa-is-deeply-pumped-in-crack.1302.html"},{"id":"1303","name":"Ai Okada gets vibrator in hot threesome","image":"http:\/\/statics.javhihi.com\/images\/movies\/javhihi.com-ai-okada-gets-vibrator-in-hot-threesome.jpg","image_small":"http:\/\/statics.javhihi.com\/images\/movies\/javhihi.com-ai-okada-gets-vibrator-in-hot-threesome.small.jpg","categories":["blowjob","cumshot","group-sex","lingerie","stockings"],"tags":["hot-milf","sexy-lingerie","group-action","black-lingerie","busty","vibrator","hairy-pussy","cock-sucking","hand-work","cum-on-body","cum-in-mouth","cum-on-tits","foursome","uniform"],"pornstars":["ai-okada"],"duration":"30:04","quality":"3","year":"0","view":"7,191","viewday":"87","viewweek":"1521","viewmonth":"87","like":"20","likeday":"0","likeweek":"4","likemonth":"0","published":"2016-05-27","dmca":"0","url":"movie\/ai-okada-gets-vibrator-in-hot-threesome.1303.html"},{"id":"1304","name":"Alice Ozawa sucks woody with such skills","image":"http:\/\/statics.javhihi.com\/images\/movies\/javhihi.com-alice-ozawa-sucks-woody-with-such-skills.jpg","image_small":"http:\/\/statics.javhihi.com\/images\/movies\/javhihi.com-alice-ozawa-sucks-woody-with-such-skills.small.jpg","categories":["big-tits","blowjob","cumshot","lingerie","pov","stockings","tit-fuck"],"tags":["nice-teen","sexy-lingerie","sexy-stockings","cock-sucking","pov","busty","tit-fuck","cum-on-tits","tits","uniform"],"pornstars":["alice-ozawa"],"duration":"14:54","quality":"3","year":"0","view":"20,392","viewday":"568","viewweek":"6606","viewmonth":"557","like":"30","likeday":"3","likeweek":"9","likemonth":"3","published":"2016-05-27","dmca":"0","url":"movie\/alice-ozawa-sucks-woody-with-such-skills.1304.html"},{"id":"1293","name":"Minami Kitagawa's foursome ends in an asian cum facial","image":"http:\/\/statics.javhihi.com\/images\/movies\/javhihi.com-minami-kitagawa-s-foursome-ends-in-an-asian-cum-facial.jpg","image_small":"http:\/\/statics.javhihi.com\/images\/movies\/javhihi.com-minami-kitagawa-s-foursome-ends-in-an-asian-cum-facial.small.jpg","categories":["bukkake","group-sex","outdoor","threesome","toys"],"tags":["nice-teen","mini-bikini","public-place","hot-milf","tattoo","pink-pussy","sex-toys","vibrator","shaved-pussy","dildo","toy-insertion","hardcore-action","busty","group-action","mmf","rear-fuck","headfuck","cock-sucking","doggy-style","creamed-pussy","cum-on-face","massive-cum","foursome","public-sex"],"pornstars":["minami-kitagawa"],"duration":"58:48","quality":"3","year":"0","view":"35,087","viewday":"1286","viewweek":"13675","viewmonth":"1263","like":"67","likeday":"5","likeweek":"41","likemonth":"5","published":"2016-05-26","dmca":"0","url":"movie\/minami-kitagawa-s-foursome-ends-in-an-asian-cum-facial.1293.html"},{"id":"1294","name":"Manami Komukai busty rides phallus on top","image":"http:\/\/statics.javhihi.com\/images\/movies\/javhihi.com-manami-komukai-busty-rides-phallus-on-top.jpg","image_small":"http:\/\/statics.javhihi.com\/images\/movies\/javhihi.com-manami-komukai-busty-rides-phallus-on-top.small.jpg","categories":["amateur","blowjob","hardcore"],"tags":["hot-milf","amateur","housewife","pink-pussy","pussy-stimulation","cock-sucking","kitchen","rear-fuck","hardcore-action","dick-riding","cum-in-mouth","uniform"],"pornstars":["manami-komukai"],"duration":"20:20","quality":"3","year":"0","view":"26,822","viewday":"552","viewweek":"6621","viewmonth":"541","like":"39","likeday":"0","likeweek":"13","likemonth":"0","published":"2016-05-26","dmca":"0","url":"movie\/manami-komukai-busty-rides-phallus-on-top.1294.html"},{"id":"1295","name":"Saki Aoyama with spread legs sucks tool","image":"http:\/\/statics.javhihi.com\/images\/movies\/javhihi.com-saki-aoyama-with-spread-legs-sucks-tool.jpg","image_small":"http:\/\/statics.javhihi.com\/images\/movies\/javhihi.com-saki-aoyama-with-spread-legs-sucks-tool.small.jpg","categories":["blowjob","creampie","group-sex","hardcore","threesome"],"tags":["group-action","mmf","sexy-lingerie","busty","nice-ass","hairy-pussy","nipple-pinching","fingering","cock-sucking","hardcore-action","deep-penetration","creamed-pussy","pussy-creampies"],"pornstars":["saki-aoyama"],"duration":"38:54","quality":"3","year":"0","view":"16,984","viewday":"283","viewweek":"3596","viewmonth":"281","like":"23","likeday":"1","likeweek":"9","likemonth":"1","published":"2016-05-26","dmca":"0","url":"movie\/saki-aoyama-with-spread-legs-sucks-tool.1295.html"},{"id":"1296","name":"Sayaka Tsuzi rubs cock and fondles balls","image":"http:\/\/statics.javhihi.com\/images\/movies\/javhihi.com-sayaka-tsuzi-rubs-cock-and-fondles-balls.jpg","image_small":"http:\/\/statics.javhihi.com\/images\/movies\/javhihi.com-sayaka-tsuzi-rubs-cock-and-fondles-balls.small.jpg","categories":["bikini","bondage","handjob","hardcore","milf"],"tags":["mom","hot-milf","female-domination","mini-bikini","busty","hand-work","sex-toys","cumshot","uniform"],"pornstars":["sayaka-tsuzi"],"duration":"10:41","quality":"3","year":"0","view":"20,565","viewday":"341","viewweek":"3864","viewmonth":"336","like":"40","likeday":"0","likeweek":"10","likemonth":"0","published":"2016-05-26","dmca":"0","url":"movie\/sayaka-tsuzi-rubs-cock-and-fondles-balls.1296.html"},{"id":"1292","name":"Ai Okada enjoys fucking with vibrator","image":"http:\/\/statics.javhihi.com\/images\/movies\/javhihi.com-ai-okada-enjoys-fucking-with-vibrator.jpg","image_small":"http:\/\/statics.javhihi.com\/images\/movies\/javhihi.com-ai-okada-enjoys-fucking-with-vibrator.small.jpg","categories":["fingering","hairy-pussy","hardcore","milf"],"tags":["mom","hairy-pussy","hot-milf","huge-boobs","tit-squeezing","vibrator","fingering","huge-tits","pussy","tits"],"pornstars":["ai-okada"],"duration":"13:13","quality":"3","year":"0","view":"9,330","viewday":"253","viewweek":"2326","viewmonth":"248","like":"12","likeday":"0","likeweek":"9","likemonth":"0","published":"2016-05-26","dmca":"0","url":"movie\/ai-okada-enjoys-fucking-with-vibrator.1292.html"},{"id":"1297","name":"MILF Nozomi Koizumi's asian blowjob and pussy creampie","image":"http:\/\/statics.javhihi.com\/images\/movies\/javhihi.com-milf-nozomi-koizumi-s-asian-blowjob-and-pussy-creampie.jpg","image_small":"http:\/\/statics.javhihi.com\/images\/movies\/javhihi.com-milf-nozomi-koizumi-s-asian-blowjob-and-pussy-creampie.small.jpg","categories":["blowjob","creampie","group-sex","hardcore","threesome"],"tags":["group-action","hot-milf","cock-sucking","hardcore-action","doggy-style","dick-riding","deep-penetration","creamed-pussy","pussy-creampies"],"pornstars":["nozomi-koizumi"],"duration":"26:36","quality":"3","year":"0","view":"18,199","viewday":"338","viewweek":"3477","viewmonth":"333","like":"55","likeday":"0","likeweek":"9","likemonth":"0","published":"2016-05-26","dmca":"0","url":"movie\/milf-nozomi-koizumi-s-asian-blowjob-and-pussy-creampie.1297.html"},{"id":"1286","name":"Maomi Nakazawa sucks dick during fucking","image":"http:\/\/statics.javhihi.com\/images\/movies\/javhihi.com-maomi-nakazawa-sucks-dick-during-fucking.jpg","image_small":"http:\/\/statics.javhihi.com\/images\/movies\/javhihi.com-maomi-nakazawa-sucks-dick-during-fucking.small.jpg","categories":["blowjob","creampie","squirting","teen"],"tags":["nice-teen","group-action","mmf","pink-pussy","fingering","cock-sucking","doggy-style","nice-ass","pussy-stimulation","double-blowjob","hardcore-action","squirting","creamed-pussy","pussy-creampies","teen-pussy","pussy"],"pornstars":["maomi-nakazawa"],"duration":"38:43","quality":"3","year":"0","view":"32,386","viewday":"637","viewweek":"5958","viewmonth":"622","like":"81","likeday":"1","likeweek":"7","likemonth":"1","published":"2016-05-25","dmca":"0","url":"movie\/maomi-nakazawa-sucks-dick-during-fucking.1286.html"},{"id":"1287","name":"Mayuka Akimoto in japanese masturbation movie","image":"http:\/\/statics.javhihi.com\/images\/movies\/javhihi.com-mayuka-akimoto-in-japanese-masturbation-movie.jpg","image_small":"http:\/\/statics.javhihi.com\/images\/movies\/javhihi.com-mayuka-akimoto-in-japanese-masturbation-movie.small.jpg","categories":["fingering","pov","toys"],"tags":["nice-teen","pov","masturbation","nice-ass","fingering","sex-toys","vibrator","dildo","toy-insertion"],"pornstars":["mayuka-akimoto"],"duration":"28:41","quality":"3","year":"0","view":"32,050","viewday":"530","viewweek":"5972","viewmonth":"519","like":"72","likeday":"6","likeweek":"15","likemonth":"6","published":"2016-05-25","dmca":"0","url":"movie\/mayuka-akimoto-in-japanese-masturbation-movie.1287.html"},{"id":"1288","name":"Yuna Hirose gets vibrators on oiled body","image":"http:\/\/statics.javhihi.com\/images\/movies\/javhihi.com-yuna-hirose-gets-vibrators-on-oiled-body.jpg","image_small":"http:\/\/statics.javhihi.com\/images\/movies\/javhihi.com-yuna-hirose-gets-vibrators-on-oiled-body.small.jpg","categories":["bikini","bukkake","cumshot","facial","toys"],"tags":["hot-milf","cum-on-face","cock-sucking","mini-bikini","sex-toys","vibrator","group-action","wild-gang","massive-cum","multiple-cumshots","oiled-body","busty","fingering","uniform"],"pornstars":["yuna-hirose"],"duration":"12:46","quality":"3","year":"0","view":"12,037","viewday":"213","viewweek":"1816","viewmonth":"210","like":"20","likeday":"0","likeweek":"3","likemonth":"0","published":"2016-05-25","dmca":"0","url":"movie\/yuna-hirose-gets-vibrators-on-oiled-body.1288.html"},{"id":"1290","name":"Maika strokes and sucks boners with skill","image":"http:\/\/statics.javhihi.com\/images\/movies\/javhihi.com-maika-strokes-and-sucks-boners-with-skill.jpg","image_small":"http:\/\/statics.javhihi.com\/images\/movies\/javhihi.com-maika-strokes-and-sucks-boners-with-skill.small.jpg","categories":["blowjob","cumshot","facial","group-sex","handjob"],"tags":["nice-teen","sexy-lingerie","cock-sucking","group-action","double-blowjob","hand-work","cum-on-face","cum-in-mouth","foursome"],"pornstars":["maika"],"duration":"13:20","quality":"3","year":"0","view":"9,322","viewday":"122","viewweek":"1092","viewmonth":"122","like":"13","likeday":"0","likeweek":"1","likemonth":"0","published":"2016-05-25","dmca":"0","url":"movie\/maika-strokes-and-sucks-boners-with-skill.1290.html"},{"id":"1291","name":"Alice Ozawa has hard penis in hairy cunt","image":"http:\/\/statics.javhihi.com\/images\/movies\/javhihi.com-alice-ozawa-has-hard-penis-in-hairy-cunt.jpg","image_small":"http:\/\/statics.javhihi.com\/images\/movies\/javhihi.com-alice-ozawa-has-hard-penis-in-hairy-cunt.small.jpg","categories":["big-tits","blowjob","creampie","hardcore","teen","tit-fuck"],"tags":["nice-teen","busty","nice-ass","tit-squeezing","tit-licking","fatty","fingering","tit-fuck","headfuck","69","hand-work","hardcore-action","dick-riding","creamed-pussy","pussy-creampies","tits"],"pornstars":["alice-ozawa"],"duration":"34:33","quality":"3","year":"0","view":"71,196","viewday":"4285","viewweek":"31836","viewmonth":"4201","like":"163","likeday":"16","likeweek":"113","likemonth":"16","published":"2016-05-25","dmca":"0","url":"movie\/alice-ozawa-has-hard-penis-in-hairy-cunt.1291.html"},{"id":"1285","name":"Haruka Oosawa in pink socks has big fuck","image":"http:\/\/statics.javhihi.com\/images\/movies\/javhihi.com-haruka-oosawa-in-pink-socks-has-big-fuck.jpg","image_small":"http:\/\/statics.javhihi.com\/images\/movies\/javhihi.com-haruka-oosawa-in-pink-socks-has-big-fuck.small.jpg","categories":["blowjob","creampie","group-sex","hardcore"],"tags":["group-action","mmmf","pink-pussy","fingering","busty","nice-ass","cock-sucking","facesitting","pussy-licking","sex-toys","vibrator","doggy-style","hardcore-action","dick-riding","headfuck","creamed-pussy","pussy-creampies","foursome"],"pornstars":["haruka-oosawa"],"duration":"34:35","quality":"3","year":"0","view":"6,360","viewday":"120","viewweek":"1293","viewmonth":"115","like":"7","likeday":"0","likeweek":"1","likemonth":"0","published":"2016-05-25","dmca":"0","url":"movie\/haruka-oosawa-in-pink-socks-has-big-fuck.1285.html"}],"total":2095,"next_page_url":"movie?sort=published&page=3","page":2,"total_page":88}